46
0 20 95 95 28 15 87 37 66 62 22 44 81 79 64 85 91 28 58 46 46 40 31 82 79 69 96 34 84 81 67 35 76 31 55 97 103 36 9 94 32 82 63 16 108 103
20 0 76 77 31 33 87 36 47 64 10 34 66 92 49 93 77 17 77 58 66 61 12 61 81 64 86 54 76 91 46 24 84 29 36 84 83 57 30 80 21 75 83 36 88 83
95 76 0 2 81 109 92 104 68 129 72 92 25 132 34 163 28 68 153 133 130 134 64 30 93 65 123 120 57 125 38 62 155 98 39 106 60 128 103 32 64 58 154 107 66 19
95 77 2 0 81 110 90 105 70 130 73 93 24 131 34 164 26 68 154 134 130 135 65 32 92 64 125 120 56 124 40 62 156 99 40 109 62 128 103 30 64 56 154 107 68 21
28 31 81 81 0 42 59 62 76 89 21 65 62 62 47 113 71 18 80 74 48 57 32 78 51 42 117 38 57 61 65 21 104 55 47 115 106 49 30 72 20 56 73 30 112 95
15 33 109 110 42 0 100 33 73 53 37 45 97 85 80 71 107 43 43 32 44 30 45 94 91 84 94 33 99 89 79 51 62 29 70 98 112 28 12 109 48 98 54 17 116 117
87 87 92 90 59 100 0 122 123 149 76 122 67 53 66 171 66 70 132 132 83 105 83 107 9 29 173 82 35 42 100 66 162 115 80 166 141 96 88 64 68 34 111 85 148 111
37 36 104 105 62 33 122 0 49 28 46 16 99 116 82 59 110 53 62 32 77 60 45 81 114 99 61 66 112 118 67 60 50 7 67 66 89 60 41 114 57 111 84 49 92 106
66 47 68 70 76 73 123 49 0 66 55 33 75 139 63 102 85 58 111 81 113 103 43 39 119 95 55 100 100 137 31 59 95 47 45 43 40 101 75 89 58 100 127 82 43 63
62 64 129 130 89 53 149 28 66 0 74 36 126 138 110 35 137 81 63 31 95 72 73 103 141 127 51 85 140 142 91 88 29 35 93 65 104 75 64 141 85 139 93 70 105 128
22 10 72 73 21 37 76 46 55 74 0 45 59 84 42 102 69 7 81 65 62 62 12 61 70 53 97 50 66 82 47 14 93 39 33 93 87 56 30 72 11 65 83 35 92 82
44 34 92 93 65 45 122 16 33 36 45 0 90 123 75 71 101 51 78 48 88 74 40 67 115 97 53 77 107 124 54 56 63 16 57 54 73 73 50 105 54 106 98 58 76 92
81 66 25 24 62 97 67 99 75 126 59 90 0 107 17 158 11 53 140 124 110 118 54 44 67 40 130 101 33 100 44 46 149 93 33 117 79 111 88 15 49 33 136 91 85 44
79 92 132 131 62 85 53 116 139 138 84 123 107 0 99 151 111 81 100 113 47 74 95 136 46 68 176 54 82 11 125 81 142 111 106 176 168 67 75 110 81 81 70 68 174 149
64 49 34 34 47 80 66 82 63 110 42 75 17 99 0 141 27 36 123 107 96 102 37 41 64 36 118 86 37 92 35 29 133 76 18 106 75 96 72 31 32 37 121 75 82 50
85 93 163 164 113 71 171 59 102 35 102 71 158 151 141 0 169 109 56 39 103 77 103 138 163 154 77 97 168 156 125 116 9 65 126 95 139 83 83 172 113 166 92 87 140 163
91 77 28 26 71 107 66 110 85 137 69 101 11 111 27 169 0 63 150 135 118 128 65 52 69 42 141 109 31 102 54 56 160 104 44 127 86 120 98 4 59 32 144 100 92 47
28 17 68 68 18 43 70 53 58 81 7 51 53 81 36 109 63 0 86 72 63 66 14 60 64 46 102 52 59 78 47 7 100 46 30 98 88 60 35 66 4 58 86 38 93 79
58 77 153 154 80 43 132 62 111 63 81 78 140 100 123 56 150 86 0 33 52 27 89 137 122 122 114 50 138 107 122 94 50 63 113 126 151 35 51 152 91 137 35 50 154 160
46 58 133 134 74 32 132 32 81 31 65 48 124 113 107 39 135 72 33 0 67 42 69 112 123 115 81 59 130 118 98 80 30 35 94 93 122 47 44 138 76 129 62 48 124 137
46 66 130 130 48 44 83 77 113 95 62 88 110 47 96 103 118 63 52 67 0 26 74 124 74 81 138 12 98 55 110 68 95 73 94 143 149 20 38 119 66 97 28 30 154 142
40 61 134 135 57 30 105 60 103 72 62 74 118 74 102 77 128 66 27 42 26 0 72 122 95 97 119 23 113 81 108 73 69 58 96 127 142 8 31 129 70 112 24 27 146 144
31 12 64 65 32 45 83 45 43 73 12 40 54 95 37 103 65 14 89 69 74 72 0 50 77 57 89 62 67 93 36 17 95 38 24 84 75 67 40 68 15 66 94 46 80 72
82 61 30 32 78 94 107 81 39 103 61 67 44 136 41 138 52 60 137 112 124 122 50 0 105 77 93 112 76 131 14 57 131 77 31 76 34 117 91 57 58 76 144 96 41 25
79 81 93 92 51 91 9 114 119 141 70 115 67 46 64 163 69 64 122 123 74 95 77 105 0 28 167 72 38 35 97 60 154 107 77 161 139 87 79 67 62 37 102 76 145 111
69 64 65 64 42 84 29 99 95 127 53 97 40 68 36 154 42 46 122 115 81 97 57 77 28 0 146 75 17 60 71 40 145 92 51 138 112 89 73 41 43 15 109 72 118 83
96 86 123 125 117 94 173 61 55 51 97 53 130 176 118 77 141 102 114 81 138 119 89 93 167 146 0 127 154 177 86 107 75 65 99 21 76 121 102 145 105 153 142 109 75 115
34 54 120 120 38 33 82 66 100 85 50 77 101 54 86 97 109 52 50 59 12 23 62 112 72 75 127 0 92 59 98 58 88 62 83 131 137 15 26 111 56 91 34 18 142 132
84 76 57 56 57 99 35 112 100 140 66 107 33 82 37 168 31 59 138 130 98 113 67 76 38 17 154 92 0 73 72 52 159 105 55 144 111 105 88 29 55 1 126 88 117 77
81 91 125 124 61 89 42 118 137 142 82 124 100 11 92 156 102 78 107 118 55 81 93 131 35 60 177 59 73 0 121 78 148 112 101 176 164 73 77 101 78 72 79 71 170 142
67 46 38 40 65 79 100 67 31 91 47 54 44 125 35 125 54 47 122 98 110 108 36 14 97 71 86 98 72 121 0 44 118 63 20 73 42 103 76 58 45 72 130 82 48 38
35 24 62 62 21 51 66 60 59 88 14 56 46 81 29 116 56 7 94 80 68 73 17 57 60 40 107 58 52 78 44 0 107 53 26 101 86 66 42 58 3 51 92 45 92 74
76 84 155 156 104 62 162 50 95 29 93 63 149 142 133 9 160 100 50 30 95 69 95 131 154 145 75 88 159 148 118 107 0 57 117 92 133 75 74 164 104 158 85 78 135 156
31 29 98 99 55 29 115 7 47 35 39 16 93 111 76 65 104 46 63 35 73 58 38 77 107 92 65 62 105 112 63 53 57 0 60 69 88 57 36 107 50 104 82 44 91 101
55 36 39 40 47 70 80 67 45 93 33 57 33 106 18 126 44 30 113 94 94 96 24 31 77 51 99 83 55 101 20 26 117 60 0 88 62 90 64 48 27 55 116 68 68 48
97 84 106 109 115 98 166 66 43 65 93 54 117 176 106 95 127 98 126 93 143 127 84 76 161 138 21 131 144 176 73 101 92 69 88 0 56 127 105 131 99 143 150 112 54 97
103 83 60 62 106 112 141 89 40 104 87 73 79 168 75 139 86 88 151 122 149 142 75 34 139 112 76 137 111 164 42 86 133 88 62 56 0 139 112 90 86 111 165 119 6 44
36 57 128 128 49 28 96 60 101 75 56 73 111 67 96 83 120 60 35 47 20 8 67 117 87 89 121 15 105 73 103 66 75 57 90 127 139 0 26 122 64 104 26 21 143 139
9 30 103 103 30 12 88 41 75 64 30 50 88 75 72 83 98 35 51 44 38 31 40 91 79 73 102 26 88 77 76 42 74 36 64 105 112 26 0 100 39 87 53 7 117 112
94 80 32 30 72 109 64 114 89 141 72 105 15 110 31 172 4 66 152 138 119 129 68 57 67 41 145 111 29 101 58 58 164 107 48 131 90 122 100 0 61 30 145 102 96 51
32 21 64 64 20 48 68 57 58 85 11 54 49 81 32 113 59 4 91 76 66 70 15 58 62 43 105 56 55 78 45 3 104 50 27 99 86 64 39 61 0 54 89 42 92 76
82 75 58 56 56 98 34 111 100 139 65 106 33 81 37 166 32 58 137 129 97 112 66 76 37 15 153 91 1 72 72 51 158 104 55 143 111 104 87 30 54 0 125 86 117 77
63 83 154 154 73 54 111 84 127 93 83 98 136 70 121 92 144 86 35 62 28 24 94 144 102 109 142 34 126 79 130 92 85 82 116 150 165 26 53 145 89 125 0 48 170 165
16 36 107 107 30 17 85 49 82 70 35 58 91 68 75 87 100 38 50 48 30 27 46 96 76 72 109 18 88 71 82 45 78 44 68 112 119 21 7 102 42 86 48 0 124 117
108 88 66 68 112 116 148 92 43 105 92 76 85 174 82 140 92 93 154 124 154 146 80 41 145 118 75 142 117 170 48 92 135 91 68 54 6 143 117 96 92 117 170 124 0 50
103 83 19 21 95 117 111 106 63 128 82 92 44 149 50 163 47 79 160 137 142 144 72 25 111 83 115 132 77 142 38 74 156 101 48 97 44 139 112 51 76 77 165 117 50 0

0 14 38 63 39 69 69 55 43 45 31 58 91 15 42 21 43 14 46 94 76 93 47 60 49 11 25 50 37 93 52 32 28 78 70 17 7 75 62 17 7 11 38 17 30 20
14 0 48 77 3 53 88 37 5 14 32 16 14 22 23 14 98 33 51 68 10 12 5 92 67 10 49 46 38 99 18 81 7 40 14 20 84 72 27 50 9 36 96 62 66 31
38 48 0 95 81 78 27 76 98 30 40 81 8 37 44 16 58 97 98 18 54 39 67 27 47 18 37 72 49 7 78 42 98 29 84 9 88 47 11 33 83 28 59 83 8 70
63 77 95 0 92 23 22 42 34 86 18 49 43 56 65 97 23 24 79 83 12 96 15 15 92 51 16 35 66 31 35 15 66 19 95 89 94 72 37 78 2 94 99 36 75 79
39 3 81 92 0 82 44 51 66 15 35 41 9 93 84 88 93 8 38 54 11 80 74 6 48 92 5 30 50 61 27 42 37 94 13 7 96 44 37 17 6 66 58 98 60 7
69 53 78 23 82 0 71 17 48 69 46 95 71 40 12 24 86 44 50 69 76 16 85 94 59 50 19 1 87 14 3 93 30 17 40 46 43 52 84 6 55 69 66 66 47 96
69 88 27 22 44 71 0 73 71 19 64 54 34 64 83 71 35 13 39 92 80 76 95 99 61 3 34 28 12 5 37 34 18 62 40 95 65 33 20 12 99 38 56 73 87 57
55 37 76 42 51 17 73 0 65 14 34 73 90 69 24 64 28 95 16 42 25 10 82 53 67 41 84 73 35 94 65 4 60 42 8 53 96 71 55 25 78 65 83 65 48 50
43 5 98 34 66 48 71 65 0 40 95 11 93 35 53 54 71 41 16 34 63 6 85 22 54 14 33 62 26 63 49 93 85 37 32 83 45 32 10 7 69 67 90 30 93 20
45 14 30 86 15 69 19 14 40 0 57 10 20 59 75 86 37 80 6 62 36 59 91 20 37 67 77 52 82 53 50 42 36 13 30 28 77 78 15 52 60 51 39 43 2 92
31 32 40 18 35 46 64 34 95 57 0 90 75 67 65 8 42 53 94 71 72 47 12 78 44 43 3 15 42 76 1 60 90 70 26 85 34 58 43 6 73 55 75 6 71 30
58 16 81 49 41 95 54 73 11 10 90 0 13 67 50 90 55 13 44 20 44 23 96 45 77 16 86 21 18 17 56 72 87 71 48 82 2 99 63 43 3 75 21 99 90 71
91 14 8 43 9 71 34 90 93 20 75 13 0 62 24 52 80 35 86 4 97 74 28 68 35 94 34 4 36 39 36 96 38 55 92 91 25 71 35 55 74 82 87 4 22 37
15 22 37 56 93 40 64 69 35 59 67 67 62 0 24 49 47 44 4 64 71 35 94 74 6 98 22 4 26 72 25 24 3 27 69 4 7 40 49 63 72 8 42 97 81 23
42 23 44 65 84 12 83 24 53 75 65 50 24 24 0 33 1 7 9 2 34 12 59 4 1 16 83 76 28 19 23 7 6 15 8 5 52 79 69 7 2 44 16 72 70 88
21 14 16 97 88 24 71 64 54 86 8 90 52 49 33 0 93 46 86 31 21 92 6 41 46 42 67 75 91 82 10 18 64 87 59 26 88 19 49 1 36 44 13 62 30 24
43 98 58 23 93 86 35 28 71 37 42 55 80 47 1 93 0 40 19 48 54 33 99 53 14 44 62 21 14 77 63 28 19 27 53 68 38 95 12 4 50 58 84 65 94 51
14 33 97 24 8 44 13 95 41 80 53 13 35 44 7 46 40 0 59 47 34 96 64 20 36 51 88 16 23 17 61 50 19 41 58 31 48 94 5 53 44 90 88 17 75 40
46 51 98 79 38 50 39 16 16 6 94 44 86 4 9 86 19 59 0 3 38 39 34 37 64 4 69 81 51 12 90 41 47 71 24 30 70 77 2 55 65 93 69 26 41 13
94 68 18 83 54 69 92 42 34 62 71 20 4 64 2 31 48 47 3 0 76 90 28 45 27 33 86 11 40 41 44 18 27 66 81 42 16 29 80 17 79 52 32 28 80 11
76 10 54 12 11 76 80 25 63 36 72 44 97 71 34 21 54 34 38 76 0 76 44 46 68 8 65 79 23 5 39 35 45 39 91 18 15 61 2 7 78 93 21 64 33 95
93 12 39 96 80 16 76 10 6 59 47 23 74 35 12 92 33 96 39 90 76 0 59 3 56 10 63 82 35 14 9 35 99 53 34 32 38 2 4 87 40 47 40 70 40 50
47 5 67 15 74 85 95 82 85 91 12 96 28 94 59 6 99 64 34 28 44 59 0 39 51 94 6 31 24 39 76 86 68 67 17 80 71 92 1 60 37 74 76 26 26 68
60 92 27 15 6 94 99 53 22 20 78 45 68 74 4 41 53 20 37 45 46 3 39 0 50 67 69 78 14 17 76 44 63 11 83 34 20 69 17 8 4 84 37 88 9 50
49 67 47 92 48 59 61 67 54 37 44 77 35 6 1 46 14 36 64 27 68 56 51 50 0 92 86 90 12 4 58 32 56 36 15 57 34 12 26 35 83 78 94 84 15 59
11 10 18 51 92 50 3 41 14 67 43 16 94 98 16 42 44 51 4 33 8 10 94 67 92 0 49 5 13 16 9 40 7 56 34 54 91 39 96 39 94 68 90 26 41 2
25 49 37 16 5 19 34 84 33 77 3 86 34 22 83 67 62 88 69 86 65 63 6 69 86 49 0 67 80 12 69 3 36 73 31 45 82 33 15 30 17 84 66 14 33 83
50 46 72 35 30 1 28 73 62 52 15 21 4 4 76 75 21 16 81 11 79 82 31 78 90 5 67 0 8 87 20 53 11 39 75 69 10 61 3 65 97 84 84 39 79 41
37 38 49 66 50 87 12 35 26 82 42 18 36 26 28 91 14 23 51 40 23 35 24 14 12 13 80 8 0 48 48 66 17 10 86 24 55 85 35 97 87 75 23 77 87 5
93 99 7 31 61 14 5 94 63 53 76 17 39 72 19 82 77 17 12 41 5 14 39 17 4 16 12 87 48 0 11 11 1 24 88 8 14 5 4 91 84 18 50 31 28 13
52 18 78 35 27 3 37 65 49 50 1 56 36 25 23 10 63 61 90 44 39 9 76 76 58 9 69 20 48 11 0 76 83 38 61 35 53 26 57 90 57 6 11 33 99 71
32 81 42 15 42 93 34 4 93 42 60 72 96 24 7 18 28 50 41 18 35 35 86 44 32 40 3 53 66 11 76 0 33 97 56 58 82 20 62 23 3 75 64 6 67 69
28 7 98 66 37 30 18 60 85 36 90 87 38 3 6 64 19 19 47 27 45 99 68 63 56 7 36 11 17 1 83 33 0 75 59 51 45 3 96 98 63 43 27 8 33 89
78 40 29 19 94 17 62 42 37 13 70 71 55 27 15 87 27 41 71 66 39 53 67 11 36 56 73 39 10 24 38 97 75 0 39 35 91 12 26 19 74 93 49 64 18 60
70 14 84 95 13 40 40 8 32 30 26 48 92 69 8 59 53 58 24 81 91 34 17 83 15 34 31 75 86 88 61 56 59 39 0 71 26 92 42 81 75 41 51 54 97 8
17 20 9 89 7 46 95 53 83 28 85 82 91 4 5 26 68 31 30 42 18 32 80 34 57 54 45 69 24 8 35 58 51 35 71 0 36 25 18 57 48 81 75 35 80 25
7 84 88 94 96 43 65 96 45 77 34 2 25 7 52 88 38 48 70 16 15 38 71 20 34 91 82 10 55 14 53 82 45 91 26 36 0 63 1 29 98 76 7 81 13 41
75 72 47 72 44 52 33 71 32 78 58 99 71 40 79 19 95 94 77 29 61 2 92 69 12 39 33 61 85 5 26 20 3 12 92 25 63 0 55 93 21 23 48 46 78 1
62 27 11 37 37 84 20 55 10 15 43 63 35 49 69 49 12 5 2 80 2 4 1 17 26 96 15 3 35 4 57 62 96 26 42 18 1 55 0 3 84 33 30 82 42 2
17 50 33 78 17 6 12 25 7 52 6 43 55 63 7 1 4 53 55 17 7 87 60 8 35 39 30 65 97 91 90 23 98 19 81 57 29 93 3 0 22 59 41 54 81 2
7 9 83 2 6 55 99 78 69 60 73 3 74 72 2 36 50 44 65 79 78 40 37 4 83 94 17 97 87 84 57 3 63 74 75 48 98 21 84 22 0 40 88 82 27 18
11 36 28 94 66 69 38 65 67 51 55 75 82 8 44 44 58 90 93 52 93 47 74 84 78 68 84 84 75 18 6 75 43 93 41 81 76 23 33 59 40 0 48 38 78 96
38 96 59 99 58 66 56 83 90 39 75 21 87 42 16 13 84 88 69 32 21 40 76 37 94 90 66 84 23 50 11 64 27 49 51 75 7 48 30 41 88 48 0 44 40 37
17 62 83 36 98 66 73 65 30 43 6 99 4 97 72 62 65 17 26 28 64 70 26 88 84 26 14 39 77 31 33 6 8 64 54 35 81 46 82 54 82 38 44 0 42 22
30 66 8 75 60 47 87 48 93 2 71 90 22 81 70 30 94 75 41 80 33 40 26 9 15 41 33 79 87 28 99 67 33 18 97 80 13 78 42 81 27 78 40 42 0 93
20 31 70 79 7 96 57 50 20 92 30 71 37 23 88 24 51 40 13 11 95 50 68 50 59 2 83 41 5 13 71 69 89 60 8 25 41 1 2 2 18 96 37 22 93 0

0 74 84 80 89 83 37 87 80 18 17 94 45 8 98 2 49 43 38 73 28 65 78 72 98 54 66 28 40 56 98 96 22 39 87 69 34 69 16 89 88 14 4 36 38 61
74 0 33 57 6 40 26 17 6 6 97 79 4 54 2 77 75 2 81 85 42 63 42 33 76 70 91 61 6 73 90 70 58 57 37 56 89 27 82 67 90 30 39 90 78 54
84 33 0 36 96 42 56 80 48 87 70 13 65 80 24 86 48 33 99 76 47 26 38 30 77 43 65 25 30 93 14 48 80 34 55 6 68 53 39 22 5 34 53 36 99 5
80 57 36 0 9 65 36 24 91 4 44 97 40 92 10 32 53 8 85 42 98 48 90 2 20 39 31 53 73 95 50 14 61 99 10 89 34 47 18 35 18 65 24 89 34 92
89 6 96 9 0 86 20 85 94 28 84 15 75 45 95 63 17 41 97 15 89 20 62 79 73 75 52 63 46 26 6 44 77 13 98 81 98 4 57 40 46 40 57 26 87 99
83 40 42 65 86 0 49 63 69 67 88 69 99 25 48 2 25 33 67 75 34 28 74 63 63 22 90 59 17 68 12 53 94 15 59 87 18 47 15 10 29 25 72 54 30 20
37 26 56 36 20 49 0 53 38 92 43 25 87 19 9 24 86 83 36 19 77 44 48 98 9 10 63 20 26 32 87 6 21 57 4 2 20 34 29 19 21 23 41 86 28 75
87 17 80 24 85 63 53 0 50 58 48 61 3 38 38 7 29 76 80 21 91 11 89 51 14 34 22 83 46 34 15 86 6 61 78 58 53 41 73 88 12 33 37 26 12 58
80 6 48 91 94 69 38 50 0 46 8 93 20 71 95 74 26 61 14 18 8 27 44 71 35 15 60 89 39 10 80 12 76 13 85 54 60 86 86 6 47 34 82 53 44 6
18 6 87 4 28 67 92 58 46 0 48 13 27 23 19 2 93 12 41 79 11 34 34 77 54 78 79 23 47 32 54 97 15 37 78 59 54 87 77 45 93 56 57 11 39 97
17 97 70 44 84 88 43 48 8 48 0 42 25 11 86 15 55 51 31 68 75 95 36 35 45 67 53 1 86 56 90 95 90 69 83 46 63 44 97 28 97 68 90 67 41 93
94 79 13 97 15 69 25 61 93 13 42 0 98 61 83 24 77 6 51 86 98 40 47 42 91 48 94 13 56 73 1 63 37 9 67 61 10 40 10 79 81 41 1 61 59 91
45 4 65 40 75 99 87 3 20 27 25 98 0 29 60 17 91 99 75 49 93 62 39 20 72 93 69 88 23 55 21 54 96 80 21 40 83 44 40 4 14 68 7 99 12 62
8 54 80 92 45 25 19 38 71 23 11 61 29 0 39 6 28 71 33 60 52 86 53 12 77 7 70 5 78 78 55 85 21 23 67 45 66 8 34 80 35 6 86 56 91 76
98 2 24 10 95 48 9 38 95 19 86 83 60 39 0 94 18 36 70 95 43 14 81 80 90 70 46 9 73 93 4 11 40 16 12 29 58 15 49 36 41 28 43 46 83 36
2 77 86 32 63 2 24 7 74 2 15 24 17 6 94 0 54 28 41 44 32 1 97 12 55 87 86 61 1 33 87 51 90 98 32 2 41 77 95 72 52 73 85 82 72 44
49 75 48 53 17 25 86 29 26 93 55 77 91 28 18 54 0 88 37 4 52 12 90 22 62 36 79 95 68 2 95 50 54 6 16 76 32 62 59 5 39 31 43 36 74 95
43 2 33 8 41 33 83 76 61 12 51 6 99 71 36 28 88 0 68 94 19 45 30 45 91 77 68 63 40 6 64 22 9 13 88 65 3 13 16 47 75 84 87 2 5 21
38 81 99 85 97 67 36 80 14 41 31 51 75 33 70 41 37 68 0 89 12 79 1 70 51 27 63 99 51 93 19 48 63 21 43 67 82 36 62 35 75 56 63 39 66 68
73 85 76 42 15 75 19 21 18 79 68 86 49 60 95 44 4 94 89 0 54 64 56 7 29 48 30 53 44 79 6 37 89 52 37 42 3 59 49 11 41 6 4 23 98 5
28 42 47 98 89 34 77 91 8 11 75 98 93 52 43 32 52 19 12 54 0 70 84 97 23 85 68 30 16 76 98 85 67 81 49 46 31 3 41 98 14 73 53 96 72 91
65 63 26 48 20 28 44 11 27 34 95 40 62 86 14 1 12 45 79 64 70 0 36 39 78 60 76 24 29 32 92 45 13 15 31 97 23 4 56 82 4 3 88 10 88 88
78 42 38 90 62 74 48 89 44 34 36 47 39 53 81 97 90 30 1 56 84 36 0 50 17 33 29 87 98 45 43 30 26 79 2 4 3 57 89 55 20 79 94 8 37 67
72 33 30 2 79 63 98 51 71 77 35 42 20 12 80 12 22 45 70 7 97 39 50 0 22 53 24 94 3 63 97 11 23 15 35 34 9 97 77 3 94 47 59 98 35 66
98 76 77 20 73 63 9 14 35 54 45 91 72 77 90 55 62 91 51 29 23 78 17 22 0 31 50 3 87 93 93 5 83 83 56 88 78 90 71 57 49 21 19 84 88 57
54 70 43 39 75 22 10 34 15 78 67 48 93 7 70 87 36 77 27 48 85 60 33 53 31 0 78 78 29 39 58 99 83 72 41 95 80 70 74 5 6 89 62 71 1 15
66 91 65 31 52 90 63 22 60 79 53 94 69 70 46 86 79 68 63 30 68 76 29 24 50 78 0 34 68 44 25 15 62 58 56 3 36 38 3 67 6 5 1 21 91 34
28 61 25 53 63 59 20 83 89 23 1 13 88 5 9 61 95 63 99 53 30 24 87 94 3 78 34 0 30 23 64 28 47 92 45 18 47 86 82 94 51 11 91 98 54 41
40 6 30 73 46 17 26 46 39 47 86 56 23 78 73 1 68 40 51 44 16 29 98 3 87 29 68 30 0 11 8 4 92 73 28 35 86 77 99 97 34 89 64 30 28 6
56 73 93 95 26 68 32 34 10 32 56 73 55 78 93 33 2 6 93 79 76 32 45 63 93 39 44 23 11 0 10 63 17 26 28 22 29 17 74 49 41 88 38 76 88 33
98 90 14 50 6 12 87 15 80 54 90 1 21 55 4 87 95 64 19 6 98 92 43 97 93 58 25 64 8 10 0 87 95 33 29 97 26 80 99 85 3 4 56 22 74 55
96 70 48 14 44 53 6 86 12 97 95 63 54 85 11 51 50 22 48 37 85 45 30 11 5 99 15 28 4 63 87 0 87 2 55 92 54 23 1 67 12 12 77 72 8 1
22 58 80 61 77 94 21 6 76 15 90 37 96 21 40 90 54 9 63 89 67 13 26 23 83 83 62 47 92 17 95 87 0 57 3 88 51 67 23 11 11 38 84 54 49 98
39 57 34 99 13 15 57 61 13 37 69 9 80 23 16 98 6 13 21 52 81 15 79 15 83 72 58 92 73 26 33 2 57 0 52 25 26 80 41 27 5 81 41 59 4 29
87 37 55 10 98 59 4 78 85 78 83 67 21 67 12 32 16 88 43 37 49 31 2 35 56 41 56 45 28 28 29 55 3 52 0 14 48 83 27 77 19 39 99 15 17 14
69 56 6 89 81 87 2 58 54 59 46 61 40 45 29 2 76 65 67 42 46 97 4 34 88 95 3 18 35 22 97 92 88 25 14 0 85 32 21 58 84 13 38 67 19 50
34 89 68 34 98 18 20 53 60 54 63 10 83 66 58 41 32 3 82 3 31 23 3 9 78 80 36 47 86 29 26 54 51 26 48 85 0 52 5 57 20 44 24 98 64 78
69 27 53 47 4 47 34 41 86 87 44 40 44 8 15 77 62 13 36 59 3 4 57 97 90 70 38 86 77 17 80 23 67 80 83 32 52 0 4 26 12 25 97 85 40 48
16 82 39 18 57 15 29 73 86 77 97 10 40 34 49 95 59 16 62 49 41 56 89 77 71 74 3 82 99 74 99 1 23 41 27 21 5 4 0 52 69 26 43 91 78 58
89 67 22 35 40 10 19 88 6 45 28 79 4 80 36 72 5 47 35 11 98 82 55 3 57 5 67 94 97 49 85 67 11 27 77 58 57 26 52 0 17 63 58 84 12 17
88 90 5 18 46 29 21 12 47 93 97 81 14 35 41 52 39 75 75 41 14 4 20 94 49 6 6 51 34 41 3 12 11 5 19 84 20 12 69 17 0 21 6 92 39 68
14 30 34 65 40 25 23 33 34 56 68 41 68 6 28 73 31 84 56 6 73 3 79 47 21 89 5 11 89 88 4 12 38 81 39 13 44 25 26 63 21 0 39 53 19 46
4 39 53 24 57 72 41 37 82 57 90 1 7 86 43 85 43 87 63 4 53 88 94 59 19 62 1 91 64 38 56 77 84 41 99 38 24 97 43 58 6 39 0 92 36 35
36 90 36 89 26 54 86 26 53 11 67 61 99 56 46 82 36 2 39 23 96 10 8 98 84 71 21 98 30 76 22 72 54 59 15 67 98 85 91 84 92 53 92 0 66 82
38 78 99 34 87 30 28 12 44 39 41 59 12 91 83 72 74 5 66 98 72 88 37 35 88 1 91 54 28 88 74 8 49 4 17 19 64 40 78 12 39 19 36 66 0 58
61 54 5 92 99 20 75 58 6 97 93 91 62 76 36 44 95 21 68 5 91 88 67 66 57 15 34 41 6 33 55 1 98 29 14 50 78 48 58 17 68 46 35 82 58 0

0 13 3 50 49 19 89 75 43 50 74 43 29 65 18 17 67 36 35 62 80 24 83 66 34 24 54 51 82 71 92 10 35 72 32 85 38 41 88 21 23 30 26 70 40 29
13 0 34 95 35 96 52 2 75 9 94 25 79 79 11 72 93 6 79 33 53 84 91 57 70 63 44 84 28 95 81 44 2 97 44 16 13 7 3 26 59 21 45 33 3 40
3 34 0 26 74 99 61 74 76 41 58 98 64 85 46 87 15 50 60 54 82 86 98 19 33 38 50 59 2 41 22 59 90 94 40 96 71 19 75 53 17 28 51 54 59 43
50 95 26 0 26 69 13 65 70 6 91 72 57 56 47 30 39 6 92 21 86 16 92 88 73 77 61 78 69 57 60 40 12 23 98 39 13 94 83 65 11 43 19 43 24 49
49 35 74 26 0 23 56 58 97 65 77 83 5 23 68 67 53 45 97 24 69 14 40 8 11 50 52 24 88 39 19 31 22 98 83 95 82 25 39 98 31 15 39 89 86 62
19 96 99 69 23 0 80 83 88 17 95 79 38 79 46 22 57 2 67 44 31 35 59 30 24 92 64 51 18 68 41 52 91 93 37 75 25 72 72 7 1 64 54 79 58 47
89 52 61 13 56 80 0 81 64 56 50 38 69 52 33 61 12 60 78 53 54 48 46 80 10 95 22 41 68 54 17 70 69 53 89 32 82 78 10 95 55 82 50 71 81 11
75 2 74 65 58 83 81 0 82 88 96 67 17 33 25 91 36 37 84 14 54 52 93 77 71 8 56 21 96 86 70 29 75 94 51 82 44 61 24 36 10 21 41 55 51 58
43 75 76 70 97 88 64 82 0 11 55 28 68 85 5 26 88 76 25 37 4 90 11 46 3 45 34 34 79 11 29 53 11 54 37 97 50 9 60 25 67 1 40 90 47 64
50 9 41 6 65 17 56 88 11 0 90 85 82 20 86 52 38 93 85 86 76 1 11 42 18 80 91 27 32 58 90 73 74 64 15 49 30 16 10 62 57 17 1 23 88 80
74 94 58 91 77 95 50 96 55 90 0 88 47 2 81 5 8 48 47 28 22 62 7 29 98 93 57 11 69 47 55 94 6 32 53 5 91 96 91 59 30 42 93 20 93 32
43 25 98 72 83 79 38 67 28 85 88 0 53 91 20 26 44 74 16 73 88 72 43 77 10 2 56 46 10 42 10 30 4 36 25 88 32 32 84 38 28 91 87 33 10 20
29 79 64 57 5 38 69 17 68 82 47 53 0 38 83 77 83 32 5 77 61 21 13 96 43 63 51 66 25 10 21 46 55 89 53 67 5 35 18 52 90 72 28 33 71 22
65 79 85 56 23 79 52 33 85 20 2 91 38 0 10 11 1 86 70 99 51 73 85 32 31 10 74 78 68 71 12 73 50 45 94 48 16 44 52 57 74 82 41 62 77 66
18 11 46 47 68 46 33 25 5 86 81 20 83 10 0 3 62 81 57 76 15 77 17 60 29 26 10 40 97 42 53 77 35 7 42 96 35 52 46 64 42 44 27 2 36 43
17 72 87 30 67 22 61 91 26 52 5 26 77 11 3 0 2 84 51 87 87 40 47 7 33 82 60 89 51 98 17 20 95 53 41 85 7 37 9 96 70 5 91 22 87 51
67 93 15 39 53 57 12 36 88 38 8 44 83 1 62 2 0 2 5 12 25 73 45 93 33 64 83 95 75 54 14 76 70 71 78 80 12 38 40 80 95 84 69 62 82 24
36 6 50 6 45 2 60 37 76 93 48 74 32 86 81 84 2 0 29 25 78 62 26 80 22 81 19 42 87 28 35 43 28 19 45 60 32 45 95 58 75 64 24 33 62 13
35 79 60 92 97 67 78 84 25 85 47 16 5 70 57 51 5 29 0 7 58 57 91 15 81 67 51 74 6 98 46 75 87 55 31 44 2 22 61 49 27 46 46 38 46 44
62 33 54 21 24 44 53 14 37 86 28 73 77 99 76 87 12 25 7 0 95 24 19 38 71 94 16 54 32 82 69 63 29 41 32 75 93 85 94 90 24 65 48 51 84 43
80 53 82 86 69 31 54 54 4 76 22 88 61 51 15 87 25 78 58 95 0 64 68 78 42 46 12 90 36 67 77 19 58 26 33 66 18 68 46 39 12 68 99 28 94 99
24 84 86 16 14 35 48 52 90 1 62 72 21 73 77 40 73 62 57 24 64 0 1 89 44 3 79 61 98 27 13 72 59 93 51 49 91 90 40 35 50 93 17 90 49 57
83 91 98 92 40 59 46 93 11 11 7 43 13 85 17 47 45 26 91 19 68 1 0 91 16 89 66 93 70 61 36 6 75 32 58 72 10 16 73 47 12 26 90 78 64 52
66 57 19 88 8 30 80 77 46 42 29 77 96 32 60 7 93 80 15 38 78 89 91 0 64 79 36 25 44 9 33 75 59 83 76 35 90 42 6 67 59 75 40 81 85 68
34 70 33 73 11 24 10 71 3 18 98 10 43 31 29 33 33 22 81 71 42 44 16 64 0 30 72 99 89 31 84 33 1 39 2 20 47 93 77 6 6 71 76 90 15 8
24 63 38 77 50 92 95 8 45 80 93 2 63 10 26 82 64 81 67 94 46 3 89 79 30 0 93 42 65 70 38 42 78 5 57 12 72 94 69 91 43 77 85 76 62 18
54 44 50 61 52 64 22 56 34 91 57 56 51 74 10 60 83 19 51 16 12 79 66 36 72 93 0 55 28 59 99 72 54 62 67 61 69 39 52 58 74 76 70 68 78 20
51 84 59 78 24 51 41 21 34 27 11 46 66 78 40 89 95 42 74 54 90 61 93 25 99 42 55 0 66 75 48 53 6 49 97 70 88 38 88 55 31 80 72 41 69 39
82 28 2 69 88 18 68 96 79 32 69 10 25 68 97 51 75 87 6 32 36 98 70 44 89 65 28 66 0 66 12 78 75 46 66 78 87 30 69 54 47 2 67 86 7 76
71 95 41 57 39 68 54 86 11 58 47 42 10 71 42 98 54 28 98 82 67 27 61 9 31 70 59 75 66 0 33 40 99 68 25 66 12 89 76 21 50 78 89 16 32 23
92 81 22 60 19 41 17 70 29 90 55 10 21 12 53 17 14 35 46 69 77 13 36 33 84 38 99 48 12 33 0 73 26 50 88 2 14 61 17 42 62 19 95 72 29 56
10 44 59 40 31 52 70 29 53 73 94 30 46 73 77 20 76 43 75 63 19 72 6 75 33 42 72 53 78 40 73 0 55 84 43 13 94 65 36 69 9 69 2 89 46 3
35 2 90 12 22 91 69 75 11 74 6 4 55 50 35 95 70 28 87 29 58 59 75 59 1 78 54 6 75 99 26 55 0 81 53 98 1 89 76 91 27 53 36 56 30 64
72 97 94 23 98 93 53 94 54 64 32 36 89 45 7 53 71 19 55 41 26 93 32 83 39 5 62 49 46 68 50 84 81 0 48 97 97 91 94 67 69 11 66 51 11 1
32 44 40 98 83 37 89 51 37 15 53 25 53 94 42 41 78 45 31 32 33 51 58 76 2 57 67 97 66 25 88 43 53 48 0 40 4 4 64 58 52 76 45 67 49 68
85 16 96 39 95 75 32 82 97 49 5 88 67 48 96 85 80 60 44 75 66 49 72 35 20 12 61 70 78 66 2 13 98 97 40 0 18 72 68 80 59 36 9 68 46 24
38 13 71 13 82 25 82 44 50 30 91 32 5 16 35 7 12 32 2 93 18 91 10 90 47 72 69 88 87 12 14 94 1 97 4 18 0 74 97 77 20 18 34 14 50 44
41 7 19 94 25 72 78 61 9 16 96 32 35 44 52 37 38 45 22 85 68 90 16 42 93 94 39 38 30 89 61 65 89 91 4 72 74 0 56 16 83 21 45 74 48 35
88 3 75 83 39 72 10 24 60 10 91 84 18 52 46 9 40 95 61 94 46 40 73 6 77 69 52 88 69 76 17 36 76 94 64 68 97 56 0 26 42 86 19 48 88 79
21 26 53 65 98 7 95 36 25 62 59 38 52 57 64 96 80 58 49 90 39 35 47 67 6 91 58 55 54 21 42 69 91 67 58 80 77 16 26 0 96 52 3 76 15 91
23 59 17 11 31 1 55 10 67 57 30 28 90 74 42 70 95 75 27 24 12 50 12 59 6 43 74 31 47 50 62 9 27 69 52 59 20 83 42 96 0 98 93 53 12 29
30 21 28 43 15 64 82 21 1 17 42 91 72 82 44 5 84 64 46 65 68 93 26 75 71 77 76 80 2 78 19 69 53 11 76 36 18 21 86 52 98 0 63 58 84 94
26 45 51 19 39 54 50 41 40 1 93 87 28 41 27 91 69 24 46 48 99 17 90 40 76 85 70 72 67 89 95 2 36 66 45 9 34 45 19 3 93 63 0 74 90 29
70 33 54 43 89 79 71 55 90 23 20 33 33 62 2 22 62 33 38 51 28 90 78 81 90 76 68 41 86 16 72 89 56 51 67 68 14 74 48 76 53 58 74 0 76 88
40 3 59 24 86 58 81 51 47 88 93 10 71 77 36 87 82 62 46 84 94 49 64 85 15 62 78 69 7 32 29 46 30 11 49 46 50 48 88 15 12 84 90 76 0 89
29 40 43 49 62 47 11 58 64 80 32 20 22 66 43 51 24 13 44 43 99 57 52 68 8 18 20 39 76 23 56 3 64 1 68 24 44 35 79 91 29 94 29 88 89 0

0 50 36 20 21 24 8 47 85 55 90 24 87 54 76 58 61 48 60 88 97 95 33 23 25 64 66 37 28 74 11 61 19 5 69 63 97 70 94 86 14 10 57 96 97 18
50 0 83 88 58 11 89 19 86 15 42 70 22 45 39 75 8 22 81 44 46 15 1 55 14 44 65 72 84 91 64 39 13 53 23 78 99 43 92 2 63 50 46 86 48 54
36 83 0 73 30 15 39 83 51 16 83 11 2 85 97 35 57 64 66 83 74 53 26 6 14 32 16 79 71 74 73 38 12 50 46 48 7 82 65 46 31 55 21 71 61 19
20 88 73 0 31 40 97 17 71 1 99 87 9 88 56 35 18 90 88 34 91 96 68 29 95 83 83 46 8 55 40 40 84 10 2 48 63 3 33 52 34 66 14 7 64 29
21 58 30 31 0 44 67 37 70 41 26 43 84 75 86 70 53 36 39 18 53 32 83 4 30 46 79 77 76 66 2 22 25 66 11 12 87 45 15 29 34 74 41 60 88 34
24 11 15 40 44 0 69 89 46 62 1 45 83 83 68 83 33 22 56 29 23 82 97 68 55 25 91 81 91 74 24 92 25 48 61 4 35 66 86 87 57 23 69 14 4 64
8 89 39 97 67 69 0 9 51 94 36 58 79 73 62 87 51 71 86 73 44 8 53 73 51 98 56 57 68 21 81 78 62 89 59 90 46 66 86 39 72 62 38 26 64 93
47 19 83 17 37 89 9 0 68 74 98 53 3 40 56 1 23 28 42 51 77 86 16 6 18 19 49 83 7 79 6 62 35 23 35 87 6 11 14 49 52 78 9 19 91 66
85 86 51 71 70 46 51 68 0 22 20 91 74 28 67 31 79 91 64 99 98 39 47 82 58 25 7 47 37 51 83 95 53 92 95 95 97 88 22 20 3 15 87 40 96 90
55 15 16 1 41 62 94 74 22 0 65 61 27 92 29 84 62 71 24 82 70 60 67 12 31 74 42 80 51 68 98 34 22 79 29 10 95 98 7 26 87 21 6 94 68 33
90 42 83 99 26 1 36 98 20 65 0 14 32 80 88 29 93 24 24 46 40 3 55 8 86 63 90 5 90 52 37 36 72 91 82 23 95 28 19 43 98 58 76 19 85 80
24 70 11 87 43 45 58 53 91 61 14 0 55 14 89 70 28 57 4 13 69 43 69 68 70 29 73 29 1 12 97 26 68 80 65 6 12 67 67 26 23 86 58 59 45 59
87 22 2 9 84 83 79 3 74 27 32 55 0 86 83 82 54 69 31 11 66 66 30 38 97 10 11 14 44 13 84 6 27 97 42 75 66 8 16 84 84 75 6 19 41 27
54 45 85 88 75 83 73 40 28 92 80 14 86 0 30 27 76 10 18 49 81 29 23 39 95 32 21 85 5 97 93 97 76 77 17 19 12 49 50 29 76 25 40 36 50 96
76 39 97 56 86 68 62 56 67 29 88 89 83 30 0 14 58 70 40 99 46 9 42 34 77 25 44 36 40 29 5 14 4 74 35 30 18 71 4 48 4 25 76 54 54 85
58 75 35 35 70 83 87 1 31 84 29 70 82 27 14 0 70 39 36 65 66 32 34 86 85 76 85 6 36 19 40 71 99 57 53 57 16 46 63 92 52 32 1 96 63 67
61 8 57 18 53 33 51 23 79 62 93 28 54 76 58 70 0 9 35 85 98 90 33 61 27 52 22 11 54 96 80 43 92 24 75 71 2 96 76 60 93 17 62 39 1 97
48 22 64 90 36 22 71 28 91 71 24 57 69 10 70 39 9 0 66 98 11 95 86 40 52 85 1 18 17 58 42 63 64 87 72 92 94 64 27 96 80 64 7 79 35 65
60 81 66 88 39 56 86 42 64 24 24 4 31 18 40 36 35 66 0 77 28 54 87 80 87 55 41 30 61 87 18 4 23 98 34 24 77 38 74 72 33 1 85 25 1 38
88 44 83 34 18 29 73 51 99 82 46 13 11 49 99 65 85 98 77 0 8 19 40 77 97 22 16 35 10 64 27 28 84 83 21 9 92 22 11 62 38 60 27 70 29 48
97 46 74 91 53 23 44 77 98 70 40 69 66 81 46 66 98 11 28 8 0 38 60 31 45 32 6 76 17 72 4 24 14 93 94 83 22 95 26 69 17 73 77 37 75 56
95 15 53 96 32 82 8 86 39 60 3 43 66 29 9 32 90 95 54 19 38 0 93 93 78 34 70 10 71 88 56 44 35 42 53 73 12 92 36 19 74 50 73 45 33 3
33 1 26 68 83 97 53 16 47 67 55 69 30 23 42 34 33 86 87 40 60 93 0 47 21 55 20 64 11 91 15 45 79 84 20 24 2 91 78 23 72 18 88 95 36 86
23 55 6 29 4 68 73 6 82 12 8 68 38 39 34 86 61 40 80 77 31 93 47 0 72 30 24 55 91 18 52 48 40 92 84 34 26 15 99 64 38 43 54 50 25 87
25 14 14 95 30 55 51 18 58 31 86 70 97 95 77 85 27 52 87 97 45 78 21 72 0 62 95 84 21 2 92 26 14 2 71 65 92 66 34 82 52 35 15 96 85 89
64 44 32 83 46 25 98 19 25 74 63 29 10 32 25 76 52 85 55 22 32 34 55 30 62 0 49 31 1 93 75 89 76 33 13 30 48 29 40 3 11 45 46 47 95 48
66 65 16 83 79 91 56 49 7 42 90 73 11 21 44 85 22 1 41 16 6 70 20 24 95 49 0 42 54 12 79 63 80 76 63 37 86 58 72 26 69 95 33 8 82 40
37 72 79 46 77 81 57 83 47 80 5 29 14 85 36 6 11 18 30 35 76 10 64 55 84 31 42 0 45 63 35 62 99 2 17 7 81 27 46 56 38 17 8 21 44 6
28 84 71 8 76 91 68 7 37 51 90 1 44 5 40 36 54 17 61 10 17 71 11 91 21 1 54 45 0 36 71 86 57 42 92 57 64 83 35 86 32 7 44 26 43 92
74 91 74 55 66 74 21 79 51 68 52 12 13 97 29 19 96 58 87 64 72 88 91 18 2 93 12 63 36 0 9 30 67 61 50 50 16 58 6 9 20 51 80 54 16 59
11 64 73 40 2 24 81 6 83 98 37 97 84 93 5 40 80 42 18 27 4 56 15 52 92 75 79 35 71 9 0 74 44 37 80 42 49 55 40 94 18 78 13 13 77 42
61 39 38 40 22 92 78 62 95 34 36 26 6 97 14 71 43 63 4 28 24 44 45 48 26 89 63 62 86 30 74 0 28 98 62 4 35 51 21 38 26 88 4 39 46 25
19 13 12 84 25 25 62 35 53 22 72 68 27 76 4 99 92 64 23 84 14 35 79 40 14 76 80 99 57 67 44 28 0 26 97 21 36 68 65 1 98 84 47 49 28 69
5 53 50 10 66 48 89 23 92 79 91 80 97 77 74 57 24 87 98 83 93 42 84 92 2 33 76 2 42 61 37 98 26 0 78 2 88 62 89 2 25 22 30 41 54 86
69 23 46 2 11 61 59 35 95 29 82 65 42 17 35 53 75 72 34 21 94 53 20 84 71 13 63 17 92 50 80 62 97 78 0 55 23 11 80 85 34 13 49 85 64 33
63 78 48 48 12 4 90 87 95 10 23 6 75 19 30 57 71 92 24 9 83 73 24 34 65 30 37 7 57 50 42 4 21 2 55 0 68 92 92 82 1 35 78 51 1 81
97 99 7 63 87 35 46 6 97 95 95 12 66 12 18 16 2 94 77 92 22 12 2 26 92 48 86 81 64 16 49 35 36 88 23 68 0 25 32 5 89 16 63 7 58 93
70 43 82 3 45 66 66 11 88 98 28 67 8 49 71 46 96 64 38 22 95 92 91 15 66 29 58 27 83 58 55 51 68 62 11 92 25 0 68 89 14 10 63 69 11 51
94 92 65 33 15 86 86 14 22 7 19 67 16 50 4 63 76 27 74 11 26 36 78 99 34 40 72 46 35 6 40 21 65 89 80 92 32 68 0 72 47 77 64 88 75 4
86 2 46 52 29 87 39 49 20 26 43 26 84 29 48 92 60 96 72 62 69 19 23 64 82 3 26 56 86 9 94 38 1 2 85 82 5 89 72 0 44 92 79 17 29 58
14 63 31 34 34 57 72 52 3 87 98 23 84 76 4 52 93 80 33 38 17 74 72 38 52 11 69 38 32 20 18 26 98 25 34 1 89 14 47 44 0 71 28 99 71 91
10 50 55 66 74 23 62 78 15 21 58 86 75 25 25 32 17 64 1 60 73 50 18 43 35 45 95 17 7 51 78 88 84 22 13 35 16 10 77 92 71 0 98 69 45 21
57 46 21 14 41 69 38 9 87 6 76 58 6 40 76 1 62 7 85 27 77 73 88 54 15 46 33 8 44 80 13 4 47 30 49 78 63 63 64 79 28 98 0 44 67 85
96 86 71 7 60 14 26 19 40 94 19 59 19 36 54 96 39 79 25 70 37 45 95 50 96 47 8 21 26 54 13 39 49 41 85 51 7 69 88 17 99 69 44 0 34 46
97 48 61 64 88 4 64 91 96 68 85 45 41 50 54 63 1 35 1 29 75 33 36 25 85 95 82 44 43 16 77 46 28 54 64 1 58 11 75 29 71 45 67 34 0 26
18 54 19 29 34 64 93 66 90 33 80 59 27 96 85 67 97 65 38 48 56 3 86 87 89 48 40 6 92 59 42 25 69 86 33 81 93 51 4 58 91 21 85 46 26 0
