81
0 20 95 95 28 15 87 37 66 62 22 44 81 79 64 85 91 28 58 46 46 40 31 82 79 69 96 34 84 81 67 35 76 31 55 97 103 36 9 94 32 82 63 16 108 103 45 63 42 112 57 111 58 28 36 94 21 26 67 81 54 32 25 45 69 88 14 106 85 90 117 27 72 44 34 53 9 92 31 31 75
20 0 76 77 31 33 87 36 47 64 10 34 66 92 49 93 77 17 77 58 66 61 12 61 81 64 86 54 76 91 46 24 84 29 36 84 83 57 30 80 21 75 83 36 88 83 32 42 46 92 42 93 67 10 34 73 6 26 52 97 33 44 21 65 89 79 6 90 67 72 97 46 62 40 25 53 26 102 10 15 95
95 76 0 2 81 109 92 104 68 129 72 92 25 132 34 163 28 68 153 133 130 134 64 30 93 65 123 120 57 125 38 62 155 98 39 106 60 128 103 32 64 58 154 107 66 19 84 36 84 44 82 17 139 76 75 45 73 79 34 146 48 99 92 133 151 54 82 101 9 8 29 122 48 103 66 78 95 130 66 63 170
95 77 2 0 81 110 90 105 70 130 73 93 24 131 34 164 26 68 154 134 130 135 65 32 92 64 125 120 56 124 40 62 156 99 40 109 62 128 103 30 64 56 154 107 68 21 86 37 83 46 83 16 140 77 75 47 74 79 33 146 49 99 93 133 151 52 82 103 10 7 30 123 47 104 66 77 96 129 67 63 171
28 31 81 81 0 42 59 62 76 89 21 65 62 62 47 113 71 18 80 74 48 57 32 78 51 42 117 38 57 61 65 21 104 55 47 115 106 49 30 72 20 56 73 30 112 95 63 58 15 110 73 96 86 41 8 94 25 4 49 70 53 18 48 52 69 62 28 120 73 75 108 50 48 68 16 25 21 71 36 26 94
15 33 109 110 42 0 100 33 73 53 37 45 97 85 80 71 107 43 43 32 44 30 45 94 91 84 94 33 99 89 79 51 62 29 70 98 112 28 12 109 48 98 54 17 116 117 49 76 56 124 61 126 44 37 50 104 36 41 82 83 66 42 27 39 65 103 27 109 100 105 130 13 88 41 49 67 21 100 44 46 61
87 87 92 90 59 100 0 122 123 149 76 122 67 53 66 171 66 70 132 132 83 105 83 107 9 29 173 82 35 42 100 66 162 115 80 166 141 96 88 64 68 34 111 85 148 111 119 91 44 134 126 97 144 97 53 126 81 62 63 73 95 60 107 92 94 40 87 169 87 84 121 106 44 127 62 34 79 43 88 76 139
37 36 104 105 62 33 122 0 49 28 46 16 99 116 82 59 110 53 62 32 77 60 45 81 114 99 61 66 112 118 67 60 50 7 67 66 89 60 41 114 57 111 84 49 92 106 23 68 78 106 33 122 35 29 68 86 42 59 86 116 56 70 15 72 98 115 34 78 95 102 118 42 98 8 61 87 46 129 40 51 83
66 47 68 70 76 73 123 49 0 66 55 33 75 139 63 102 85 58 111 81 113 103 43 39 119 95 55 100 100 137 31 59 95 47 45 43 40 101 75 89 58 100 127 82 43 63 26 37 89 58 16 85 83 38 77 37 51 72 67 145 29 92 46 111 135 101 53 45 62 70 74 85 85 44 64 92 73 146 39 50 131
62 64 129 130 89 53 149 28 66 0 74 36 126 138 110 35 137 81 63 31 95 72 73 103 141 127 51 85 140 142 91 88 29 35 93 65 104 75 64 141 85 139 93 70 105 128 44 93 104 124 49 146 23 57 96 104 70 86 114 135 80 94 43 88 113 143 62 79 120 128 140 56 126 25 89 114 71 153 68 79 83
22 10 72 73 21 37 76 46 55 74 0 45 59 84 42 102 69 7 81 65 62 62 12 61 70 53 97 50 66 82 47 14 93 39 33 93 87 56 30 72 11 65 83 35 92 82 42 42 36 93 51 89 75 20 24 76 4 17 45 90 35 37 31 63 85 69 12 99 63 67 95 50 52 50 15 42 23 92 15 9 98
44 34 92 93 65 45 122 16 33 36 45 0 90 123 75 71 101 51 78 48 88 74 40 67 115 97 53 77 107 124 54 56 63 16 57 54 73 73 50 105 54 106 98 58 76 92 7 56 80 91 17 110 50 24 69 70 40 61 79 125 44 75 19 84 110 109 36 64 84 91 104 56 92 11 59 87 53 135 34 46 99
81 66 25 24 62 97 67 99 75 126 59 90 0 107 17 158 11 53 140 124 110 118 54 44 67 40 130 101 33 100 44 46 149 93 33 117 79 111 88 15 49 33 136 91 85 44 84 37 61 68 85 34 132 69 54 63 61 60 14 123 48 78 85 115 130 30 70 115 21 17 54 109 23 100 48 54 79 105 58 51 155
79 92 132 131 62 85 53 116 139 138 84 123 107 0 99 151 111 81 100 113 47 74 95 136 46 68 176 54 82 11 125 81 142 111 106 176 168 67 75 110 81 81 70 68 174 149 124 117 51 168 134 141 126 102 63 154 87 67 98 20 115 48 104 57 47 88 88 183 125 124 161 84 85 124 76 54 70 19 99 89 100
64 49 34 34 47 80 66 82 63 110 42 75 17 99 0 141 27 36 123 107 96 102 37 41 64 36 118 86 37 92 35 29 133 76 18 106 75 96 72 31 32 37 121 75 82 50 69 27 49 70 71 48 116 53 40 60 44 45 4 112 34 65 68 100 117 37 53 106 26 27 62 92 22 84 32 45 63 99 42 34 139
85 93 163 164 113 71 171 59 102 35 102 71 158 151 141 0 169 109 56 39 103 77 103 138 163 154 77 97 168 156 125 116 9 65 126 95 139 83 83 172 113 166 92 87 140 163 79 127 127 159 85 181 27 88 121 139 98 111 145 142 114 112 72 94 115 171 90 110 154 161 175 67 155 60 116 138 92 167 99 108 71
91 77 28 26 71 107 66 110 85 137 69 101 11 111 27 169 0 63 150 135 118 128 65 52 69 42 141 109 31 102 54 56 160 104 44 127 86 120 98 4 59 32 144 100 92 47 95 48 68 72 96 31 143 81 63 70 72 70 24 128 59 86 96 123 137 27 81 124 27 20 55 119 26 111 58 60 89 107 69 61 165
28 17 68 68 18 43 70 53 58 81 7 51 53 81 36 109 63 0 86 72 63 66 14 60 64 46 102 52 59 78 47 7 100 46 30 98 88 60 35 66 4 58 86 38 93 79 48 40 31 92 56 84 82 26 19 76 11 14 39 89 35 36 38 65 86 62 19 103 59 63 92 55 45 57 8 36 27 88 19 8 102
58 77 153 154 80 43 132 62 111 63 81 78 140 100 123 56 150 86 0 33 52 27 89 137 122 122 114 50 138 107 122 94 50 63 113 126 151 35 51 152 91 137 35 50 154 160 85 119 91 165 96 170 41 79 89 145 79 81 126 88 109 72 65 42 60 143 71 139 144 149 174 31 128 69 91 102 60 118 87 90 21
46 58 133 134 74 32 132 32 81 31 65 48 124 113 107 39 135 72 33 0 67 42 69 112 123 115 81 59 130 118 98 80 30 35 94 93 122 47 44 138 76 129 62 48 124 137 55 97 88 138 65 150 13 56 82 118 62 72 110 106 85 73 40 58 82 134 53 106 124 130 149 29 118 38 79 99 53 129 66 73 54
46 66 130 130 48 44 83 77 113 95 62 88 110 47 96 103 118 63 52 67 0 26 74 124 74 81 138 12 98 55 110 68 95 73 94 143 149 20 38 119 66 97 28 30 154 142 91 104 50 156 103 144 80 74 55 138 64 51 97 39 97 31 69 10 23 104 60 152 121 123 156 38 92 86 64 60 40 65 76 71 55
40 61 134 135 57 30 105 60 103 72 62 74 118 74 102 77 128 66 27 42 26 0 72 122 95 97 119 23 113 81 108 73 69 58 96 127 142 8 31 129 70 112 24 27 146 144 79 103 65 153 91 150 55 66 65 134 62 58 104 65 94 46 57 17 40 118 55 138 125 129 157 18 105 68 70 76 39 92 72 71 37
31 12 64 65 32 45 83 45 43 73 12 40 54 95 37 103 65 14 89 69 74 72 0 50 77 57 89 62 67 93 36 17 95 38 24 84 75 67 40 68 15 66 94 46 80 72 35 31 45 82 42 81 78 16 33 64 10 28 41 102 23 49 31 74 97 70 17 88 55 60 85 58 53 48 21 50 34 102 5 7 107
82 61 30 32 78 94 107 81 39 103 61 67 44 136 41 138 52 60 137 112 124 122 50 0 105 77 93 112 76 131 14 57 131 77 31 76 34 117 91 57 58 76 144 96 41 25 59 20 85 32 54 46 117 57 74 19 61 74 44 148 28 96 72 125 146 74 67 72 26 33 37 107 63 78 62 83 85 139 50 52 156
79 81 93 92 51 91 9 114 119 141 70 115 67 46 64 163 69 64 122 123 74 95 77 105 0 28 167 72 38 35 97 60 154 107 77 161 139 87 79 67 62 37 102 76 145 111 112 89 36 134 120 100 136 91 46 124 74 55 62 65 91 51 99 83 85 43 80 164 87 85 122 97 44 120 56 27 71 38 83 70 129
69 64 65 64 42 84 29 99 95 127 53 97 40 68 36 154 42 46 122 115 81 97 57 77 28 0 146 75 17 60 71 40 145 92 51 138 112 89 73 41 43 15 109 72 118 83 93 62 31 106 99 73 127 72 33 97 57 43 34 85 66 51 84 88 98 22 65 140 59 57 94 93 17 104 38 20 63 65 62 50 133
96 86 123 125 117 94 173 61 55 51 97 53 130 176 118 77 141 102 114 81 138 119 89 93 167 146 0 127 154 177 86 107 75 65 99 21 76 121 102 145 105 153 142 109 75 115 54 92 133 100 47 139 74 76 121 83 92 113 122 176 83 128 71 133 159 155 89 36 117 125 123 102 138 52 110 139 105 188 84 96 134
34 54 120 120 38 33 82 66 100 85 50 77 101 54 86 97 109 52 50 59 12 23 62 112 72 75 127 0 92 59 98 58 88 62 83 131 137 15 26 111 56 91 34 18 142 132 79 92 43 144 91 135 72 62 46 126 52 41 87 49 85 24 57 13 35 98 48 140 111 114 145 30 85 74 54 55 28 70 64 59 58
84 76 57 56 57 99 35 112 100 140 66 107 33 82 37 168 31 59 138 130 98 113 67 76 38 17 154 92 0 73 72 52 159 105 55 144 111 105 88 29 55 1 126 88 117 77 102 64 48 101 106 62 141 83 49 95 70 58 33 101 71 68 97 105 114 5 78 143 54 49 86 108 15 115 51 37 79 76 72 61 150
81 91 125 124 61 89 42 118 137 142 82 124 100 11 92 156 102 78 107 118 55 81 93 131 35 60 177 59 73 0 121 78 148 112 101 176 164 73 77 101 78 72 79 71 170 142 124 113 47 162 134 133 131 102 60 150 86 65 91 32 112 48 106 65 57 79 88 181 118 117 154 89 77 126 73 48 72 11 97 86 109
67 46 38 40 65 79 100 67 31 91 47 54 44 125 35 125 54 47 122 98 110 108 36 14 97 71 86 98 72 121 0 44 118 63 20 73 42 103 76 58 45 72 130 82 48 38 46 8 74 45 43 55 103 43 62 29 46 61 39 135 13 83 58 111 132 72 52 71 31 39 51 93 58 65 49 73 71 129 35 39 141
35 24 62 62 21 51 66 60 59 88 14 56 46 81 29 116 56 7 94 80 68 73 17 57 60 40 107 58 52 78 44 0 107 53 26 101 86 66 42 58 3 51 92 45 92 74 53 37 30 89 60 77 90 32 18 73 18 17 32 91 34 39 45 71 90 55 26 105 53 56 87 62 38 63 5 33 33 87 22 10 109
76 84 155 156 104 62 162 50 95 29 93 63 149 142 133 9 160 100 50 30 95 69 95 131 154 145 75 88 159 148 118 107 0 57 117 92 133 75 74 164 104 158 85 78 135 156 71 119 118 153 78 173 18 80 112 132 89 102 136 134 106 103 64 86 108 162 81 107 146 153 168 59 146 52 107 129 83 159 91 99 67
31 29 98 99 55 29 115 7 47 35 39 16 93 111 76 65 104 46 63 35 73 58 38 77 107 92 65 62 105 112 63 53 57 0 60 69 88 57 36 107 50 104 82 44 91 101 21 62 71 103 33 116 40 23 61 83 35 52 80 111 50 63 8 69 95 108 27 80 90 96 114 40 91 13 54 80 40 123 34 44 84
55 36 39 40 47 70 80 67 45 93 33 57 33 106 18 126 44 30 113 94 94 96 24 31 77 51 99 83 55 101 20 26 117 60 0 88 62 90 64 48 27 55 116 68 68 48 51 11 54 63 52 56 101 38 43 48 34 43 22 117 16 65 54 96 116 56 42 89 30 36 62 83 40 67 31 53 57 109 27 24 131
97 84 106 109 115 98 166 66 43 65 93 54 117 176 106 95 127 98 126 93 143 127 84 76 161 138 21 131 144 176 73 101 92 69 88 0 56 127 105 131 99 143 150 112 54 97 52 80 129 80 42 122 87 73 117 65 89 110 110 179 72 128 73 138 164 144 87 15 102 110 104 108 128 58 105 134 106 186 79 91 147
103 83 60 62 106 112 141 89 40 104 87 73 79 168 75 139 86 88 151 122 149 142 75 34 139 112 76 137 111 164 42 86 133 88 62 56 0 139 112 90 86 111 165 119 6 44 66 51 116 24 56 71 122 75 104 15 85 102 78 177 52 124 86 148 172 109 89 46 59 66 49 125 97 84 91 116 109 172 73 79 172
36 57 128 128 49 28 96 60 101 75 56 73 111 67 96 83 120 60 35 47 20 8 67 117 87 89 121 15 105 73 103 66 75 57 90 127 139 0 26 122 64 104 26 21 143 139 77 98 57 149 89 144 60 63 58 130 57 50 97 59 90 38 55 12 38 110 50 137 119 123 152 19 97 69 63 68 33 84 67 66 44
9 30 103 103 30 12 88 41 75 64 30 50 88 75 72 83 98 35 51 44 38 31 40 91 79 73 102 26 88 77 76 42 74 36 64 105 112 26 0 100 39 87 53 7 117 112 53 72 44 122 65 119 56 37 39 103 30 30 74 74 63 30 31 36 60 93 23 114 94 98 126 20 77 49 40 55 9 89 40 40 67
94 80 32 30 72 109 64 114 89 141 72 105 15 110 31 172 4 66 152 138 119 129 68 57 67 41 145 111 29 101 58 58 164 107 48 131 90 122 100 0 61 30 145 102 96 51 99 52 69 76 100 33 147 84 64 75 75 71 27 127 63 87 100 124 137 24 84 128 31 24 58 121 26 115 60 59 91 105 73 64 166
32 21 64 64 20 48 68 57 58 85 11 54 49 81 32 113 59 4 91 76 66 70 15 58 62 43 105 56 55 78 45 3 104 50 27 99 86 64 39 61 0 54 89 42 92 76 51 38 30 90 58 80 86 29 18 74 15 16 35 90 34 38 42 69 89 58 23 104 55 59 89 59 41 61 5 34 31 87 20 8 106
82 75 58 56 56 98 34 111 100 139 65 106 33 81 37 166 32 58 137 129 97 112 66 76 37 15 153 91 1 72 72 51 158 104 55 143 111 104 87 30 54 0 125 86 117 77 101 64 47 102 106 63 140 82 47 95 69 57 33 99 71 66 96 104 113 7 77 143 54 50 87 107 14 114 50 36 77 75 72 60 149
63 83 154 154 73 54 111 84 127 93 83 98 136 70 121 92 144 86 35 62 28 24 94 144 102 109 142 34 126 79 130 92 85 82 116 150 165 26 53 145 89 125 0 48 170 165 103 125 77 175 115 169 74 90 81 157 83 75 122 55 117 58 81 21 25 132 77 162 145 148 179 42 120 92 88 88 59 89 94 92 30
16 36 107 107 30 17 85 49 82 70 35 58 91 68 75 87 100 38 50 48 30 27 46 96 76 72 109 18 88 71 82 45 78 44 68 112 119 21 7 102 42 86 48 0 124 117 61 77 41 128 72 123 61 44 39 109 35 30 77 67 69 25 39 29 53 93 30 122 98 102 131 21 78 57 42 53 11 82 46 44 64
108 88 66 68 112 116 148 92 43 105 92 76 85 174 82 140 92 93 154 124 154 146 80 41 145 118 75 142 117 170 48 92 135 91 68 54 6 143 117 96 92 117 170 124 0 50 69 57 122 28 59 76 125 80 110 21 90 108 85 183 58 129 90 153 177 116 94 42 65 72 53 129 104 86 97 122 114 178 78 85 175
103 83 19 21 95 117 111 106 63 128 82 92 44 149 50 163 47 79 160 137 142 144 72 25 111 83 115 132 77 142 38 74 156 101 48 97 44 139 112 51 76 77 165 117 50 0 84 41 99 26 79 26 142 81 89 32 82 91 51 162 51 113 96 145 164 73 89 89 24 27 13 130 66 104 78 95 106 148 73 72 179
45 32 84 86 63 49 119 23 26 44 42 7 84 124 69 79 95 48 85 55 91 79 35 59 112 93 54 79 102 124 46 53 71 21 51 52 66 77 53 99 51 101 103 61 69 84 0 49 78 83 12 102 58 22 67 62 38 59 73 127 37 76 22 88 114 104 35 61 76 84 96 61 87 19 56 85 54 134 30 42 105
63 42 36 37 58 76 91 68 37 93 42 56 37 117 27 127 48 40 119 97 104 103 31 20 89 62 92 92 64 113 8 37 119 62 11 80 51 98 72 52 38 64 125 77 57 41 49 0 66 52 48 54 103 41 54 37 41 54 31 128 12 76 56 105 126 64 48 79 27 35 54 89 49 67 42 65 65 121 32 32 138
42 46 84 83 15 56 44 78 89 104 36 80 61 51 49 127 68 31 91 88 50 65 45 85 36 31 133 43 48 47 74 30 118 71 54 129 116 57 44 69 30 47 77 41 122 99 78 66 0 117 87 96 100 56 12 103 40 19 49 63 64 19 63 56 68 54 44 134 76 76 112 62 42 84 25 11 35 57 50 39 101
112 92 44 46 110 124 134 106 58 124 93 91 68 168 70 159 72 92 165 138 156 153 82 32 134 106 100 144 101 162 45 89 153 103 63 80 24 149 122 76 90 102 175 128 28 26 83 52 117 0 74 51 141 86 106 20 92 106 72 180 58 128 100 156 178 98 98 70 47 52 25 137 90 102 94 114 116 169 81 84 185
57 42 82 83 73 61 126 33 16 49 51 17 85 134 71 85 96 56 96 65 103 91 42 54 120 99 47 91 106 134 43 60 78 33 52 42 56 89 65 100 58 106 115 72 59 79 12 48 87 74 0 99 66 31 75 54 47 68 75 138 37 86 34 100 125 108 46 49 74 82 90 73 91 27 64 93 65 144 37 50 117
111 93 17 16 96 126 97 122 85 146 89 110 34 141 48 181 31 84 170 150 144 150 81 46 100 73 139 135 62 133 55 77 173 116 56 122 71 144 119 33 80 63 169 123 76 26 102 54 96 51 99 0 157 94 89 58 90 94 47 157 66 113 110 148 165 57 99 115 26 21 28 139 56 121 81 89 111 138 84 79 187
58 67 139 140 86 44 144 35 83 23 75 50 132 126 116 27 143 82 41 13 80 55 78 117 136 127 74 72 141 131 103 90 18 40 101 87 122 60 56 147 86 140 74 61 125 142 58 103 100 141 66 157 0 63 94 120 72 84 119 120 91 86 47 71 95 145 63 102 130 137 154 42 128 39 90 111 65 142 74 82 61
28 10 76 77 41 37 97 29 38 57 20 24 69 102 53 88 81 26 79 56 74 66 16 57 91 72 76 62 83 102 43 32 80 23 38 73 75 63 37 84 29 82 90 44 80 81 22 41 56 86 31 94 63 0 45 67 16 37 57 107 29 55 16 73 97 86 14 80 67 73 94 50 69 32 34 63 34 112 11 22 98
36 34 75 75 8 50 53 68 77 96 24 69 54 63 40 121 63 19 89 82 55 65 33 74 46 33 121 46 49 60 62 18 112 61 43 117 104 58 39 64 18 47 81 39 110 89 67 54 12 106 75 89 94 45 0 91 28 10 41 74 52 24 54 60 76 53 34 122 66 68 102 59 39 74 13 18 30 69 38 26 102
94 73 45 47 94 104 126 86 37 104 76 70 63 154 60 139 70 76 145 118 138 134 64 19 124 97 83 126 95 150 29 73 132 83 48 65 15 130 103 75 74 95 157 109 21 32 62 37 103 20 54 58 120 67 91 0 74 90 63 164 41 112 80 138 161 94 79 57 43 50 39 117 82 81 78 102 98 158 62 68 165
21 6 73 74 25 36 81 42 51 70 4 40 61 87 44 98 72 11 79 62 64 62 10 61 74 57 92 52 70 86 46 18 89 35 34 89 85 57 30 75 15 69 83 35 90 82 38 41 40 92 47 90 72 16 28 74 0 21 47 93 33 40 27 64 87 73 8 95 64 69 95 48 56 46 19 47 24 96 12 10 97
26 26 79 79 4 41 62 59 72 86 17 61 60 67 45 111 70 14 81 72 51 58 28 74 55 43 113 41 58 65 61 17 102 52 43 110 102 50 30 71 16 57 75 30 108 91 59 54 19 106 68 94 84 37 10 90 21 0 47 74 49 22 44 54 73 62 25 116 70 73 104 50 47 65 13 27 20 75 32 22 95
67 52 34 33 49 82 63 86 67 114 45 79 14 98 4 145 24 39 126 110 97 104 41 44 62 34 122 87 33 91 39 32 136 80 22 110 78 97 74 27 35 33 122 77 85 51 73 31 49 72 75 47 119 57 41 63 47 47 0 112 38 65 72 101 117 33 56 110 27 27 63 94 19 88 34 44 65 97 45 37 141
81 97 146 146 70 83 73 116 145 135 90 125 123 20 112 142 128 89 88 106 39 65 102 148 65 85 176 49 101 32 135 91 134 111 117 179 177 59 74 127 90 99 55 67 183 162 127 128 63 180 138 157 120 107 74 164 93 74 112 0 124 53 106 48 30 106 92 187 139 139 175 78 101 124 86 68 72 38 105 97 84
54 33 48 49 53 66 95 56 29 80 35 44 48 115 34 114 59 35 109 85 97 94 23 28 91 66 83 85 71 112 13 34 106 50 16 72 52 90 63 63 34 71 117 69 58 51 37 12 64 58 37 66 91 29 52 41 33 49 38 124 0 71 45 98 120 72 39 73 39 47 64 79 56 55 39 66 58 121 22 27 128
32 44 99 99 18 42 60 70 92 94 37 75 78 48 65 112 86 36 72 73 31 46 49 96 51 51 128 24 68 48 83 39 103 63 65 128 124 38 30 87 38 66 58 25 129 113 76 76 19 128 86 113 86 55 24 112 40 22 65 53 71 0 57 37 52 73 40 135 90 92 126 46 61 77 34 30 23 59 52 44 82
25 21 92 93 48 27 107 15 46 43 31 19 85 104 68 72 96 38 65 40 69 57 31 72 99 84 71 57 97 106 58 45 64 8 54 73 86 55 31 100 42 96 81 39 90 96 22 56 63 100 34 110 47 16 54 80 27 44 72 106 45 57 0 66 91 100 19 82 83 90 109 39 83 20 46 72 34 116 26 36 85
45 65 133 133 52 39 92 72 111 88 63 84 115 57 100 94 123 65 42 58 10 17 74 125 83 88 133 13 105 65 111 71 86 69 96 138 148 12 36 124 69 104 21 29 153 145 88 105 56 156 100 148 71 73 60 138 64 54 101 48 98 37 66 0 26 111 59 149 124 127 158 31 98 81 67 68 40 75 75 72 46
69 89 151 151 69 65 94 98 135 113 85 110 130 47 117 115 137 86 60 82 23 40 97 146 85 98 159 35 114 57 132 90 108 95 116 164 172 38 60 137 89 113 25 53 177 164 114 126 68 178 125 165 95 97 76 161 87 73 117 30 120 52 91 26 0 120 83 174 142 144 178 57 111 107 86 78 63 66 99 93 54
88 79 54 52 62 103 40 115 101 143 69 109 30 88 37 171 27 62 143 134 104 118 70 74 43 22 155 98 5 79 72 55 162 108 56 144 109 110 93 24 58 7 132 93 116 73 104 64 54 98 108 57 145 86 53 94 73 62 33 106 72 73 100 111 120 0 81 143 51 46 82 113 17 118 54 43 83 81 75 64 155
14 6 82 82 28 27 87 34 53 62 12 36 70 88 53 90 81 19 71 53 60 55 17 67 80 65 89 48 78 88 52 26 81 27 42 87 89 50 23 84 23 77 77 30 94 89 35 48 44 98 46 99 63 14 34 79 8 25 56 92 39 40 19 59 83 81 0 95 72 77 103 40 64 40 27 52 20 99 17 19 89
106 90 101 103 120 109 169 78 45 79 99 64 115 183 106 110 124 103 139 106 152 138 88 72 164 140 36 140 143 181 71 105 107 80 89 15 46 137 114 128 104 143 162 122 42 89 61 79 134 70 49 115 102 80 122 57 95 116 110 187 73 135 82 149 174 143 95 0 98 105 95 120 129 70 109 138 114 191 84 95 160
85 67 9 10 73 100 87 95 62 120 63 84 21 125 26 154 27 59 144 124 121 125 55 26 87 59 117 111 54 118 31 53 146 90 30 102 59 119 94 31 55 54 145 98 65 24 76 27 76 47 74 26 130 67 66 43 64 70 27 139 39 90 83 124 142 51 72 98 0 8 36 113 43 95 57 71 86 124 57 54 161
90 72 8 7 75 105 84 102 70 128 67 91 17 124 27 161 20 63 149 130 123 129 60 33 85 57 125 114 49 117 39 56 153 96 36 110 66 123 98 24 59 50 148 102 72 27 84 35 76 52 82 21 137 73 68 50 69 73 27 139 47 92 90 127 144 46 77 105 8 0 37 118 40 102 60 70 90 122 63 58 165
117 97 29 30 108 130 121 118 74 140 95 104 54 161 62 175 55 92 174 149 156 157 85 37 122 94 123 145 86 154 51 87 168 114 62 104 49 152 126 58 89 87 179 131 53 13 96 54 112 25 90 28 154 94 102 39 95 104 63 175 64 126 109 158 178 82 103 95 36 37 0 143 77 116 92 107 119 159 86 86 192
27 46 122 123 50 13 106 42 85 56 50 56 109 84 92 67 119 55 31 29 38 18 58 107 97 93 102 30 108 89 93 62 59 40 83 108 125 19 20 121 59 107 42 21 129 130 61 89 62 137 73 139 42 50 59 117 48 50 94 78 79 46 39 31 57 113 40 120 113 118 143 0 98 50 60 74 29 100 57 59 48
72 62 48 47 48 88 44 98 85 126 52 92 23 85 22 155 26 45 128 118 92 105 53 63 44 17 138 85 15 77 58 38 146 91 40 128 97 97 77 26 41 14 120 78 104 66 87 49 42 90 91 56 128 69 39 82 56 47 19 101 56 61 83 98 111 17 64 129 43 40 77 98 0 101 38 33 68 82 58 47 142
44 40 103 104 68 41 127 8 44 25 50 11 100 124 84 60 111 57 69 38 86 68 48 78 120 104 52 74 115 126 65 63 52 13 67 58 84 69 49 115 61 114 92 57 86 104 19 67 84 102 27 121 39 32 74 81 46 65 88 124 55 77 20 81 107 118 40 70 95 102 116 50 101 0 65 92 53 137 43 54 90
34 25 66 66 16 49 62 61 64 89 15 59 48 76 32 116 58 8 91 79 64 70 21 62 56 38 110 54 51 73 49 5 107 54 31 105 91 63 40 60 5 50 88 42 97 78 56 42 25 94 64 81 90 34 13 78 19 13 34 86 39 34 46 67 86 54 27 109 57 60 92 60 38 65 0 29 31 82 26 14 106
53 53 78 77 25 67 34 87 92 114 42 87 54 54 45 138 60 36 102 99 60 76 50 83 27 20 139 55 37 48 73 33 129 80 53 134 116 68 55 59 34 36 88 53 122 95 85 65 11 114 93 89 111 63 18 102 47 27 44 68 66 30 72 68 78 43 52 138 71 70 107 74 33 92 29 0 46 55 55 43 113
9 26 95 96 21 21 79 46 73 71 23 53 79 70 63 92 89 27 60 53 40 39 34 85 71 63 105 28 79 72 71 33 83 40 57 106 109 33 9 91 31 77 59 11 114 106 54 65 35 116 65 111 65 34 30 98 24 20 65 72 58 23 34 40 63 83 20 114 86 90 119 29 68 53 31 46 0 83 36 33 75
92 102 130 129 71 100 43 129 146 153 92 135 105 19 99 167 107 88 118 129 65 92 102 139 38 65 188 70 76 11 129 87 159 123 109 186 172 84 89 105 87 75 89 82 178 148 134 121 57 169 144 138 142 112 69 158 96 75 97 38 121 59 116 75 66 81 99 191 124 122 159 100 82 137 82 55 83 0 107 96 119
31 10 66 67 36 44 88 40 39 68 15 34 58 99 42 99 69 19 87 66 76 72 5 50 83 62 84 64 72 97 35 22 91 34 27 79 73 67 40 73 20 72 94 46 78 73 30 32 50 81 37 84 74 11 38 62 12 32 45 105 22 52 26 75 99 75 17 84 57 63 86 57 58 43 26 55 36 107 0 12 106
31 15 63 63 26 46 76 51 50 79 9 46 51 89 34 108 61 8 90 73 71 71 7 52 70 50 96 59 61 86 39 10 99 44 24 91 79 66 40 64 8 60 92 44 85 72 42 32 39 84 50 79 82 22 26 68 10 22 37 97 27 44 36 72 93 64 19 95 54 58 86 59 47 54 14 43 33 96 12 0 107
75 95 170 171 94 61 139 83 131 83 98 99 155 100 139 71 165 102 21 54 55 37 107 156 129 133 134 58 150 109 141 109 67 84 131 147 172 44 67 166 106 149 30 64 175 179 105 138 101 185 117 187 61 98 102 165 97 95 141 84 128 82 85 46 54 155 89 160 161 165 192 48 142 90 106 113 75 119 106 107 0

0 37 78 2 94 99 36 75 79 70 48 49 31 69 82 44 51 66 15 35 41 9 93 84 88 93 8 38 54 11 80 74 6 48 92 5 30 50 61 27 42 37 94 13 7 96 44 37 17 6 66 58 98 60 7 17 48 1 44 26 93 71 17 48 69 46 95 71 40 12 24 86 44 50 69 76 16 85 94 59 50
37 0 87 14 3 93 30 17 40 46 43 52 84 6 55 69 66 66 47 96 40 85 75 53 87 47 1 73 71 19 64 54 34 64 83 71 35 13 39 92 80 76 95 99 61 3 34 28 12 5 37 34 18 62 40 95 65 33 20 12 99 38 56 73 87 57 2 90 77 38 10 5 82 83 65 14 34 73 90 69 24
78 87 0 16 42 25 10 82 53 67 41 84 73 35 94 65 4 60 42 8 53 96 71 55 25 78 65 83 65 48 50 38 45 81 92 15 75 97 97 35 40 95 11 93 35 53 54 71 41 16 34 63 6 85 22 54 14 33 62 26 63 49 93 85 37 32 83 45 32 10 7 69 67 90 30 93 20 79 23 4 86
2 14 16 0 36 39 57 10 20 59 75 86 37 80 6 62 36 59 91 20 37 67 77 52 82 53 50 42 36 13 30 28 77 78 15 52 60 51 39 43 2 92 8 51 82 60 42 56 79 17 97 47 93 90 75 67 65 8 42 53 94 71 72 47 12 78 44 43 3 15 42 76 1 60 90 70 26 85 34 58 43
94 3 42 36 0 71 30 29 83 9 5 35 54 61 27 21 38 47 83 13 67 50 90 55 13 44 20 44 23 96 45 77 16 86 21 18 17 56 72 87 71 48 82 2 99 63 43 3 75 21 99 90 71 73 47 86 17 62 29 46 5 18 6 94 34 52 62 24 52 80 35 86 4 97 74 28 68 35 94 34 4
99 93 25 39 71 0 92 91 25 71 35 55 74 82 87 4 22 37 31 73 70 91 84 78 40 58 8 87 95 51 92 14 24 49 47 44 4 64 71 35 94 74 6 98 22 4 26 72 25 24 3 27 69 4 7 40 49 63 72 8 42 97 81 23 49 2 26 46 74 99 33 94 96 90 49 78 80 68 58 33 1
36 30 10 57 30 92 0 1 16 83 76 28 19 23 7 6 15 8 5 52 79 69 7 2 44 16 72 70 88 33 97 98 4 89 82 72 29 50 43 61 92 24 27 73 75 93 46 86 31 21 92 6 41 46 42 67 75 91 82 10 18 64 87 59 26 88 19 49 1 36 44 13 62 30 24 36 89 99 73 99 54
75 17 82 10 29 91 1 0 14 16 98 40 19 48 54 33 99 53 14 44 62 21 14 77 63 28 19 27 53 68 38 95 12 4 50 58 84 65 94 51 9 99 40 89 87 30 14 27 1 82 18 84 17 76 52 27 34 70 59 47 34 96 64 20 36 51 88 16 23 17 61 50 19 41 58 31 48 94 5 53 44
79 40 53 20 83 25 16 14 0 88 17 53 93 33 16 95 46 22 1 62 40 90 51 72 3 38 39 34 37 64 4 69 81 51 12 90 41 47 71 24 30 70 77 2 55 65 93 69 26 41 13 14 64 35 42 94 39 23 69 1 68 79 51 31 73 31 77 12 79 49 83 76 90 28 45 27 33 86 11 40 41
70 46 67 59 9 71 83 16 88 0 79 52 32 28 80 11 83 8 72 86 97 25 3 23 13 39 9 28 57 33 94 38 95 28 69 14 81 76 44 46 68 8 65 79 23 5 39 35 45 39 91 18 15 61 2 7 78 93 21 64 33 95 81 74 23 5 37 74 93 67 70 84 70 86 45 67 13 73 7 28 41
48 43 41 75 5 35 76 98 17 79 0 9 35 99 53 34 32 38 2 4 87 40 47 40 70 40 50 4 30 96 93 96 79 75 7 14 13 76 90 40 19 38 51 91 8 11 75 31 72 24 39 51 94 6 31 24 39 76 86 68 67 17 80 71 92 1 60 37 74 76 26 26 68 49 38 6 90 80 48 4 51
49 52 84 86 35 55 28 40 53 52 9 0 60 44 1 44 50 67 69 78 14 17 76 44 63 11 83 34 20 69 17 8 4 84 37 88 9 50 75 60 53 91 98 28 13 18 88 13 30 17 8 24 71 64 8 18 15 39 23 56 58 10 16 92 86 90 12 4 58 32 56 36 15 57 34 12 26 35 83 78 94
31 84 73 37 54 74 19 19 93 32 35 60 0 56 25 1 94 72 28 74 87 38 72 24 65 97 38 46 81 49 5 13 16 9 40 7 56 34 54 91 39 96 39 94 68 90 26 41 2 11 50 37 80 1 83 38 39 95 48 55 93 86 26 69 45 22 68 95 26 47 32 17 71 53 24 7 67 80 12 69 3
69 6 35 80 61 82 23 48 33 28 99 44 56 0 82 15 42 45 88 42 69 71 2 4 9 40 90 45 75 71 17 87 9 17 85 63 21 67 96 88 96 47 8 87 20 53 11 39 75 69 10 61 3 65 97 84 84 39 79 41 26 42 50 85 73 97 10 83 45 85 57 96 95 29 74 8 90 14 56 60 14
82 55 94 6 27 87 7 54 16 80 53 1 25 82 0 55 85 35 97 87 75 23 77 87 5 20 85 65 87 81 36 9 57 65 82 46 98 75 14 22 84 47 91 91 82 57 61 79 44 41 56 16 80 50 14 11 11 1 24 88 8 14 5 4 91 84 18 50 31 28 13 43 69 34 70 84 88 76 32 5 89
44 69 65 62 21 4 6 33 95 11 34 44 1 15 55 0 5 9 69 4 43 76 83 38 61 35 53 26 57 90 57 6 11 33 99 71 8 61 49 27 30 48 96 42 84 95 29 54 58 26 87 88 98 11 62 70 15 89 17 13 97 63 2 83 99 86 40 93 33 97 56 58 82 20 62 23 3 75 64 6 67
51 66 4 36 38 22 15 99 46 83 32 50 94 42 85 5 0 38 54 78 32 83 99 22 44 38 96 64 80 91 6 48 69 5 75 59 51 45 3 96 98 63 43 27 8 33 89 31 40 57 60 57 22 82 4 62 43 36 77 18 49 73 51 48 59 57 65 86 40 96 38 17 23 95 9 20 8 60 22 59 23
66 66 60 59 47 37 8 53 22 8 38 67 72 45 35 9 38 0 7 36 58 53 60 49 14 96 74 37 15 23 74 6 59 16 76 99 18 62 54 82 32 58 8 57 56 43 96 71 26 92 42 81 75 41 51 54 97 8 77 87 98 96 64 7 13 49 66 19 18 12 16 85 43 87 82 97 63 69 79 4 82
15 47 42 91 83 31 5 14 1 72 2 69 28 88 97 69 54 7 0 75 35 80 25 59 16 18 23 79 39 91 13 98 75 31 2 68 44 88 8 45 88 70 31 58 87 45 34 57 42 83 16 66 1 32 95 2 8 22 99 49 63 1 29 98 76 7 81 13 41 92 55 2 96 77 8 37 48 67 78 81 8
35 96 8 20 13 73 52 44 62 86 4 78 74 42 87 4 78 36 75 0 32 69 77 26 68 99 55 93 21 23 48 46 78 1 75 83 32 71 25 31 69 42 85 53 55 84 38 17 19 85 34 77 7 24 25 39 87 96 86 44 20 9 58 7 53 47 5 59 79 60 3 40 11 3 84 33 30 82 42 2 6
41 40 53 37 67 70 79 62 40 97 87 14 87 69 75 43 32 58 35 32 0 77 36 61 91 11 71 16 26 77 59 10 16 70 27 30 56 35 99 22 59 41 54 81 2 67 88 41 89 80 6 95 50 50 20 68 55 61 31 17 84 18 59 97 53 81 65 77 4 56 12 68 91 56 57 52 66 59 8 16 98
9 85 96 67 50 91 69 21 90 25 40 17 38 71 23 76 83 53 80 69 77 0 8 76 4 77 40 78 4 37 21 96 56 44 80 17 21 35 45 11 60 10 95 58 17 52 6 19 4 41 71 44 48 38 78 96 44 28 65 75 59 37 51 15 27 18 89 56 34 29 75 56 56 63 96 77 76 16 37 91 50
93 75 71 77 90 84 7 14 51 3 47 76 72 2 77 83 99 60 25 77 36 8 0 66 80 16 50 14 69 48 21 72 34 53 59 76 4 63 17 71 27 8 71 75 17 22 14 32 66 46 22 5 84 46 5 33 35 24 21 29 30 89 76 11 76 42 22 1 3 25 22 31 90 93 49 17 19 19 50 9 79
84 53 55 52 55 78 2 77 72 23 40 44 24 4 87 38 22 49 59 26 61 76 66 0 19 53 35 51 79 44 29 93 4 85 44 63 78 28 13 89 41 75 11 34 55 31 45 41 49 44 27 65 24 81 81 59 54 5 43 64 1 86 11 10 77 3 34 78 12 35 33 69 36 41 31 95 69 88 93 74 84
88 87 25 82 13 40 44 63 3 13 70 63 65 9 5 61 44 14 16 68 91 4 80 19 0 40 56 98 96 22 39 87 69 34 69 16 89 88 14 4 36 38 61 51 34 33 57 6 40 26 17 6 6 97 79 4 54 2 77 75 2 81 85 42 63 42 33 76 70 91 61 6 73 90 70 58 57 37 56 89 27
93 47 78 53 44 58 16 28 38 39 40 11 97 40 20 35 38 96 18 99 11 77 16 53 40 0 99 76 47 26 38 30 77 43 65 25 30 93 14 48 80 34 55 6 68 53 39 22 5 34 53 36 99 5 8 67 17 58 9 65 36 24 91 4 44 97 40 92 10 32 53 8 85 42 98 48 90 2 20 39 31
8 1 65 50 20 8 72 19 39 9 50 83 38 90 85 53 96 74 23 55 71 40 50 35 56 99 0 94 28 84 15 75 45 95 63 17 41 97 15 89 20 62 79 73 75 52 63 46 26 6 44 77 13 98 81 98 4 57 40 46 40 57 26 87 99 93 98 66 30 86 67 49 63 69 67 88 69 99 25 48 2
38 73 83 42 44 87 70 27 34 28 4 34 46 45 65 26 64 37 79 93 16 78 14 51 98 76 94 0 30 20 91 4 60 15 58 45 49 53 38 92 43 25 87 19 9 24 86 83 36 19 77 44 48 98 9 10 63 20 26 32 87 6 21 57 4 2 20 34 29 19 21 23 41 86 28 75 34 96 63 84 13
54 71 65 36 23 95 88 53 37 57 30 20 81 75 87 57 80 15 39 21 26 4 69 79 96 47 28 30 0 78 58 53 41 73 88 12 33 37 26 12 58 21 58 59 97 21 25 16 79 10 46 8 93 20 71 95 74 26 61 14 18 8 27 44 71 35 15 60 89 39 10 80 12 76 13 85 54 60 86 86 6
11 19 48 13 96 51 33 68 64 33 96 69 49 71 81 90 91 23 91 23 77 37 48 44 22 26 84 20 78 0 54 78 79 23 47 32 54 97 15 37 78 59 54 87 77 45 93 56 57 11 39 97 22 22 28 12 18 29 64 96 8 4 5 42 25 11 86 15 55 51 31 68 75 95 36 35 45 67 53 1 86
80 64 50 30 45 92 97 38 4 94 93 17 5 17 36 57 6 74 13 48 59 21 21 29 39 38 15 91 58 54 0 83 24 77 6 51 86 98 40 47 42 91 48 94 13 56 73 1 63 37 9 67 61 10 40 10 79 81 41 1 61 59 91 40 96 26 14 53 45 52 9 60 68 55 62 30 29 60 17 91 99
74 54 38 28 77 14 98 95 69 38 96 8 13 87 9 6 48 6 98 46 10 96 72 93 87 30 75 4 53 78 83 0 83 72 28 64 95 54 43 72 18 32 39 6 28 71 33 60 52 86 53 12 77 7 70 5 78 78 55 85 21 23 67 45 66 8 34 80 35 6 86 56 91 76 55 48 35 57 95 26 11
6 34 45 77 16 24 4 12 81 95 79 4 16 9 57 11 69 59 75 78 16 56 34 4 69 77 45 60 41 79 24 83 0 41 28 43 46 83 36 44 1 96 34 3 36 64 29 98 9 13 27 22 94 35 41 54 28 41 44 32 1 97 12 55 87 86 61 1 33 87 51 90 98 32 2 41 77 95 72 52 73
48 64 81 78 86 49 89 4 51 28 75 84 9 17 65 33 5 16 31 1 70 44 53 85 34 43 95 15 73 23 77 72 41 0 95 50 54 6 16 76 32 62 59 5 39 31 43 36 74 95 22 82 3 94 97 81 67 30 85 84 38 86 54 58 2 91 64 55 68 94 19 45 30 45 91 77 68 63 40 6 64
92 83 92 15 21 47 82 50 12 69 7 37 40 85 82 99 75 76 2 75 27 80 59 44 69 65 63 58 88 47 6 28 28 95 0 12 79 1 70 51 27 63 99 51 93 19 48 63 21 43 67 82 36 62 35 75 56 63 39 66 68 77 76 2 23 70 90 9 66 64 93 90 3 33 86 21 49 47 53 94 54
5 71 15 52 18 44 72 58 90 14 14 88 7 63 46 71 59 99 68 83 30 17 76 63 16 25 17 45 12 32 51 64 43 50 12 0 59 7 14 41 83 39 62 60 54 58 77 70 84 97 23 85 68 30 16 76 98 85 67 81 49 46 31 3 41 98 14 73 53 96 72 91 31 63 21 85 6 76 71 77 63
30 35 75 60 17 4 29 84 41 81 13 9 56 21 98 8 51 18 44 32 56 21 4 78 89 30 41 49 33 54 86 95 46 54 79 59 0 83 56 47 76 87 70 68 64 83 37 57 63 61 4 2 7 30 13 84 58 54 56 12 50 17 33 29 87 98 45 43 30 26 79 2 4 3 57 89 55 20 79 94 8
50 13 97 51 56 64 50 65 47 76 76 50 34 67 75 61 45 62 88 71 35 35 63 28 88 93 97 53 37 97 98 54 83 6 1 7 83 0 9 97 77 3 94 47 59 98 35 66 5 88 93 95 75 83 48 72 88 7 90 3 32 13 11 51 83 45 75 90 31 56 99 21 1 31 50 3 87 93 93 5 83
61 39 97 39 72 71 43 94 71 44 90 75 54 96 14 49 3 54 8 25 99 45 17 13 14 14 15 38 26 15 40 43 36 16 70 14 56 9 0 78 78 29 39 58 99 83 72 41 95 80 70 74 5 6 89 62 71 1 15 39 71 29 83 81 19 61 10 28 78 44 22 57 78 16 84 25 80 11 58 7 9
27 92 35 43 87 35 61 51 24 46 40 60 91 88 22 27 96 82 45 31 22 11 71 89 4 48 89 92 12 37 47 72 44 76 51 41 47 97 78 0 44 75 93 8 39 13 97 16 12 78 90 60 30 23 64 28 47 92 45 18 47 86 82 94 51 11 91 98 54 41 57 93 48 45 34 7 58 18 84 28 79
42 80 40 2 71 94 92 9 30 68 19 53 39 96 84 30 98 32 88 69 59 60 27 41 36 80 20 43 58 78 42 18 1 32 27 83 76 77 78 44 0 80 92 82 85 84 79 73 29 73 55 19 35 67 82 36 42 99 86 77 51 80 13 2 85 10 63 17 26 28 22 29 17 74 49 41 88 38 76 88 33
37 76 95 92 48 74 24 99 70 8 38 91 96 47 47 48 63 58 70 42 41 10 8 75 38 34 62 25 21 59 91 32 96 62 63 39 87 3 29 75 80 0 56 22 74 55 32 20 88 16 79 92 52 3 13 22 63 71 38 43 19 17 56 95 72 61 47 3 80 33 1 94 77 97 29 75 61 51 87 2 55
94 95 11 8 82 6 27 40 77 65 51 98 39 8 91 96 43 8 31 85 54 95 71 11 61 55 79 87 58 54 48 39 34 59 99 62 70 94 39 93 92 56 0 61 57 3 88 51 67 23 11 11 38 84 54 49 98 82 15 18 41 1 78 56 27 82 33 99 24 81 4 85 1 27 46 64 10 32 58 66 79
13 99 93 51 2 98 73 89 2 79 91 28 94 87 91 42 27 57 58 53 81 58 75 34 51 6 73 19 59 87 94 6 3 5 51 60 68 47 58 8 82 22 61 0 4 5 87 35 31 87 92 49 49 19 26 35 69 14 48 83 27 77 19 39 99 15 17 14 71 91 42 78 16 2 9 52 7 81 8 16 7
7 61 35 82 99 22 75 87 55 23 8 13 68 20 82 84 8 56 87 55 2 17 17 55 34 68 75 9 97 77 13 28 36 39 93 54 64 59 99 39 85 74 57 4 0 10 57 2 20 42 21 38 8 15 55 66 73 38 87 79 82 90 98 27 78 19 1 56 41 92 52 5 57 20 44 24 98 64 78 99 81
96 3 53 60 63 4 93 30 65 5 11 18 90 53 57 95 33 43 45 84 67 52 22 31 33 53 52 24 21 45 56 71 64 31 19 58 83 98 83 13 84 55 3 5 10 0 80 65 76 71 94 98 6 25 27 91 38 28 18 47 40 14 2 62 8 66 73 7 59 9 90 74 37 43 35 3 34 37 17 66 60
44 34 54 42 43 26 46 14 93 39 75 88 26 11 61 29 89 96 34 38 88 6 14 45 57 39 63 86 25 93 73 33 29 43 48 77 37 35 72 97 79 32 88 87 57 80 0 26 75 17 63 58 84 12 17 39 41 38 2 26 85 95 25 4 26 51 96 12 75 9 14 48 68 98 13 92 55 57 89 26 96
37 28 71 56 3 72 86 27 69 35 31 13 41 39 79 54 31 71 57 17 41 19 32 41 6 22 46 83 16 56 1 60 98 36 63 70 57 66 41 16 73 20 51 35 2 65 26 0 41 73 1 71 20 2 34 4 97 72 47 6 7 84 39 53 19 46 6 5 25 25 4 79 99 86 61 11 73 81 13 86 90
17 12 41 79 75 25 31 1 26 45 72 30 2 75 44 58 40 26 42 19 89 4 66 49 40 5 26 36 79 57 63 52 9 74 21 84 63 5 95 12 29 88 67 31 20 76 75 41 0 49 12 30 57 97 26 9 97 66 59 17 10 88 68 67 32 34 36 35 27 81 87 15 17 22 99 66 82 77 4 5 6
6 5 16 17 21 24 21 82 41 39 24 17 11 69 41 26 57 92 83 85 80 41 46 44 26 34 6 19 10 11 37 86 13 95 43 97 61 88 80 78 73 16 23 87 42 71 17 73 49 0 53 27 41 68 89 30 6 76 7 61 14 24 49 54 98 60 91 24 35 96 22 87 89 39 62 67 34 93 49 49 88
66 37 34 97 99 3 92 18 13 91 39 8 50 10 56 87 60 42 16 34 6 71 22 27 17 53 44 77 46 39 9 53 27 22 67 23 4 93 70 90 55 79 11 92 21 94 63 1 12 53 0 40 29 10 1 34 95 35 96 52 2 75 9 94 25 79 79 11 72 93 6 79 33 53 84 91 57 70 63 44 84
58 34 63 47 90 27 6 84 14 18 51 24 37 61 16 88 57 81 66 77 95 44 5 65 6 36 77 44 8 97 67 12 22 82 82 85 2 95 74 60 19 92 11 49 38 98 58 71 30 27 40 0 40 96 71 19 75 53 17 28 51 54 59 43 38 81 58 55 26 69 13 65 70 6 91 72 57 56 47 30 39
98 18 6 93 71 69 41 17 64 15 94 71 80 3 80 98 22 75 1 7 50 48 84 24 6 99 13 48 93 22 61 77 94 3 36 68 7 75 5 30 35 52 38 49 8 6 84 20 57 41 29 40 0 11 50 52 24 88 39 19 31 22 98 83 95 82 25 39 98 31 15 39 89 86 62 52 27 60 20 94 83
60 62 85 90 73 4 46 76 35 61 6 64 1 65 50 11 82 41 32 24 50 38 46 81 97 5 98 98 20 22 10 7 35 94 62 30 30 83 6 23 67 3 84 19 15 25 12 2 97 68 10 96 11 0 33 61 12 60 78 53 54 48 46 80 10 95 22 41 68 54 17 70 69 53 89 32 82 78 10 95 55
7 40 22 75 47 7 42 52 42 2 31 8 83 97 14 62 4 51 95 25 20 78 5 81 79 8 81 9 71 28 40 70 41 97 35 16 13 48 89 64 82 13 54 26 55 27 17 34 26 89 1 71 50 33 0 36 86 82 69 14 11 55 28 68 85 5 26 88 76 25 37 4 90 11 46 3 45 34 34 79 11
17 95 54 67 86 40 67 27 94 7 24 18 38 84 11 70 62 54 2 39 68 96 33 59 4 67 98 10 95 12 10 5 54 81 75 76 84 72 62 28 36 22 49 35 66 91 39 4 9 30 34 19 52 61 36 0 57 17 1 23 88 80 61 79 79 54 41 75 92 50 57 22 17 88 47 2 81 5 8 48 47
48 65 14 65 17 49 75 34 39 78 39 15 39 84 11 15 43 97 8 87 55 44 35 54 54 17 4 63 74 18 79 78 28 67 56 98 58 88 71 47 42 63 98 69 73 38 41 97 97 6 95 75 24 12 86 57 0 10 30 4 36 25 88 32 32 84 38 28 91 87 33 10 20 18 49 14 56 8 92 28 4
1 33 33 8 62 63 91 70 23 93 76 39 95 39 1 89 36 8 22 96 61 28 24 5 2 58 57 20 26 29 81 78 41 30 63 85 54 7 1 92 99 71 82 14 38 28 38 72 66 76 35 53 88 60 82 17 10 0 51 73 85 32 31 10 74 78 68 71 12 73 50 45 94 48 16 44 52 57 74 82 41
44 20 62 42 29 72 82 59 69 21 86 23 48 79 24 17 77 77 99 86 31 65 21 43 77 9 40 26 61 64 41 55 44 85 39 67 56 90 15 45 86 38 15 48 87 18 2 47 59 7 96 17 39 78 69 1 30 51 0 55 62 81 30 32 60 2 84 51 87 87 40 47 7 33 82 60 89 51 98 17 20
26 12 26 53 46 8 10 47 1 64 68 56 55 41 88 13 18 87 49 44 17 75 29 64 75 65 46 32 14 96 1 85 32 84 66 81 12 3 39 18 77 43 18 83 79 47 26 6 17 61 52 28 19 53 14 23 4 73 55 0 96 29 55 36 60 21 86 44 50 96 65 3 30 9 21 73 48 12 29 25 78
93 99 63 94 5 42 18 34 68 33 67 58 93 26 8 97 49 98 63 20 84 59 30 1 2 36 40 87 18 8 61 21 1 38 68 49 50 32 71 47 51 19 41 27 82 40 85 7 10 14 2 51 31 54 11 88 36 85 62 96 0 2 22 61 49 27 46 46 38 46 44 12 68 43 62 30 65 41 9 29 67
71 38 49 71 18 97 64 96 79 95 17 10 86 42 14 63 73 96 1 9 18 37 89 86 81 24 57 6 8 4 59 23 97 86 77 46 17 13 29 86 80 17 1 77 90 14 95 84 88 24 75 54 22 48 55 80 25 32 81 29 2 0 12 90 36 67 77 19 58 26 33 66 18 68 46 39 12 68 99 28 94
17 56 93 72 6 81 87 64 51 81 80 16 26 50 5 2 51 64 29 58 59 51 76 11 85 91 26 21 27 5 91 67 12 54 76 31 33 11 83 82 13 56 78 19 98 2 25 39 68 49 9 59 98 46 28 61 88 31 30 55 22 12 0 35 34 76 1 89 80 36 91 16 89 66 93 70 61 36 6 75 32
48 73 85 47 94 23 59 20 31 74 71 92 69 85 4 83 48 7 98 7 97 15 11 10 42 4 87 57 44 42 40 45 55 58 2 3 29 51 81 94 2 95 56 39 27 62 4 53 67 54 94 43 83 80 68 79 32 10 32 36 61 90 35 0 85 62 93 59 88 91 2 99 13 54 38 47 97 13 56 28 54
69 87 37 12 34 49 26 36 73 23 92 86 45 73 91 99 59 13 76 53 53 27 76 77 63 44 99 4 71 25 96 66 87 2 23 41 87 83 19 51 85 72 27 99 78 8 26 19 32 98 25 38 95 10 85 79 32 74 60 60 49 36 34 85 0 85 76 62 18 6 90 73 66 97 14 62 40 97 19 68 16
46 57 32 78 52 2 88 51 31 5 1 90 22 97 84 86 57 49 7 47 81 18 42 3 42 97 93 2 35 11 26 8 86 91 70 98 98 45 61 11 10 61 82 15 19 66 51 46 34 60 79 81 82 95 5 54 84 78 2 21 27 67 76 62 85 0 6 49 97 70 88 38 88 55 31 80 72 41 69 39 6
95 2 83 44 62 26 19 88 77 37 60 12 68 10 18 40 65 66 81 5 65 89 22 34 33 40 98 20 15 86 14 34 61 64 90 14 45 75 10 91 63 47 33 17 1 73 96 6 36 91 79 58 25 22 26 41 38 68 84 86 46 77 1 93 76 6 0 82 9 84 28 4 78 94 47 33 40 99 68 25 66
71 90 45 43 24 46 49 16 12 74 37 4 95 83 50 93 86 19 13 59 77 56 1 78 76 92 66 34 60 15 53 80 1 55 9 73 43 90 28 98 17 3 99 14 56 7 12 5 35 24 11 55 39 41 88 75 28 71 51 44 46 19 89 59 62 49 82 0 51 36 53 22 1 20 88 24 45 83 67 47 64
40 77 32 3 52 74 1 23 79 93 74 58 26 45 31 33 40 18 41 79 4 34 3 12 70 10 30 29 89 55 45 35 33 68 66 53 30 31 78 54 26 80 24 71 41 59 75 25 27 35 72 26 98 68 76 92 91 12 87 50 38 58 80 88 18 97 9 51 0 12 32 1 43 71 44 78 6 43 77 41 87
12 38 10 15 80 99 36 17 49 67 76 32 47 85 28 97 96 12 92 60 56 29 25 35 91 32 86 19 39 51 52 6 87 94 64 96 26 56 44 41 28 33 81 91 92 9 9 25 81 96 93 69 31 54 25 50 87 73 87 96 46 26 36 91 6 70 84 36 12 0 64 58 52 76 45 67 49 68 36 70 46
24 10 7 42 35 33 44 61 83 70 26 56 32 57 13 56 38 16 55 3 12 75 22 33 61 53 67 21 10 31 9 86 51 19 93 72 79 99 22 57 22 1 4 42 52 90 14 4 87 22 6 13 15 17 37 57 33 50 40 65 44 33 91 2 90 88 28 53 32 64 0 48 8 66 18 55 32 43 57 98 74
86 5 69 76 86 94 13 50 76 84 26 36 17 96 43 58 17 85 2 40 68 56 31 69 6 8 49 23 80 68 60 56 90 45 90 91 2 21 57 93 29 94 85 78 5 74 48 79 15 87 79 65 39 70 4 22 10 45 47 3 12 66 16 99 73 38 4 22 1 58 48 0 33 97 92 3 9 77 77 97 35
44 82 67 1 4 96 62 19 90 70 68 15 71 95 69 82 23 43 96 11 91 56 90 36 73 85 63 41 12 75 68 91 98 30 3 31 4 1 78 48 17 77 1 16 57 37 68 99 17 89 33 70 89 69 90 17 20 94 7 30 68 18 89 13 66 88 78 1 43 52 8 33 0 30 4 6 99 25 55 82 49
50 83 90 60 97 90 30 41 28 86 49 57 53 29 34 20 95 87 77 3 56 63 93 41 90 42 69 86 76 95 55 76 32 45 33 63 3 31 16 45 74 97 27 2 20 43 98 86 22 39 53 6 86 53 11 88 18 48 33 9 43 68 66 54 97 55 94 20 71 76 66 97 30 0 84 94 71 97 92 78 47
69 65 30 90 74 49 24 58 45 45 38 34 24 74 70 62 9 82 8 84 57 96 49 31 70 98 67 28 13 36 62 55 2 91 86 21 57 50 84 34 49 29 46 9 44 35 13 61 99 62 84 91 62 89 46 47 49 16 82 21 62 46 93 38 14 31 47 88 44 45 18 92 4 84 0 69 56 95 10 99 73
76 14 93 70 28 78 36 31 27 67 6 12 7 8 84 23 20 97 37 33 52 77 17 95 58 48 88 75 85 35 30 48 41 77 21 85 89 3 25 7 41 75 64 52 24 3 92 11 66 67 91 72 52 32 3 2 14 44 60 73 30 39 70 47 62 80 33 24 78 67 55 3 6 94 69 0 22 11 18 88 49
16 34 20 26 68 80 89 48 33 13 90 26 67 90 88 3 8 63 48 30 66 76 19 69 57 90 69 34 54 45 29 35 77 68 49 6 55 87 80 58 88 61 10 7 98 34 55 73 82 34 57 57 27 82 45 81 56 52 89 48 65 12 61 97 40 72 40 45 6 49 32 9 99 71 56 22 0 39 75 8 22
85 73 79 85 35 68 99 94 86 73 80 35 80 14 76 75 60 69 67 82 59 16 19 88 37 2 99 96 60 67 60 57 95 63 47 76 20 93 11 18 38 51 32 81 64 37 57 81 77 93 70 56 60 78 34 5 8 57 51 12 41 68 36 13 97 41 99 83 43 68 43 77 25 97 95 11 39 0 31 40 97
94 90 23 34 94 58 73 5 11 7 48 83 12 56 32 64 22 79 78 42 8 37 50 93 56 20 25 63 86 53 17 95 72 40 53 71 79 93 58 84 76 87 58 8 78 17 89 13 4 49 63 47 20 10 34 8 92 74 98 29 9 99 6 56 19 69 68 67 77 36 57 77 55 92 10 18 75 31 0 34 74
59 69 4 58 34 33 99 53 40 28 4 78 69 60 5 6 59 4 81 2 16 91 9 74 89 39 48 84 86 1 91 26 52 6 94 77 94 5 7 28 88 2 66 16 99 66 26 86 5 49 44 30 94 95 79 48 28 82 17 25 29 28 75 28 68 39 25 47 41 70 98 97 82 78 99 88 8 40 34 0 81
50 24 86 43 4 1 54 44 41 41 51 94 3 14 89 67 23 82 8 6 98 50 79 84 27 31 2 13 6 86 99 11 73 64 54 63 8 83 9 79 33 55 79 7 81 60 96 90 6 88 84 39 83 55 11 47 4 41 20 78 67 94 32 54 16 6 66 64 87 46 74 35 49 47 73 49 22 97 74 81 0

0 39 47 82 58 25 7 47 37 51 83 95 53 92 95 95 97 88 22 20 3 15 87 40 96 90 84 22 42 96 58 47 67 35 70 46 65 61 27 92 29 84 62 71 24 82 70 60 67 12 31 74 42 80 51 68 98 34 22 79 29 10 95 98 7 26 87 21 6 94 68 33 51 21 36 17 18 87 64 67 4
39 0 14 32 80 88 29 93 24 24 46 40 3 55 8 86 63 90 5 90 52 37 36 72 91 82 23 95 28 19 43 98 58 76 19 85 80 14 60 32 51 47 81 23 86 29 19 13 26 55 14 89 70 28 57 4 13 69 43 69 68 70 29 73 29 1 12 97 26 68 80 65 6 12 67 67 26 23 86 58 59
47 14 0 64 75 15 48 77 31 75 21 1 39 96 31 86 83 82 54 69 31 11 66 66 30 38 97 10 11 14 44 13 84 6 27 97 42 75 66 8 16 84 84 75 6 19 41 27 5 32 21 93 98 60 40 26 97 93 41 96 29 29 30 27 76 10 18 49 81 29 23 39 95 32 21 85 5 97 93 97 76
82 32 64 0 49 50 29 76 25 40 36 50 96 56 58 70 97 12 54 99 46 10 3 9 56 41 44 46 14 58 70 40 99 46 9 42 34 77 25 44 36 40 29 5 14 4 74 35 30 18 71 4 48 4 25 76 54 54 85 65 5 5 97 26 5 46 34 25 55 56 51 30 5 92 11 70 39 36 65 66 32
58 80 75 49 0 6 36 19 40 71 99 57 53 57 16 46 63 92 52 32 1 96 63 67 86 61 35 13 89 37 55 99 86 32 49 42 54 8 31 27 82 9 35 85 98 90 33 61 27 52 22 11 54 96 80 43 92 24 75 71 2 96 76 60 93 17 62 39 1 97 67 4 27 59 49 88 19 68 31 48 56
25 88 15 50 6 0 55 66 98 11 95 86 40 52 85 1 18 17 58 42 63 64 87 72 92 94 64 27 96 80 64 7 79 35 65 26 88 58 99 11 83 97 26 83 16 38 67 10 35 19 7 46 36 1 77 28 54 87 80 87 55 41 30 61 87 18 4 23 98 34 24 77 38 74 72 33 1 85 25 1 38
7 29 48 29 36 55 0 58 56 26 58 81 31 62 13 61 27 20 44 70 8 19 40 77 97 22 16 35 10 64 27 28 84 83 21 9 92 22 11 62 38 60 27 70 29 48 29 31 1 67 10 37 75 75 94 1 17 30 34 3 6 25 26 46 64 38 22 38 60 31 45 32 6 76 17 72 4 24 14 93 94
47 93 77 76 19 66 58 0 37 75 56 90 92 84 68 32 63 71 67 66 37 94 13 59 45 62 22 30 25 55 2 83 95 93 93 78 34 70 10 71 88 56 44 35 42 53 73 12 92 36 19 74 50 73 45 33 3 56 38 31 10 13 65 33 32 2 46 24 97 40 55 27 29 54 52 21 36 90 80 51 47
37 24 31 25 40 98 56 37 0 84 20 24 2 91 78 23 72 18 88 95 36 86 76 17 53 62 2 33 85 23 19 89 99 66 89 77 90 20 97 89 58 88 33 87 5 9 72 30 24 55 91 18 52 48 40 92 84 34 26 15 99 64 38 43 54 50 25 87 62 54 82 54 7 65 49 15 73 65 16 65 86
51 24 75 40 71 11 26 75 84 0 21 36 62 95 84 21 2 92 26 14 2 71 65 92 66 34 82 52 35 15 96 85 89 78 64 25 53 59 45 96 39 48 89 17 75 83 22 58 13 16 13 51 10 7 1 25 41 23 25 49 31 1 93 75 89 76 33 13 30 48 29 40 3 11 45 46 47 95 48 10 44
83 46 21 36 99 95 58 56 20 21 0 24 11 76 94 21 35 78 60 14 42 4 85 43 60 42 54 12 79 63 80 76 63 37 86 58 72 26 69 95 33 8 82 40 34 17 21 40 52 23 51 69 19 22 26 22 29 8 15 70 46 7 8 97 9 59 7 59 51 39 54 99 45 63 35 62 99 2 17 7 81
95 40 1 50 57 86 81 90 24 36 24 0 33 19 8 55 30 82 44 25 17 45 5 55 91 42 48 81 41 94 44 59 63 66 86 40 85 81 36 71 86 57 42 92 57 64 83 35 86 32 7 44 26 43 92 57 35 79 47 65 47 77 46 39 63 48 10 80 78 12 22 85 28 99 29 35 77 84 53 83 55
53 3 39 96 53 40 31 92 2 62 11 33 0 9 20 51 80 54 16 59 45 38 71 80 1 93 61 26 52 9 4 79 22 31 31 60 25 55 29 45 46 68 79 8 45 70 28 20 75 11 84 74 44 37 80 42 49 55 40 94 18 78 13 13 77 42 71 16 9 21 3 59 72 54 8 10 94 39 96 72 91
92 55 96 56 57 52 62 84 91 95 76 19 9 0 87 95 10 28 98 62 4 35 51 21 38 26 88 4 39 46 25 55 65 66 88 90 35 5 17 29 28 6 65 61 65 98 34 81 56 36 51 90 90 44 95 62 43 47 54 57 54 78 28 11 26 97 21 36 68 65 1 98 84 47 49 28 69 98 43 16 92
95 8 31 58 16 85 13 68 78 84 94 8 20 87 0 51 15 64 7 95 49 12 82 6 27 59 27 69 16 67 78 2 88 62 89 2 25 22 30 41 54 86 84 1 70 55 30 9 74 50 63 83 70 85 7 62 48 5 57 83 17 83 68 53 82 95 21 5 58 12 13 71 63 93 47 31 82 55 23 11 80
95 86 86 70 46 1 61 32 23 21 21 55 51 95 51 0 5 49 34 66 5 66 93 14 88 37 57 59 59 12 78 72 94 56 89 63 2 68 13 20 50 73 10 68 92 92 82 1 35 78 51 1 81 11 87 34 50 33 50 32 38 13 13 10 45 56 27 6 68 67 60 41 15 71 60 50 59 4 35 33 44
97 63 83 97 63 18 27 63 72 2 35 30 80 10 15 5 0 93 92 89 69 93 26 33 93 21 99 26 51 88 87 73 19 9 7 52 42 8 7 70 97 37 72 72 19 59 98 42 34 31 52 44 44 6 51 98 68 89 14 10 63 69 11 51 31 6 47 37 5 25 50 75 82 7 65 76 24 59 76 35 34
88 90 82 12 92 17 20 71 18 92 78 82 54 28 64 49 93 0 51 32 73 59 72 47 77 64 88 75 4 38 58 98 60 2 2 11 18 77 25 56 50 59 37 68 96 31 26 27 5 51 49 34 66 66 26 9 82 7 42 84 87 2 90 6 82 64 48 51 3 44 92 79 17 29 58 72 32 17 95 96 8
22 5 54 54 52 58 44 67 88 26 60 44 16 98 7 34 92 51 0 24 51 16 70 21 47 79 24 97 14 99 2 50 43 5 69 71 28 99 71 91 78 62 65 59 2 64 42 54 60 70 54 45 74 26 43 23 73 32 23 25 75 27 49 69 42 87 99 24 26 24 98 4 69 38 58 37 69 26 8 31 96
20 90 69 99 32 42 70 66 95 14 14 25 59 62 95 66 89 32 24 0 90 34 64 82 23 25 41 13 22 90 59 83 29 8 97 56 30 3 14 80 95 3 39 22 3 77 12 13 44 67 85 76 41 25 71 61 40 74 93 29 4 59 18 13 42 62 77 18 24 54 2 36 23 19 93 96 44 58 76 93 11
3 52 31 46 1 63 8 37 36 2 42 17 45 4 49 5 69 73 51 90 0 44 53 8 17 71 84 64 41 40 20 6 7 37 98 77 94 20 49 95 95 18 63 95 15 43 68 82 37 90 82 38 36 41 88 61 81 80 40 28 74 26 4 82 27 75 70 98 20 80 1 66 38 14 39 54 28 74 5 9 67
15 37 11 10 96 64 19 94 86 71 4 45 38 35 12 66 93 59 16 34 44 0 86 26 37 73 25 39 18 24 82 42 70 90 71 51 85 13 39 80 58 62 40 63 94 60 97 62 93 38 77 70 91 13 86 89 41 33 94 55 45 91 55 15 95 51 90 72 34 72 86 36 30 16 26 73 20 18 45 50 27
87 36 66 3 63 87 40 13 76 65 85 5 71 51 82 93 26 72 70 64 53 86 0 9 3 76 92 42 70 5 74 66 81 16 41 16 92 80 86 48 29 19 62 3 69 48 8 27 54 40 66 72 20 64 67 80 36 25 70 1 21 16 32 6 16 80 55 89 5 94 57 25 25 45 24 77 16 81 63 73 84
40 72 66 9 67 72 77 59 17 92 43 55 80 21 6 14 33 47 21 82 8 26 9 0 47 81 37 45 25 48 45 51 32 84 42 98 64 72 61 33 76 55 35 61 54 90 22 34 44 65 22 29 70 44 27 69 96 4 28 83 54 42 18 36 75 9 69 54 92 82 20 88 26 5 77 41 23 38 41 68 15
96 91 30 56 86 92 97 45 53 66 60 91 1 38 27 88 93 77 47 23 17 37 3 47 0 84 33 45 14 69 19 26 80 84 35 50 95 41 11 4 44 52 5 78 37 98 90 92 40 88 81 50 82 12 69 53 35 15 65 50 84 66 39 85 59 60 6 74 55 40 51 64 95 10 47 5 85 6 65 29 91
90 82 38 41 61 94 22 62 62 34 42 42 93 26 59 37 21 64 79 25 71 73 76 81 84 0 10 33 14 75 47 10 84 35 18 45 44 17 78 66 80 46 62 38 88 62 95 60 54 57 93 14 44 54 54 12 50 67 43 2 55 99 3 60 17 7 37 50 1 1 45 62 97 2 65 34 41 45 81 35 85
84 23 97 44 35 64 16 22 2 82 54 48 61 88 27 57 99 88 24 41 84 25 92 37 33 10 0 3 22 37 81 62 26 73 91 70 87 67 67 59 61 83 39 79 4 63 90 30 53 72 22 29 31 46 17 96 51 72 21 88 1 55 43 28 4 84 41 68 19 26 73 59 50 85 92 66 45 71 4 85 50
22 95 10 46 13 27 35 30 33 52 12 81 26 4 69 59 26 75 97 13 64 39 42 45 45 33 3 0 75 73 6 13 20 44 99 65 29 70 90 58 78 37 63 22 83 83 33 27 55 8 14 55 96 28 34 54 44 87 55 53 88 56 7 26 55 79 15 49 71 94 82 38 32 90 6 12 90 20 83 63 58
42 28 11 14 89 96 10 25 85 35 79 41 52 39 16 59 51 4 14 22 41 18 70 25 14 14 22 75 0 74 6 43 40 85 30 92 99 60 95 63 65 97 35 75 77 29 45 56 63 71 11 37 99 43 92 8 58 70 48 12 19 4 49 34 44 73 52 38 68 58 70 15 97 34 64 11 61 18 34 50 57
96 19 14 58 37 80 64 55 23 15 63 94 9 46 67 12 88 38 99 90 40 24 5 48 69 75 37 73 74 0 14 97 64 60 17 15 76 78 22 71 30 27 90 93 45 33 40 17 21 82 35 60 45 10 89 27 71 25 89 18 47 79 34 48 26 98 44 73 68 90 76 85 26 45 78 59 98 92 88 57 92
58 43 44 70 55 64 27 2 19 96 80 44 4 25 78 78 87 58 2 59 20 82 74 45 19 47 81 6 6 14 0 61 5 27 76 91 5 62 3 99 18 65 66 82 87 9 83 42 7 11 73 59 53 5 61 74 12 37 14 30 90 12 56 1 78 80 51 48 40 54 1 18 89 52 97 80 94 29 62 79 93
47 98 13 40 99 7 28 83 89 85 76 59 79 55 2 72 73 98 50 83 6 42 66 51 26 10 62 13 43 97 61 0 24 52 58 22 23 82 36 92 32 12 21 56 40 79 47 87 18 31 40 1 89 43 3 63 26 79 12 7 20 30 39 36 1 31 53 86 26 10 9 26 9 12 19 7 34 86 78 28 72
67 58 84 99 86 79 84 95 99 89 63 63 22 65 88 94 19 60 43 29 7 70 81 32 80 84 26 20 40 64 5 24 0 19 7 96 54 75 55 68 25 29 13 69 88 96 32 5 95 40 37 33 56 10 77 41 82 37 88 25 59 37 74 2 92 87 64 30 93 66 62 56 18 52 71 92 7 24 69 33 12
35 76 6 46 32 35 83 93 66 78 37 66 31 66 62 56 9 2 5 8 37 90 16 84 84 35 73 44 85 60 27 52 19 0 2 25 17 35 46 65 95 72 25 61 13 6 57 74 75 35 13 86 7 65 25 33 28 98 91 67 33 15 58 48 96 16 1 9 24 59 44 60 76 79 47 93 64 66 27 50 64
70 19 27 9 49 65 21 93 89 64 86 86 31 88 89 89 7 2 69 97 98 71 41 42 35 18 91 99 30 17 76 58 7 2 0 86 4 72 33 72 4 37 42 13 41 43 36 83 37 30 38 72 10 69 24 78 28 70 62 54 92 53 27 90 3 78 37 31 16 18 69 62 47 87 69 51 91 81 41 79 2
46 85 97 42 42 26 9 78 77 25 58 40 60 90 2 63 52 11 71 56 77 51 16 98 50 45 70 65 92 15 91 22 96 25 86 0 21 87 94 96 13 88 56 53 60 6 16 32 62 8 95 92 95 11 56 74 34 37 66 8 19 41 22 98 46 95 3 5 52 11 76 17 17 85 6 33 82 45 95 77 25
65 80 42 34 54 88 92 34 90 53 72 85 25 35 25 2 42 18 28 30 94 85 92 64 95 44 87 29 99 76 5 23 54 17 4 21 0 57 41 23 79 40 59 90 39 37 38 19 5 26 31 18 56 37 64 92 26 24 85 70 88 21 53 23 11 11 15 12 63 52 67 86 64 57 89 28 49 94 15 18 88
61 14 75 77 8 58 22 70 20 59 26 81 55 5 22 68 8 77 99 3 20 13 80 72 41 17 67 70 60 78 62 82 75 35 72 87 57 0 67 73 12 5 13 88 84 86 4 11 55 11 72 72 79 62 50 46 4 21 34 55 77 43 68 52 79 90 43 33 91 21 81 30 57 39 28 26 95 63 9 92 89
27 60 66 25 31 99 11 10 97 45 69 36 29 17 30 13 7 25 71 14 49 39 86 61 11 78 67 90 95 22 3 36 55 46 33 94 41 67 0 84 8 86 95 92 6 25 49 10 20 22 21 3 24 11 28 69 27 66 22 1 11 29 44 69 3 95 80 91 31 33 14 95 24 3 6 93 4 80 69 39 39
92 32 8 44 27 11 62 71 89 96 95 71 45 29 41 20 70 56 91 80 95 80 48 33 4 66 59 58 63 71 99 92 68 65 72 96 23 73 84 0 26 51 85 15 64 82 97 18 71 11 42 29 34 17 55 79 86 33 52 37 44 74 2 5 37 66 53 59 78 50 59 87 89 94 85 81 82 91 72 91 78
29 51 16 36 82 83 38 88 58 39 33 86 46 28 54 50 97 50 78 95 95 58 29 76 44 80 61 78 65 30 18 32 25 95 4 13 79 12 8 26 0 17 50 20 32 3 87 65 32 30 67 41 66 5 50 78 90 3 17 65 88 92 45 4 66 18 3 63 4 12 95 95 61 11 69 89 74 33 62 76 8
84 47 84 40 9 97 60 56 88 48 8 57 68 6 86 73 37 59 62 3 18 62 19 55 52 46 83 37 97 27 65 12 29 72 37 88 40 5 86 51 17 0 71 44 9 22 19 48 38 71 53 42 29 58 4 41 45 70 88 98 1 78 75 41 85 29 58 90 49 72 92 62 52 29 1 96 77 63 89 30 80
62 81 84 29 35 26 27 44 33 89 82 42 79 65 84 10 72 37 65 39 63 40 62 35 5 62 39 63 35 90 66 21 13 25 42 56 59 13 95 85 50 71 0 81 22 15 71 63 63 86 21 73 14 37 33 52 43 91 92 61 55 7 41 97 20 37 86 20 57 43 26 72 62 96 18 64 33 75 36 3 21
71 23 75 5 85 83 70 35 87 17 40 92 8 61 1 68 72 68 59 22 95 63 3 61 78 38 79 22 75 93 82 56 69 61 13 53 90 88 92 15 20 44 81 0 62 23 20 27 55 21 45 8 67 66 91 59 70 25 9 90 78 37 97 16 64 11 94 13 23 62 37 12 56 92 85 65 56 84 18 88 6
24 86 6 14 98 16 29 42 5 75 34 57 45 65 70 92 19 96 2 3 15 94 69 54 37 88 4 83 77 45 87 40 88 13 41 60 39 84 6 64 32 9 22 62 0 63 13 83 30 58 30 54 82 23 95 22 77 9 36 85 41 12 81 41 41 68 35 76 13 12 8 90 75 14 52 17 53 1 45 72 77
82 29 19 4 90 38 48 53 9 83 17 64 70 98 55 92 59 31 64 77 43 60 48 90 98 62 63 83 29 33 9 79 96 6 43 6 37 86 25 82 3 22 15 23 63 0 27 82 65 21 79 63 59 51 75 33 49 98 9 21 87 54 53 44 51 68 2 4 16 77 60 33 15 54 24 79 24 40 8 23 64
70 19 41 74 33 67 29 73 72 22 21 83 28 34 30 82 98 26 42 12 68 97 8 22 90 95 90 33 45 40 83 47 32 57 36 16 38 4 49 97 87 19 71 20 13 27 0 24 61 34 92 80 67 8 93 36 5 75 58 71 52 37 95 64 81 62 62 98 23 37 85 80 59 79 28 50 13 54 56 96 29
60 13 27 35 61 10 31 12 30 58 40 35 20 81 9 1 42 27 54 13 82 62 27 34 92 60 30 27 56 17 42 87 5 74 83 32 19 11 10 18 65 48 63 27 83 82 24 0 67 56 30 92 91 31 54 51 88 32 24 36 50 91 50 5 39 65 83 76 79 23 47 44 8 63 5 22 85 20 62 87 72
67 26 5 30 27 35 1 92 24 13 52 86 75 56 74 35 34 5 60 44 37 93 54 44 40 54 53 55 63 21 7 18 95 75 37 62 5 55 20 71 32 38 63 55 30 65 61 67 0 70 38 70 97 95 86 13 1 83 44 64 26 94 60 25 32 41 86 59 52 91 93 17 58 64 65 67 63 25 83 38 65
12 55 32 18 52 19 67 36 55 16 23 32 11 36 50 78 31 51 70 67 90 38 40 65 88 57 72 8 71 82 11 31 40 35 30 8 26 11 22 11 30 71 86 21 58 21 34 56 70 0 56 44 53 44 96 33 77 7 97 87 3 12 79 5 44 13 21 17 62 94 93 57 73 19 44 91 56 51 71 42 1
31 14 21 71 22 7 10 19 91 13 51 7 84 51 63 51 52 49 54 85 82 77 66 22 81 93 22 14 11 35 73 40 37 13 38 95 31 72 21 42 67 53 21 45 30 79 92 30 38 56 0 48 31 7 15 9 24 87 18 77 94 7 99 12 24 26 75 25 39 3 41 33 31 74 15 54 51 37 69 37 38
74 89 93 4 11 46 37 74 18 51 69 44 74 90 83 1 44 34 45 76 38 70 72 29 50 14 29 55 37 60 59 1 33 86 72 92 18 72 3 29 41 42 73 8 54 63 80 92 70 44 48 0 86 50 9 2 20 68 30 84 9 34 38 33 9 69 71 59 88 92 49 84 7 98 42 10 7 68 58 70 32
42 70 98 48 54 36 75 50 52 10 19 26 44 90 70 81 44 66 74 41 36 91 20 70 82 44 31 96 99 45 53 89 56 7 10 95 56 79 24 34 66 29 14 67 82 59 67 91 97 53 31 86 0 1 57 67 96 24 10 34 91 1 88 97 11 55 6 61 4 65 85 36 57 11 5 5 40 10 31 59 49
80 28 60 4 96 1 75 73 48 7 22 43 37 44 85 11 6 66 26 25 41 13 64 44 12 54 46 28 43 10 5 43 10 65 69 11 37 62 11 17 5 58 37 66 23 51 8 31 95 44 7 50 1 0 80 90 72 10 88 40 85 71 81 60 75 2 68 71 86 37 9 95 33 94 49 98 4 27 26 45 68
51 57 40 25 80 77 94 45 40 1 26 92 80 95 7 87 51 26 43 71 88 86 67 27 69 54 17 34 92 89 61 3 77 25 24 56 64 50 28 55 50 4 33 91 95 75 93 54 86 96 15 9 57 80 0 87 66 31 72 28 37 24 23 90 51 38 42 87 21 79 90 86 3 11 45 94 28 43 27 24 57
68 4 26 76 43 28 1 33 92 25 22 57 42 62 62 34 98 9 23 61 61 89 80 69 53 12 96 54 8 27 74 63 41 33 78 74 92 46 69 79 78 41 52 59 22 33 36 51 13 33 9 2 67 90 87 0 71 33 84 58 90 37 90 10 18 64 79 5 97 55 21 63 54 13 60 62 74 24 61 80 66
98 13 97 54 92 54 17 3 84 41 29 35 49 43 48 50 68 82 73 40 81 41 36 96 35 50 51 44 58 71 12 26 82 28 28 34 26 4 27 86 90 45 43 70 77 49 5 88 1 77 24 20 96 72 66 71 0 87 32 2 91 7 85 18 42 55 3 82 78 92 40 88 25 71 64 81 75 32 20 46 16
34 69 93 54 24 87 30 56 34 23 8 79 55 47 5 33 89 7 32 74 80 33 25 4 15 67 72 87 70 25 37 79 37 98 70 37 24 21 66 33 3 70 91 25 9 98 75 32 83 7 87 68 24 10 31 33 87 0 19 77 75 34 46 57 3 30 16 2 5 44 72 36 16 59 86 70 9 86 19 20 11
22 43 41 85 75 80 34 38 26 25 15 47 40 54 57 50 14 42 23 93 40 94 70 28 65 43 21 55 48 89 14 12 88 91 62 66 85 34 22 52 17 88 92 9 36 9 58 24 44 97 18 30 10 88 72 84 32 19 0 80 90 52 23 99 28 72 85 90 68 99 3 47 56 45 23 17 79 30 16 88 38
79 69 96 65 71 87 3 31 15 49 70 65 94 57 83 32 10 84 25 29 28 55 1 83 50 2 88 53 12 18 30 7 25 67 54 8 70 55 1 37 65 98 61 90 85 21 71 36 64 87 77 84 34 40 28 58 2 77 80 0 52 1 89 44 26 36 50 56 57 62 94 58 8 2 62 9 8 24 33 95 29
29 68 29 5 2 55 6 10 99 31 46 47 18 54 17 38 63 87 75 4 74 45 21 54 84 55 1 88 19 47 90 20 59 33 92 19 88 77 11 44 88 1 55 78 41 87 52 50 26 3 94 9 91 85 37 90 91 75 90 52 0 96 78 59 54 67 15 67 36 62 80 72 85 81 7 63 32 47 48 2 70
10 70 29 5 96 41 25 13 64 1 7 77 78 78 83 13 69 2 27 59 26 91 16 42 66 99 55 56 4 79 12 30 37 15 53 41 21 43 29 74 92 78 7 37 12 54 37 91 94 12 7 34 1 71 24 37 7 34 52 1 96 0 81 49 57 81 48 12 84 5 86 40 75 46 40 31 13 33 79 41 27
95 29 30 97 76 30 26 65 38 93 8 46 13 28 68 13 11 90 49 18 4 55 32 18 39 3 43 7 49 34 56 39 74 58 27 22 53 68 44 2 45 75 41 97 81 53 95 50 60 79 99 38 88 81 23 90 85 46 23 89 78 81 0 25 79 14 60 86 25 13 49 67 20 68 4 46 77 32 37 71 9
98 73 27 26 60 61 46 33 43 75 97 39 13 11 53 10 51 6 69 13 82 15 6 36 85 60 28 26 34 48 1 36 2 48 90 98 23 52 69 5 4 41 97 16 41 44 64 5 25 5 12 33 97 60 90 10 18 57 99 44 59 49 25 0 90 15 99 32 75 49 28 87 65 60 96 76 7 11 38 15 39
7 29 76 5 93 87 64 32 54 89 9 63 77 26 82 45 31 82 42 42 27 95 16 75 59 17 4 55 44 26 78 1 92 96 3 46 11 79 3 37 66 85 20 64 41 51 81 39 32 44 24 9 11 75 51 18 42 3 28 26 54 57 79 90 0 15 22 15 1 37 12 2 27 94 92 8 72 60 60 17 25
26 1 10 46 17 18 38 2 50 76 59 48 42 97 95 56 6 64 87 62 75 51 80 9 60 7 84 79 73 98 80 31 87 16 78 95 11 90 95 66 18 29 37 11 68 68 62 65 41 13 26 69 55 2 38 64 55 30 72 36 67 81 14 15 15 0 15 42 72 12 71 34 3 53 24 16 6 85 73 21 73
87 12 18 34 62 4 22 46 25 33 7 10 71 21 21 27 47 48 99 77 70 90 55 69 6 37 41 15 52 44 51 53 64 1 37 3 15 43 80 53 3 58 86 94 35 2 62 83 86 21 75 71 6 68 42 79 3 16 85 50 15 48 60 99 22 15 0 12 48 98 59 23 25 66 50 47 99 84 52 77 8
21 97 49 25 39 23 38 24 87 13 59 80 16 36 5 6 37 51 24 18 98 72 89 54 74 50 68 49 38 73 48 86 30 9 31 5 12 33 91 59 63 90 20 13 76 4 98 76 59 17 25 59 61 71 87 5 82 2 90 56 67 12 86 32 15 42 12 0 82 5 61 49 31 83 76 70 11 55 80 74 80
6 26 81 55 1 98 60 97 62 30 51 78 9 68 58 68 5 3 26 24 20 34 5 92 55 1 19 71 68 68 40 26 93 24 16 52 63 91 31 78 4 49 57 23 13 16 23 79 52 62 39 88 4 86 21 97 78 5 68 57 36 84 25 75 1 72 48 82 0 53 92 85 99 58 87 6 77 21 34 97 4
94 68 29 56 97 34 31 40 54 48 39 12 21 65 12 67 25 44 24 54 80 72 94 82 40 1 26 94 58 90 54 10 66 59 18 11 52 21 33 50 12 72 43 62 12 77 37 23 91 94 3 92 65 37 79 55 92 44 99 62 62 5 13 49 37 12 98 5 53 0 92 47 60 62 72 89 11 11 21 62 70
68 80 23 51 67 24 45 55 82 29 54 22 3 1 13 60 50 92 98 2 1 86 57 20 51 45 73 82 70 76 1 9 62 44 69 76 67 81 14 59 95 92 26 37 8 60 85 47 93 93 41 49 85 9 90 21 40 72 3 94 80 86 49 28 12 71 59 61 92 92 0 55 79 85 30 60 46 46 25 70 37
33 65 39 30 4 77 32 27 54 40 99 85 59 98 71 41 75 79 4 36 66 36 25 88 64 62 59 38 15 85 18 26 56 60 62 17 86 30 95 87 95 62 72 12 90 33 80 44 17 57 33 84 36 95 86 63 88 36 47 58 72 40 67 87 2 34 23 49 85 47 55 0 32 86 59 11 32 92 76 88 87
51 6 95 5 27 38 6 29 7 3 45 28 72 84 63 15 82 17 69 23 38 30 25 26 95 97 50 32 97 26 89 9 18 76 47 17 64 57 24 89 61 52 62 56 75 15 59 8 58 73 31 7 57 33 3 54 25 16 56 8 85 75 20 65 27 3 25 31 99 60 79 32 0 7 5 42 66 51 10 24 66
21 12 32 92 59 74 76 54 65 11 63 99 54 47 93 71 7 29 38 19 14 16 45 5 10 2 85 90 34 45 52 12 52 79 87 85 57 39 3 94 11 29 96 92 14 54 79 63 64 19 74 98 11 94 11 13 71 59 45 2 81 46 68 60 94 53 66 83 58 62 85 86 7 0 11 99 83 91 11 53 3
36 67 21 11 49 72 17 52 49 45 35 29 8 49 47 60 65 58 58 93 39 26 24 77 47 65 92 6 64 78 97 19 71 47 69 6 89 28 6 85 69 1 18 85 52 24 28 5 65 44 15 42 5 49 45 60 64 86 23 62 7 40 4 96 92 24 50 76 87 72 30 59 5 11 0 29 75 83 13 86 8
17 67 85 70 88 33 72 21 15 46 62 35 10 28 31 50 76 72 37 96 54 73 77 41 5 34 66 12 11 59 80 7 92 93 51 33 28 26 93 81 89 96 64 65 17 79 50 22 67 91 54 10 5 98 94 62 81 70 17 9 63 31 46 76 8 16 47 70 6 89 60 11 42 99 29 0 16 35 44 14 22
18 26 5 39 19 1 4 36 73 47 99 77 94 69 82 59 24 32 69 44 28 20 16 23 85 41 45 90 61 98 94 34 7 64 91 82 49 95 4 82 74 77 33 56 53 24 13 85 63 56 51 7 40 4 28 74 75 9 79 8 32 13 77 7 72 6 99 11 77 11 46 32 66 83 75 16 0 44 39 66 82
87 23 97 36 68 85 24 90 65 95 2 84 39 98 55 4 59 17 26 58 74 18 81 38 6 45 71 20 18 92 29 86 24 66 81 45 94 63 80 91 33 63 75 84 1 40 54 20 25 51 37 68 10 27 43 24 32 86 30 24 47 33 32 11 60 85 84 55 21 11 46 92 51 91 83 35 44 0 42 98 38
64 86 93 65 31 25 14 80 16 48 17 53 96 43 23 35 76 95 8 76 5 45 63 41 65 81 4 83 34 88 62 78 69 27 41 95 15 9 69 72 62 89 36 18 45 8 56 62 83 71 69 58 31 26 27 61 20 19 16 33 48 79 37 38 60 73 52 80 34 21 25 76 10 11 13 44 39 42 0 64 9
67 58 97 66 48 1 93 51 65 10 7 83 72 16 11 33 35 96 31 93 9 50 73 68 29 35 85 63 50 57 79 28 33 50 79 77 18 92 39 91 76 30 3 88 72 23 96 87 38 42 37 70 59 45 24 80 46 20 88 95 2 41 71 15 17 21 77 74 97 62 70 88 24 53 86 14 66 98 64 0 23
4 59 76 32 56 38 94 47 86 44 81 55 91 92 80 44 34 8 96 11 67 27 84 15 91 85 50 58 57 92 93 72 12 64 2 25 88 89 39 78 8 80 21 6 77 64 29 72 65 1 38 32 49 68 57 66 16 11 38 29 70 27 9 39 25 73 8 80 4 70 37 87 66 3 8 22 82 38 9 23 0

0 38 73 14 44 58 21 19 25 77 13 51 4 86 85 78 78 34 51 89 75 71 95 84 81 20 84 35 8 70 90 29 10 61 33 81 51 17 73 13 33 17 86 22 57 2 16 10 34 2 32 56 81 97 25 35 25 90 54 95 2 75 65 52 32 77 92 79 5 65 72 58 68 56 75 72 95 18 57 38 26
38 0 5 50 60 15 18 20 94 81 41 20 26 24 73 6 24 36 41 10 4 74 36 24 85 84 95 70 36 26 78 94 64 58 73 14 91 56 74 56 23 31 33 37 64 99 69 5 9 20 7 12 47 15 85 62 63 12 11 7 23 52 2 55 9 97 58 27 72 55 86 87 2 17 58 31 25 60 64 62 61
73 5 0 22 95 32 11 2 7 54 66 2 50 99 59 53 40 43 63 2 68 10 30 5 54 2 18 91 27 45 67 62 38 82 68 76 16 10 22 74 28 74 65 85 41 26 33 74 83 2 18 3 73 66 49 5 29 20 17 43 70 80 22 17 75 92 93 76 4 17 84 80 29 39 68 90 17 16 42 80 20
14 50 22 0 55 69 91 50 4 63 51 91 86 75 64 75 70 63 33 25 45 76 89 72 27 50 49 3 63 79 79 15 57 22 89 34 73 28 61 19 38 65 49 26 93 54 49 63 88 46 25 37 87 91 65 55 90 16 2 63 36 3 50 31 9 47 37 31 72 42 63 48 5 2 85 51 15 17 13 21 67
44 60 95 55 0 72 41 57 34 56 67 31 68 66 71 67 98 58 47 62 15 2 51 68 21 67 11 45 99 78 33 32 89 57 29 44 16 79 65 74 40 91 78 61 88 17 88 26 46 1 30 8 53 94 67 70 17 8 44 54 79 51 8 25 94 70 35 20 75 98 8 38 42 53 15 57 86 21 17 9 69
58 15 32 69 72 0 24 82 61 47 14 11 14 95 16 24 26 93 50 87 26 21 35 70 93 74 69 51 5 30 25 46 92 79 17 77 27 34 91 96 6 69 46 28 42 97 7 98 35 30 59 49 72 92 29 13 82 61 55 71 75 6 49 81 72 56 12 72 10 45 83 81 80 39 85 71 36 24 45 58 77
21 18 11 91 41 24 0 73 34 96 47 38 64 92 73 3 16 60 4 48 78 7 94 53 92 75 87 58 89 59 42 9 42 62 4 80 92 38 33 1 41 55 57 1 93 21 8 20 50 87 29 76 26 79 5 36 84 58 56 64 60 14 72 82 59 40 97 71 23 69 41 25 21 35 27 21 79 27 27 5 55
19 20 2 50 57 82 73 0 22 43 90 25 90 17 40 39 65 75 12 36 70 80 93 57 81 11 29 46 13 50 60 18 19 56 10 89 27 11 1 8 79 56 65 21 88 46 3 83 50 60 65 69 48 87 30 44 93 80 90 70 85 79 61 62 15 73 44 89 58 57 24 34 8 97 5 44 75 50 54 8 35
25 94 7 4 34 61 34 22 0 5 58 49 85 85 97 20 45 88 77 72 97 80 62 31 66 42 24 3 89 15 53 42 90 58 59 40 92 12 36 27 98 93 62 74 33 58 42 84 93 81 69 60 18 29 48 70 44 71 31 18 69 66 50 4 20 6 34 49 50 26 14 6 65 34 68 49 35 44 79 96 2
77 81 54 63 56 47 96 43 5 0 62 43 19 85 55 67 22 97 88 24 50 48 70 4 53 99 22 33 38 42 82 67 43 16 62 49 61 14 51 59 22 90 32 75 30 30 87 77 55 81 70 58 59 20 28 35 35 10 23 52 52 51 84 65 38 61 45 22 31 35 53 58 15 97 76 10 48 57 2 9 29
13 41 66 51 67 14 47 90 58 62 0 93 81 45 86 88 10 30 3 33 72 44 21 92 43 84 90 62 47 95 10 17 46 30 79 69 54 46 34 59 8 27 35 40 33 62 13 97 67 59 40 54 74 88 69 92 90 33 56 19 36 87 64 53 25 67 72 44 83 80 68 49 36 66 22 44 34 71 98 45 69
51 20 2 91 31 11 38 25 49 43 93 0 4 47 81 76 9 51 43 2 30 66 5 82 34 5 73 50 56 97 31 14 32 14 21 21 66 7 8 96 67 54 15 94 58 42 73 16 47 73 58 83 2 40 18 48 6 18 74 72 33 47 15 13 72 87 60 53 35 19 48 17 87 76 22 4 72 74 81 67 67
4 26 50 86 68 14 64 90 85 19 81 4 0 20 60 7 69 49 59 47 25 54 22 81 1 34 42 10 52 89 23 76 71 91 87 27 84 70 21 89 98 93 77 93 36 10 45 9 82 3 57 6 39 33 36 95 65 93 83 42 15 28 37 73 68 61 5 8 71 3 35 25 32 18 41 18 25 39 36 20 42
86 24 99 75 66 95 92 17 85 85 45 47 20 0 13 75 10 39 60 28 89 26 95 63 33 79 34 94 63 29 61 34 30 81 82 68 36 28 65 47 1 13 54 2 49 17 77 15 92 66 3 45 87 74 30 26 87 6 99 76 93 31 81 9 87 16 40 36 3 1 59 55 4 34 67 16 25 73 97 23 9
85 73 59 64 71 16 73 40 97 55 86 81 60 13 0 98 46 4 98 26 31 89 23 72 55 95 29 63 17 18 93 36 91 35 31 89 29 60 84 37 22 96 80 3 26 29 2 17 38 98 56 37 96 91 28 54 25 49 33 22 80 24 72 51 47 76 54 19 71 27 44 89 48 55 84 71 45 42 40 11 44
78 6 53 75 67 24 3 39 20 67 88 76 7 75 98 0 64 36 94 20 52 94 54 31 27 8 34 40 38 65 80 1 83 50 88 67 89 30 71 84 67 38 46 60 51 36 97 42 88 77 82 7 58 12 92 82 73 53 75 98 8 24 55 51 6 68 80 63 92 5 13 93 93 98 64 74 55 4 17 39 83
78 24 40 70 98 26 16 65 45 22 10 9 69 10 46 64 0 49 8 20 83 20 91 60 9 29 5 11 50 90 27 45 68 87 55 85 42 72 98 33 2 81 31 69 5 95 34 92 54 89 31 64 39 1 40 2 8 5 2 78 42 34 71 86 85 10 94 25 73 64 59 4 78 83 50 88 64 51 22 69 20
34 36 43 63 58 93 60 75 88 97 30 51 49 39 4 36 49 0 84 78 57 78 83 86 90 33 60 24 59 29 58 34 69 31 11 49 72 20 81 31 57 55 23 72 92 45 56 34 22 70 96 79 38 41 51 64 2 14 5 61 19 77 57 32 1 5 51 41 70 22 30 61 81 62 43 49 19 31 94 62 32
51 41 63 33 47 50 4 12 77 88 3 43 59 60 98 94 8 84 0 15 14 84 57 57 49 15 73 87 45 52 65 72 96 10 45 73 36 78 4 60 62 18 39 83 57 2 78 76 31 80 71 94 10 82 7 1 59 37 21 2 6 87 85 71 76 51 29 11 87 34 36 38 77 87 35 79 71 15 7 57 36
89 10 2 25 62 87 48 36 72 24 33 2 47 28 26 20 20 78 15 0 81 55 37 87 97 30 41 76 58 50 91 22 21 68 58 93 10 6 64 86 73 59 94 36 24 3 16 13 82 42 58 98 12 49 10 2 86 98 35 62 12 43 95 65 69 82 94 13 9 27 89 19 74 73 55 4 35 59 97 77 57
75 4 68 45 15 26 78 70 97 50 72 30 25 89 31 52 83 57 14 81 0 16 9 62 73 68 54 44 30 29 23 98 49 62 94 27 43 50 57 38 62 53 99 28 70 8 44 64 93 93 83 99 40 88 79 49 83 79 37 20 27 51 16 63 58 16 54 35 54 64 95 29 56 77 25 89 60 58 76 41 30
71 74 10 76 2 21 7 80 80 48 44 66 54 26 89 94 20 78 84 55 16 0 9 82 74 10 47 99 11 87 16 91 90 54 24 90 3 82 12 83 92 62 39 18 48 91 45 83 41 23 42 91 64 29 38 64 41 76 44 58 15 97 58 86 84 11 8 41 27 97 55 20 82 3 20 30 7 13 52 5 34
95 36 30 89 51 35 94 93 62 70 21 5 22 95 23 54 91 83 57 37 9 9 0 99 68 94 59 8 45 35 57 39 22 99 93 25 94 46 61 9 47 55 27 92 97 21 90 36 7 24 69 78 80 52 69 66 50 97 41 60 27 60 63 98 9 33 67 46 21 33 68 67 97 31 23 76 21 67 8 10 19
84 24 5 72 68 70 53 57 31 4 92 82 81 63 72 31 60 86 57 87 62 82 99 0 41 9 79 88 55 85 12 9 93 91 14 63 95 50 6 80 82 77 58 16 86 57 53 9 73 97 24 78 75 23 91 87 61 98 60 15 46 99 38 59 1 31 52 8 1 14 3 82 89 86 51 40 97 87 44 51 62
81 85 54 27 21 93 92 81 66 53 43 34 1 33 55 27 9 90 49 97 73 74 68 41 0 92 19 37 47 20 82 19 33 75 98 70 70 97 5 22 63 35 39 85 50 8 87 31 30 22 20 70 47 29 54 35 89 24 42 48 74 14 85 91 98 93 22 35 62 95 30 98 18 79 98 21 49 52 36 91 50
20 84 2 50 67 74 75 11 42 99 84 5 34 79 95 8 29 33 15 30 68 10 94 9 92 0 12 57 54 58 8 74 63 98 53 88 37 26 54 73 28 43 38 82 48 67 20 35 71 86 35 16 23 33 52 41 27 25 58 26 95 86 25 6 33 35 37 79 82 89 98 20 91 12 71 26 24 85 98 72 15
84 95 18 49 11 69 87 29 24 22 90 73 42 34 29 34 5 60 73 41 54 47 59 79 19 12 0 61 84 9 3 89 64 51 81 37 84 18 68 4 81 99 11 61 71 69 27 50 65 56 40 9 69 48 46 80 32 34 5 44 31 32 73 99 71 75 30 54 35 82 88 54 89 49 38 10 9 4 23 34 2
35 70 91 3 45 51 58 46 3 33 62 50 10 94 63 40 11 24 87 76 44 99 8 88 37 57 61 0 85 26 1 74 19 82 46 93 62 99 13 66 65 78 51 3 99 78 19 60 43 18 40 32 49 69 13 25 38 94 47 61 13 97 10 85 87 69 82 98 31 92 65 14 7 63 59 54 61 65 35 56 78
8 36 27 63 99 5 89 13 89 38 47 56 52 63 17 38 50 59 45 58 30 11 45 55 47 54 84 85 0 86 13 3 52 31 28 96 75 13 50 88 72 22 67 47 74 54 44 90 95 16 54 90 34 70 28 54 38 47 47 27 68 52 49 73 26 19 51 76 55 17 28 53 61 50 62 81 14 88 47 54 39
70 26 45 79 78 30 59 50 15 42 95 97 89 29 18 65 90 29 52 50 29 87 35 85 20 58 9 26 86 0 21 17 65 42 20 44 78 84 64 66 12 55 43 36 41 92 42 5 91 77 53 50 32 79 59 62 98 74 30 17 62 5 99 75 28 71 37 21 2 47 97 75 74 71 7 5 1 76 21 25 89
90 78 67 79 33 25 42 60 53 82 10 31 23 61 93 80 27 58 65 91 23 16 57 12 82 8 3 1 13 21 0 63 9 3 98 52 82 20 10 10 38 4 59 60 97 21 3 8 57 95 56 7 94 43 33 84 16 71 48 77 23 34 19 96 71 46 43 64 75 46 54 25 97 85 64 77 44 2 54 65 79
29 94 62 15 32 46 9 18 42 67 17 14 76 34 36 1 45 34 72 22 98 91 39 9 19 74 89 74 3 17 63 0 41 11 44 87 4 60 80 9 22 25 23 84 45 20 73 85 5 96 39 36 45 24 8 70 2 39 49 54 27 1 83 62 20 40 99 66 68 16 87 33 67 80 90 3 39 12 36 50 38
10 64 38 57 89 92 42 19 90 43 46 32 71 30 91 83 68 69 96 21 49 90 22 93 33 63 64 19 52 65 9 41 0 92 23 70 48 47 37 39 37 21 24 4 59 40 29 5 71 64 71 45 24 69 16 88 11 67 53 5 53 76 88 88 88 43 51 62 49 50 9 15 47 95 1 27 13 58 85 85 49
61 58 82 22 57 79 62 56 58 16 30 14 91 81 35 50 87 31 10 68 62 54 99 91 75 98 51 82 31 42 3 11 92 0 79 90 50 73 14 88 6 24 63 87 80 65 55 1 2 75 45 91 93 11 37 17 24 77 85 8 53 67 51 64 58 8 85 74 48 63 44 37 84 19 19 58 62 2 88 98 33
33 73 68 89 29 17 4 10 59 62 79 21 87 82 31 88 55 11 45 58 94 24 93 14 98 53 81 46 28 20 98 44 23 79 0 61 69 96 41 24 92 42 46 59 35 34 88 71 64 85 10 47 97 81 40 42 92 97 30 7 81 74 91 16 97 75 26 24 3 50 27 47 42 8 84 91 85 56 60 19 4
81 14 76 34 44 77 80 89 40 49 69 21 27 68 89 67 85 49 73 93 27 90 25 63 70 88 37 93 96 44 52 87 70 90 61 0 74 60 60 49 16 30 99 15 65 93 99 26 97 37 98 26 20 37 25 4 80 72 32 27 94 14 16 6 65 92 76 27 1 37 38 40 6 64 24 35 40 69 20 17 35
51 91 16 73 16 27 92 27 92 61 54 66 84 36 29 89 42 72 36 10 43 3 94 95 70 37 84 62 75 78 82 4 48 50 69 74 0 91 15 95 41 13 22 34 12 23 70 86 14 7 54 37 96 67 43 86 9 5 4 14 21 60 3 86 57 60 8 94 6 62 37 55 45 91 65 8 78 90 14 11 18
17 56 10 28 79 34 38 11 12 14 46 7 70 28 60 30 72 20 78 6 50 82 46 50 97 26 18 99 13 84 20 60 47 73 96 60 91 0 2 71 73 25 99 89 87 18 68 99 58 12 96 92 53 80 78 75 3 6 31 14 8 17 69 71 3 49 84 57 58 79 34 55 87 82 87 68 28 72 2 93 70
73 74 22 61 65 91 33 1 36 51 34 8 21 65 84 71 98 81 4 64 57 12 61 6 5 54 68 13 50 64 10 80 37 14 41 60 15 2 0 1 17 5 13 92 26 68 65 27 99 38 99 13 41 11 33 66 24 13 61 72 3 6 42 82 59 74 35 61 4 4 52 90 40 84 28 23 82 68 82 68 97
13 56 74 19 74 96 1 8 27 59 59 96 89 47 37 84 33 31 60 86 38 83 9 80 22 73 4 66 88 66 10 9 39 88 24 49 95 71 1 0 26 13 30 58 71 64 24 90 22 20 80 33 91 35 46 83 32 25 71 8 89 72 14 16 22 29 77 44 2 36 3 18 34 72 69 15 28 18 44 79 19
33 23 28 38 40 6 41 79 98 22 8 67 98 1 22 67 2 57 62 73 62 92 47 82 63 28 81 65 72 12 38 22 37 6 92 16 41 73 17 26 0 41 23 35 16 96 54 68 6 41 10 83 40 82 29 53 99 2 61 32 55 2 84 27 37 31 5 1 44 41 55 92 18 3 51 42 35 41 79 35 72
17 31 74 65 91 69 55 56 93 90 27 54 93 13 96 38 81 55 18 59 53 62 55 77 35 43 99 78 22 55 4 25 21 24 42 30 13 25 5 13 41 0 27 72 29 10 45 73 26 17 83 46 18 8 7 99 48 61 41 74 47 47 94 59 51 96 3 37 14 29 56 9 1 15 77 25 47 40 37 43 96
86 33 65 49 78 46 57 65 62 32 35 15 77 54 80 46 31 23 39 94 99 39 27 58 39 38 11 51 67 43 59 23 24 63 46 99 22 99 13 30 23 27 0 74 81 24 17 94 65 58 34 60 49 91 94 72 57 84 91 26 39 44 63 29 71 4 55 92 12 7 59 84 3 47 94 60 61 27 64 22 13
22 37 85 26 61 28 1 21 74 75 40 94 93 2 3 60 69 72 83 36 28 18 92 16 85 82 61 3 47 36 60 84 4 87 59 15 34 89 92 58 35 72 74 0 49 4 35 71 38 10 91 1 38 61 54 89 42 79 7 97 20 21 5 24 39 66 87 79 70 4 46 22 78 25 18 78 44 97 5 13 61
57 64 41 93 88 42 93 88 33 30 33 58 36 49 26 51 5 92 57 24 70 48 97 86 50 48 71 99 74 41 97 45 59 80 35 65 12 87 26 71 16 29 81 49 0 74 1 41 98 23 77 62 98 62 8 97 55 88 19 41 41 80 40 49 89 30 77 65 5 34 82 14 61 69 58 92 85 26 36 74 65
2 99 26 54 17 97 21 46 58 30 62 42 10 17 29 36 95 45 2 3 8 91 21 57 8 67 69 78 54 92 21 20 40 65 34 93 23 18 68 64 96 10 24 4 74 0 55 68 64 36 12 66 63 69 37 11 70 78 86 93 31 80 74 90 28 96 50 64 55 86 85 32 76 72 21 89 52 64 8 43 36
16 69 33 49 88 7 8 3 42 87 13 73 45 77 2 97 34 56 78 16 44 45 90 53 87 20 27 19 44 42 3 73 29 55 88 99 70 68 65 24 54 45 17 35 1 55 0 62 31 44 41 38 18 4 73 61 93 6 7 71 92 22 59 4 71 41 24 30 36 57 87 99 30 97 39 2 71 40 19 21 16
10 5 74 63 26 98 20 83 84 77 97 16 9 15 17 42 92 34 76 13 64 83 36 9 31 35 50 60 90 5 8 85 5 1 71 26 86 99 27 90 68 73 94 71 41 68 62 0 70 53 36 19 70 26 9 62 50 58 5 96 57 90 22 5 65 86 54 37 63 12 61 67 69 44 94 6 58 54 39 79 56
34 9 83 88 46 35 50 50 93 55 67 47 82 92 38 88 54 22 31 82 93 41 7 73 30 71 65 43 95 91 57 5 71 2 64 97 14 58 99 22 6 26 65 38 98 64 31 70 0 68 69 27 47 53 89 66 59 52 22 96 71 27 63 28 43 36 20 79 56 34 61 42 68 46 33 27 92 89 7 96 61
2 20 2 46 1 30 87 60 81 81 59 73 3 66 98 77 89 70 80 42 93 23 24 97 22 86 56 18 16 77 95 96 64 75 85 37 7 12 38 20 41 17 58 10 23 36 44 53 68 0 82 91 63 16 86 7 41 28 22 62 74 65 78 24 58 38 89 94 75 57 46 52 82 7 30 42 95 3 31 35 19
32 7 18 25 30 59 29 65 69 70 40 58 57 3 56 82 31 96 71 58 83 42 69 24 20 35 40 40 54 53 56 39 71 45 10 98 54 96 99 80 10 83 34 91 77 12 41 36 69 82 0 60 42 87 57 94 27 49 60 37 99 56 45 43 93 70 57 44 44 49 12 81 19 35 53 83 68 27 63 25 66
56 12 3 37 8 49 76 69 60 58 54 83 6 45 37 7 64 79 94 98 99 91 78 78 70 16 9 32 90 50 7 36 45 91 47 26 37 92 13 33 83 46 60 1 62 66 38 19 27 91 60 0 53 89 91 40 10 26 46 54 15 28 28 70 36 49 61 5 52 70 4 39 86 72 4 70 18 3 15 47 9
81 47 73 87 53 72 26 48 18 59 74 2 39 87 96 58 39 38 10 12 40 64 80 75 47 23 69 49 34 32 94 45 24 93 97 20 96 53 41 91 40 18 49 38 98 63 18 70 47 63 42 53 0 29 71 67 14 77 29 6 92 13 78 55 58 40 90 18 25 21 18 25 94 80 3 35 2 55 70 88 24
97 15 66 91 94 92 79 87 29 20 88 40 33 74 91 12 1 41 82 49 88 29 52 23 29 33 48 69 70 79 43 24 69 11 81 37 67 80 11 35 82 8 91 61 62 69 4 26 53 16 87 89 29 0 4 63 50 56 97 47 27 60 45 8 5 47 2 54 4 50 95 40 30 42 63 37 28 18 30 14 95
25 85 49 65 67 29 5 30 48 28 69 18 36 30 28 92 40 51 7 10 79 38 69 91 54 52 46 13 28 59 33 8 16 37 40 25 43 78 33 46 29 7 94 54 8 37 73 9 89 86 57 91 71 4 0 46 9 28 58 22 22 59 20 55 57 31 11 41 81 78 12 62 8 96 16 28 87 90 42 19 52
35 62 5 55 70 13 36 44 70 35 92 48 95 26 54 82 2 64 1 2 49 64 66 87 35 41 80 25 54 62 84 70 88 17 42 4 86 75 66 83 53 99 72 89 97 11 61 62 66 7 94 40 67 63 46 0 26 52 23 60 91 46 69 39 58 21 91 70 52 48 23 72 36 10 58 20 26 36 58 89 90
25 63 29 90 17 82 84 93 44 35 90 6 65 87 25 73 8 2 59 86 83 41 50 61 89 27 32 38 38 98 16 2 11 24 92 80 9 3 24 32 99 48 57 42 55 70 93 50 59 41 27 10 14 50 9 26 0 80 7 36 94 33 92 9 96 53 13 26 17 64 37 32 1 56 31 79 5 53 7 24 46
90 12 20 16 8 61 58 80 71 10 33 18 93 6 49 53 5 14 37 98 79 76 97 98 24 25 34 94 47 74 71 39 67 77 97 72 5 6 13 25 2 61 84 79 88 78 6 58 52 28 49 26 77 56 28 52 80 0 90 36 6 67 53 21 49 69 70 98 98 60 44 21 63 95 35 41 36 12 48 46 12
54 11 17 2 44 55 56 90 31 23 56 74 83 99 33 75 2 5 21 35 37 44 41 60 42 58 5 47 47 30 48 49 53 85 30 32 4 31 61 71 61 41 91 7 19 86 7 5 22 22 60 46 29 97 58 23 7 90 0 55 23 26 7 89 59 15 88 82 19 16 68 72 71 24 49 7 30 84 95 59 4
95 7 43 63 54 71 64 70 18 52 19 72 42 76 22 98 78 61 2 62 20 58 60 15 48 26 44 61 27 17 77 54 5 8 7 27 14 14 72 8 32 74 26 97 41 93 71 96 96 62 37 54 6 47 22 60 36 36 55 0 27 11 2 93 93 60 16 94 28 54 53 55 83 28 83 48 38 56 55 16 68
2 23 70 36 79 75 60 85 69 52 36 33 15 93 80 8 42 19 6 12 27 15 27 46 74 95 31 13 68 62 23 27 53 53 81 94 21 8 3 89 55 47 39 20 41 31 92 57 71 74 99 15 92 27 22 91 94 6 23 27 0 80 51 21 8 90 75 76 6 92 37 68 68 64 19 25 64 47 61 68 2
75 52 80 3 51 6 14 79 66 51 87 47 28 31 24 24 34 77 87 43 51 97 60 99 14 86 32 97 52 5 34 1 76 67 74 14 60 17 6 72 2 47 44 21 80 80 22 90 27 65 56 28 13 60 59 46 33 67 26 11 80 0 23 36 16 66 77 29 59 30 92 41 70 86 87 53 46 18 59 43 39
65 2 22 50 8 49 72 61 50 84 64 15 37 81 72 55 71 57 85 95 16 58 63 38 85 25 73 10 49 99 19 83 88 51 91 16 3 69 42 14 84 94 63 5 40 74 59 22 63 78 45 28 78 45 20 69 92 53 7 2 51 23 0 4 74 98 49 46 19 25 65 10 50 65 72 33 88 97 13 15 95
52 55 17 31 25 81 82 62 4 65 53 13 73 9 51 51 86 32 71 65 63 86 98 59 91 6 99 85 73 75 96 62 88 64 16 6 86 71 82 16 27 59 29 24 49 90 4 5 28 24 43 70 55 8 55 39 9 21 89 93 21 36 4 0 53 54 7 55 43 67 56 45 50 61 33 80 49 13 10 8 79
32 9 75 9 94 72 59 15 20 38 25 72 68 87 47 6 85 1 76 69 58 84 9 1 98 33 71 87 26 28 71 20 88 58 97 65 57 3 59 22 37 51 71 39 89 28 71 65 43 58 93 36 58 5 57 58 96 49 59 93 8 16 74 53 0 72 78 58 82 31 39 65 69 57 73 56 76 15 67 78 94
77 97 92 47 70 56 40 73 6 61 67 87 61 16 76 68 10 5 51 82 16 11 33 31 93 35 75 69 19 71 46 40 43 8 75 92 60 49 74 29 31 96 4 66 30 96 41 86 36 38 70 49 40 47 31 21 53 69 15 60 90 66 98 54 72 0 71 56 2 21 85 52 99 4 64 34 18 26 66 61 75
92 58 93 37 35 12 97 44 34 45 72 60 5 40 54 80 94 51 29 94 54 8 67 52 22 37 30 82 51 37 43 99 51 85 26 76 8 84 35 77 5 3 55 87 77 50 24 54 20 89 57 61 90 2 11 91 13 70 88 16 75 77 49 7 78 71 0 20 48 49 65 24 98 48 71 90 78 48 4 93 18
79 27 76 31 20 72 71 89 49 22 44 53 8 36 19 63 25 41 11 13 35 41 46 8 35 79 54 98 76 21 64 66 62 74 24 27 94 57 61 44 1 37 92 79 65 64 30 37 79 94 44 5 18 54 41 70 26 98 82 94 76 29 46 55 58 56 20 0 21 77 46 49 64 20 17 84 13 30 6 24 87
5 72 4 72 75 10 23 58 50 31 83 35 71 3 71 92 73 70 87 9 54 27 21 1 62 82 35 31 55 2 75 68 49 48 3 1 6 58 4 2 44 14 12 70 5 55 36 63 56 75 44 52 25 4 81 52 17 98 19 28 6 59 19 43 82 2 48 21 0 9 3 89 50 61 7 4 8 15 61 94 66
65 55 17 42 98 45 69 57 26 35 80 19 3 1 27 5 64 22 34 27 64 97 33 14 95 89 82 92 17 47 46 16 50 63 50 37 62 79 4 36 41 29 7 4 34 86 57 12 34 57 49 70 21 50 78 48 64 60 16 54 92 30 25 67 31 21 49 77 9 0 34 59 39 13 32 21 25 63 89 41 66
72 86 84 63 8 83 41 24 14 53 68 48 35 59 44 13 59 30 36 89 95 55 68 3 30 98 88 65 28 97 54 87 9 44 27 38 37 34 52 3 55 56 59 46 82 85 87 61 61 46 12 4 18 95 12 23 37 44 68 53 37 92 65 56 39 85 65 46 3 34 0 33 74 6 45 62 16 53 45 86 51
58 87 80 48 38 81 25 34 6 58 49 17 25 55 89 93 4 61 38 19 29 20 67 82 98 20 54 14 53 75 25 33 15 37 47 40 55 55 90 18 92 9 84 22 14 32 99 67 42 52 81 39 25 40 62 72 32 21 72 55 68 41 10 45 65 52 24 49 89 59 33 0 61 99 53 72 44 31 45 68 51
68 2 29 5 42 80 21 8 65 15 36 87 32 4 48 93 78 81 77 74 56 82 97 89 18 91 89 7 61 74 97 67 47 84 42 6 45 87 40 34 18 1 3 78 61 76 30 69 68 82 19 86 94 30 8 36 1 63 71 83 68 70 50 50 69 99 98 64 50 39 74 61 0 83 69 25 26 75 96 89 9
56 17 39 2 53 39 35 97 34 97 66 76 18 34 55 98 83 62 87 73 77 3 31 86 79 12 49 63 50 71 85 80 95 19 8 64 91 82 84 72 3 15 47 25 69 72 97 44 46 7 35 72 80 42 96 10 56 95 24 28 64 86 65 61 57 4 48 20 61 13 6 99 83 0 78 35 2 32 47 65 90
75 58 68 85 15 85 27 5 68 76 22 22 41 67 84 64 50 43 35 55 25 20 23 51 98 71 38 59 62 7 64 90 1 19 84 24 65 87 28 69 51 77 94 18 58 21 39 94 33 30 53 4 3 63 16 58 31 35 49 83 19 87 72 33 73 64 71 17 7 32 45 53 69 78 0 89 35 33 76 16 42
72 31 90 51 57 71 21 44 49 10 44 4 18 16 71 74 88 49 79 4 89 30 76 40 21 26 10 54 81 5 77 3 27 58 91 35 8 68 23 15 42 25 60 78 92 89 2 6 27 42 83 70 35 37 28 20 79 41 7 48 25 53 33 80 56 34 90 84 4 21 62 72 25 35 89 0 9 59 33 77 76
95 25 17 15 86 36 79 75 35 48 34 72 25 25 45 55 64 19 71 35 60 7 21 97 49 24 9 61 14 1 44 39 13 62 85 40 78 28 82 28 35 47 61 44 85 52 71 58 92 95 68 18 2 28 87 26 5 36 30 38 64 46 88 49 76 18 78 13 8 25 16 44 26 2 35 9 0 45 70 40 37
18 60 16 17 21 24 27 50 44 57 71 74 39 73 42 4 51 31 15 59 58 13 67 87 52 85 4 65 88 76 2 12 58 2 56 69 90 72 68 18 41 40 27 97 26 64 40 54 89 3 27 3 55 18 90 36 53 12 84 56 47 18 97 13 15 26 48 30 15 63 53 31 75 32 33 59 45 0 36 32 86
57 64 42 13 17 45 27 54 79 2 98 81 36 97 40 17 22 94 7 97 76 52 8 44 36 98 23 35 47 21 54 36 85 88 60 20 14 2 82 44 79 37 64 5 36 8 19 39 7 31 63 15 70 30 42 58 7 48 95 55 61 59 13 10 67 66 4 6 61 89 45 45 96 47 76 33 70 36 0 49 44
38 62 80 21 9 58 5 8 96 9 45 67 20 23 11 39 69 62 57 77 41 5 10 51 91 72 34 56 54 25 65 50 85 98 19 17 11 93 68 79 35 43 22 13 74 43 21 79 96 35 25 47 88 14 19 89 24 46 59 16 68 43 15 8 78 61 93 24 94 41 86 68 89 65 16 77 40 32 49 0 12
26 61 20 67 69 77 55 35 2 29 69 67 42 9 44 83 20 32 36 57 30 34 19 62 50 15 2 78 39 89 79 38 49 33 4 35 18 70 97 19 72 96 13 61 65 36 16 56 61 19 66 9 24 95 52 90 46 12 4 68 2 39 95 79 94 75 18 87 66 66 51 51 9 90 42 76 37 86 44 12 0

0 69 65 26 34 72 40 11 53 19 42 35 71 71 67 90 40 30 38 34 27 13 55 24 21 88 42 75 63 66 63 40 24 87 70 25 36 63 22 63 78 49 19 45 17 65 40 5 66 4 35 37 86 33 52 61 89 98 51 17 86 72 36 44 97 58 46 1 79 18 83 55 85 70 48 21 57 17 18 27 7
69 0 7 89 6 23 94 42 2 8 62 85 26 57 64 49 90 13 81 88 28 42 30 62 5 46 21 86 64 40 74 31 3 90 1 56 8 38 75 15 35 71 83 31 10 60 45 40 32 60 69 92 21 65 69 32 73 96 79 48 96 23 23 98 47 65 98 2 48 88 2 62 56 74 97 87 3 82 17 54 22
65 7 0 48 35 34 65 89 39 89 71 7 42 48 47 8 74 20 36 78 72 47 21 61 19 35 8 5 64 15 56 53 2 49 79 87 28 64 17 45 56 25 73 50 26 60 31 24 31 34 3 80 31 15 22 57 77 84 91 37 51 45 7 81 81 53 33 30 66 13 37 50 31 33 15 50 77 25 28 55 91
26 89 48 0 84 19 17 15 91 83 74 24 70 20 4 34 50 61 52 96 82 86 10 15 13 61 78 86 80 26 54 79 98 77 91 59 22 95 88 62 68 4 93 73 37 81 48 14 12 41 2 31 86 73 88 40 53 82 79 24 40 73 11 90 65 82 65 94 29 40 16 27 39 38 3 43 36 84 29 88 87
34 6 35 84 0 11 53 51 99 68 39 89 1 65 56 43 39 54 62 19 34 88 44 6 75 69 89 53 78 56 17 14 1 31 47 45 89 80 43 41 12 73 15 73 51 31 38 2 7 83 76 83 10 56 68 57 59 25 86 31 49 93 27 31 36 71 73 70 21 83 66 81 55 57 4 48 17 66 47 56 63
72 23 34 19 11 0 11 69 61 93 68 33 74 40 40 10 13 13 82 90 93 23 92 60 10 40 31 37 71 87 14 62 91 87 72 73 19 29 79 7 91 34 97 42 82 75 2 93 23 21 57 85 40 94 40 4 51 61 36 26 33 43 19 45 31 14 49 25 58 69 90 56 84 9 3 25 48 75 2 84 90
40 94 65 17 53 11 0 34 69 71 31 67 41 21 70 43 89 1 58 30 87 30 79 86 79 76 37 13 60 70 80 69 98 78 8 22 66 60 24 92 11 17 38 64 87 54 85 61 80 7 39 1 12 81 84 49 70 19 55 70 92 34 61 25 3 99 14 7 25 17 32 70 26 31 15 94 99 98 28 14 21
11 42 89 15 51 69 34 0 43 59 30 87 51 23 78 93 90 98 40 69 33 79 59 32 53 82 68 6 3 93 46 83 49 12 68 41 87 52 25 90 32 64 12 3 53 41 99 76 31 43 86 99 84 37 45 16 72 55 33 42 23 18 7 75 79 22 21 83 49 93 79 27 81 46 84 81 85 35 40 10 82
53 2 39 91 99 61 69 43 0 95 58 11 40 92 12 38 36 75 1 61 80 85 89 7 6 41 65 12 35 91 23 82 52 91 69 45 81 35 70 43 48 30 53 74 16 59 8 12 67 33 75 99 48 10 7 56 63 85 4 9 74 32 30 5 31 36 35 60 47 93 19 81 56 67 45 19 37 3 39 73 13
19 8 89 83 68 93 71 59 95 0 33 12 41 33 32 79 76 83 34 36 37 91 74 31 13 50 87 59 23 45 94 4 85 44 41 99 70 31 62 60 50 21 59 30 16 11 74 88 21 8 60 48 88 30 58 22 13 2 20 16 10 46 96 58 96 16 57 81 71 40 49 81 54 11 14 16 7 48 76 34 5
42 62 71 74 39 68 31 30 58 33 0 96 22 75 61 38 62 87 94 13 46 44 64 44 81 61 91 14 37 62 92 79 87 19 89 32 47 13 15 91 26 10 17 69 55 39 81 74 93 71 56 18 98 61 44 15 42 61 63 12 6 33 74 72 74 96 93 70 19 29 90 2 70 5 19 48 18 35 14 89 57
35 85 7 24 89 33 67 87 11 12 96 0 42 29 55 24 39 87 56 59 97 76 52 27 14 37 72 64 7 18 17 16 78 46 15 97 80 14 89 56 12 93 59 14 68 12 7 33 10 1 34 17 67 8 95 47 1 39 76 41 2 42 24 36 56 60 63 96 68 39 27 65 22 80 80 52 91 39 1 79 48
71 26 42 70 1 74 41 51 40 41 22 42 0 60 4 32 83 26 8 66 93 55 37 58 67 39 37 27 6 68 43 69 85 89 77 38 57 20 92 4 10 47 29 27 88 58 48 8 62 3 53 41 9 72 91 31 42 15 42 77 23 35 56 39 93 86 60 7 65 59 15 98 47 19 56 94 57 57 63 70 46
71 57 48 20 65 40 21 23 92 33 75 29 60 0 1 76 75 63 78 51 33 76 73 72 33 87 94 29 30 66 82 18 46 8 93 8 73 45 47 5 1 48 53 70 65 73 71 64 60 28 36 44 67 16 91 63 22 79 47 81 93 11 19 40 88 17 84 29 4 51 14 70 3 51 99 72 92 73 29 23 24
67 64 47 4 56 40 70 78 12 32 61 55 4 1 0 84 40 17 87 8 3 14 14 83 99 70 55 43 55 19 87 1 58 9 46 77 79 75 78 64 70 40 47 92 68 47 64 3 36 49 79 7 64 51 21 80 95 25 27 90 49 85 63 55 71 44 88 14 22 65 70 48 44 19 62 10 80 6 35 88 96
90 49 8 34 43 10 43 93 38 79 38 24 32 76 84 0 97 16 4 63 9 47 31 57 53 41 35 34 95 59 72 68 39 13 6 62 21 94 15 39 3 75 66 80 92 72 19 27 81 11 74 9 9 44 36 6 31 81 58 90 64 11 35 2 88 1 88 49 94 49 80 73 98 47 38 19 18 10 40 48 92
40 90 74 50 39 13 89 90 36 76 62 39 83 75 40 97 0 37 34 42 71 79 12 95 90 74 22 53 24 14 25 6 14 62 17 83 56 57 23 72 26 60 86 1 40 45 84 43 53 7 6 33 5 36 66 64 80 24 4 22 20 98 55 2 55 48 67 67 76 7 61 93 81 93 32 57 97 72 58 15 88
30 13 20 61 54 13 1 98 75 83 87 87 26 63 17 16 37 0 4 2 47 59 90 47 52 35 87 52 81 19 50 31 89 95 53 16 2 19 38 72 38 41 47 24 65 93 97 89 22 35 57 93 26 68 2 53 38 27 67 38 30 45 56 82 61 59 40 53 77 3 20 52 4 20 97 27 65 64 65 41 57
38 81 36 52 62 82 58 40 1 34 94 56 8 78 87 4 34 4 0 6 5 29 95 63 77 30 95 99 78 90 97 11 7 69 85 54 9 78 5 84 70 37 92 27 15 71 29 95 53 77 68 76 71 2 82 56 96 35 84 78 14 84 53 85 37 14 63 79 59 40 32 58 21 81 6 4 47 59 8 21 74
34 88 78 96 19 90 30 69 61 36 13 59 66 51 8 63 42 2 6 0 37 40 91 58 45 17 92 3 76 77 2 67 91 25 84 66 1 88 20 18 23 78 27 42 29 71 96 36 19 33 32 1 90 21 91 40 56 9 41 21 73 3 96 18 17 85 3 80 75 64 99 35 42 59 13 70 39 69 72 3 69
27 28 72 82 34 93 87 33 80 37 46 97 93 33 3 9 71 47 5 37 0 87 20 96 41 26 24 6 86 60 45 23 78 33 37 10 80 34 65 16 65 53 87 10 66 4 51 64 54 16 57 93 71 94 47 32 77 38 36 23 82 34 94 83 30 96 45 38 85 21 78 55 23 34 50 19 44 4 91 89 15
13 42 47 86 88 23 30 79 85 91 44 76 55 76 14 47 79 59 29 40 87 0 58 27 23 3 76 51 99 73 66 59 43 78 26 27 4 86 70 56 13 88 79 92 1 44 27 91 54 47 56 23 94 57 30 50 85 67 99 87 47 63 11 12 8 86 4 67 44 78 34 22 26 63 53 87 8 71 41 21 83
55 30 21 10 44 92 79 59 89 74 64 52 37 73 14 31 12 90 95 91 20 58 0 46 34 84 42 87 67 82 62 73 27 40 9 82 79 99 45 19 36 49 89 66 5 51 98 74 21 45 60 68 96 76 60 39 96 56 10 93 77 24 51 77 44 4 99 40 49 70 53 36 71 52 58 42 67 38 75 81 24
24 62 61 15 6 60 86 32 7 31 44 27 58 72 83 57 95 47 63 58 96 27 46 0 73 2 12 11 4 95 42 23 1 14 3 96 37 24 35 48 8 56 9 31 14 5 75 35 50 8 18 86 94 88 2 61 16 29 73 34 57 11 4 50 2 63 2 65 76 23 9 93 82 87 19 20 21 71 47 55 33
21 5 19 13 75 10 79 53 6 13 81 14 67 33 99 53 90 52 77 45 41 23 34 73 0 50 18 98 28 31 56 95 10 45 31 99 1 7 57 39 3 84 52 26 97 86 18 18 71 96 4 87 52 10 93 26 63 17 84 95 33 53 31 79 76 76 94 69 25 24 41 83 64 91 84 2 84 50 28 77 76
88 46 35 61 69 40 76 82 41 50 61 37 39 87 70 41 74 35 30 17 26 3 84 2 50 0 2 11 20 94 59 30 48 71 91 23 87 78 33 24 72 3 54 80 92 74 89 24 3 56 35 8 13 93 32 94 1 61 20 95 65 90 49 80 94 64 66 50 75 48 55 53 9 89 50 85 30 14 52 12 75
42 21 8 78 89 31 37 68 65 87 91 72 37 94 55 35 22 87 95 92 24 76 42 12 18 2 0 95 67 31 3 2 9 23 39 78 7 30 97 34 57 98 85 54 31 97 70 33 85 9 7 2 40 15 28 2 42 59 66 53 27 81 92 31 76 37 6 7 3 84 69 49 63 56 73 5 26 1 82 70 7
75 86 5 86 53 37 13 6 12 59 14 64 27 29 43 34 53 52 99 3 6 51 87 11 98 11 95 0 89 84 38 72 55 85 82 19 26 67 54 65 25 97 66 15 93 76 27 2 9 64 44 26 46 12 85 82 48 42 58 28 46 41 60 63 48 91 16 37 90 56 72 73 44 45 55 11 38 24 48 48 50
63 64 64 80 78 71 60 3 35 23 37 7 6 30 55 95 24 81 78 76 86 99 67 4 28 20 67 89 0 67 59 36 15 67 88 32 3 79 37 23 43 57 37 84 12 45 8 72 67 62 30 30 33 49 93 64 2 62 65 96 88 46 40 32 76 48 48 19 99 48 17 79 23 10 79 60 11 57 79 37 82
66 40 15 26 56 87 70 93 91 45 62 18 68 66 19 59 14 19 90 77 60 73 82 95 31 94 31 84 67 0 19 7 70 60 33 25 32 12 57 80 96 2 9 7 56 96 42 55 30 50 98 92 14 76 28 87 60 43 3 9 82 81 16 65 35 73 24 13 62 85 63 68 93 25 30 35 94 28 36 69 1
63 74 56 54 17 14 80 46 23 94 92 17 43 82 87 72 25 50 97 2 45 66 62 42 56 59 3 38 59 19 0 96 21 29 60 24 39 27 72 39 24 24 6 82 69 67 98 52 40 41 31 59 13 86 32 35 70 16 98 11 65 65 73 31 66 19 11 65 35 21 11 59 81 59 34 93 34 14 28 81 43
40 31 53 79 14 62 69 83 82 4 79 16 69 18 1 68 6 31 11 67 23 59 73 23 95 30 2 72 36 7 96 0 47 12 60 55 77 25 58 71 34 51 29 19 26 94 35 98 73 37 50 86 38 88 56 82 56 96 99 31 43 17 58 53 78 12 43 47 61 5 28 59 8 19 89 74 45 86 28 21 27
24 3 2 98 1 91 98 49 52 85 87 78 85 46 58 39 14 89 7 91 78 43 27 1 10 48 9 55 15 70 21 47 0 90 86 73 81 39 22 26 76 36 16 77 41 70 79 43 78 15 20 18 93 36 24 83 41 19 12 32 8 2 46 52 35 61 17 66 29 45 4 24 50 7 12 90 72 77 17 79 39
87 90 49 77 31 87 78 12 91 44 19 46 89 8 9 13 62 95 69 25 33 78 40 14 45 71 23 85 67 60 29 12 90 0 76 61 45 20 27 14 45 28 26 10 4 25 54 41 56 58 8 27 80 70 33 56 89 94 26 36 4 29 33 15 8 97 55 57 53 28 42 45 65 84 52 27 89 39 38 87 40
70 1 79 91 47 72 8 68 69 41 89 15 77 93 46 6 17 53 85 84 37 26 9 3 31 91 39 82 88 33 60 60 86 76 0 93 14 45 61 87 43 17 42 26 19 37 93 80 91 61 10 25 15 53 94 19 96 54 67 42 67 60 5 85 37 11 74 95 9 25 7 95 90 13 49 98 83 85 92 99 49
25 56 87 59 45 73 22 41 45 99 32 97 38 8 77 62 83 16 54 66 10 27 82 96 99 23 78 19 32 25 24 55 73 61 93 0 81 47 99 45 52 83 63 89 19 73 81 86 56 53 2 93 29 27 84 70 27 36 6 68 69 93 7 37 76 16 18 93 50 67 26 63 24 65 20 76 89 35 47 16 98
36 8 28 22 89 19 66 87 81 70 47 80 57 73 79 21 56 2 9 1 80 4 79 37 1 87 7 26 3 32 39 77 81 45 14 81 0 26 86 98 95 40 17 93 30 92 29 88 19 64 36 66 16 74 37 36 31 55 44 54 77 7 75 93 88 21 69 63 21 71 31 89 4 44 13 42 92 98 66 24 73
63 38 64 95 80 29 60 52 35 31 13 14 20 45 75 94 57 19 78 88 34 86 99 24 7 78 30 67 79 12 27 25 39 20 45 47 26 0 91 42 71 5 71 17 10 48 32 79 62 47 56 99 2 76 83 48 73 19 26 13 7 34 18 49 15 76 80 92 34 9 6 42 92 91 1 57 63 18 26 92 48
22 75 17 88 43 79 24 25 70 62 15 89 92 47 78 15 23 38 5 20 65 70 45 35 57 33 97 54 37 57 72 58 22 27 61 99 86 91 0 52 74 60 87 84 62 59 25 33 16 39 26 36 15 48 79 86 65 5 85 70 30 17 42 98 72 10 57 75 41 14 31 76 66 7 95 36 60 78 1 39 14
63 15 45 62 41 7 92 90 43 60 91 56 4 5 64 39 72 72 84 18 16 56 19 48 39 24 34 65 23 80 39 71 26 14 87 45 98 42 52 0 2 10 81 34 67 3 90 99 47 47 91 19 90 34 65 67 75 79 4 74 88 86 96 61 78 93 4 59 9 82 54 27 65 66 93 96 25 90 3 53 14
78 35 56 68 12 91 11 32 48 50 26 12 10 1 70 3 26 38 70 23 65 13 36 8 3 72 57 25 43 96 24 34 76 45 43 52 95 71 74 2 0 88 10 97 43 18 31 74 95 21 78 3 18 91 86 87 74 52 97 99 29 76 55 34 89 11 4 43 49 17 38 20 66 39 26 63 73 87 58 59 26
49 71 25 4 73 34 17 64 30 21 10 93 47 48 40 75 60 41 37 78 53 88 49 56 84 3 98 97 57 2 24 51 36 28 17 83 40 5 60 10 88 0 15 29 53 44 9 94 54 45 99 96 21 8 62 82 30 90 29 24 19 71 44 11 18 88 62 7 26 31 6 37 69 26 35 12 21 22 94 61 96
19 83 73 93 15 97 38 12 53 59 17 59 29 53 47 66 86 47 92 27 87 79 89 9 52 54 85 66 37 9 6 29 16 26 42 63 17 71 87 81 10 15 0 97 15 34 4 59 93 47 19 28 11 41 9 34 39 36 6 73 67 55 99 58 36 28 92 5 8 76 47 9 53 85 33 90 35 20 82 58 32
45 31 50 73 73 42 64 3 74 30 69 14 27 70 92 80 1 24 27 42 10 92 66 31 26 80 54 15 84 7 82 19 77 10 26 89 93 17 84 34 97 29 97 0 35 28 82 10 16 32 58 99 80 33 16 48 1 47 15 75 76 6 67 69 89 29 53 42 8 24 9 78 35 3 85 84 40 52 35 80 63
17 10 26 37 51 82 87 53 16 16 55 68 88 65 68 92 40 65 15 29 66 1 5 14 97 92 31 93 12 56 69 26 41 4 19 19 30 10 62 67 43 53 15 35 0 69 7 51 17 97 24 58 5 66 38 84 28 84 98 25 66 42 30 47 2 7 31 58 34 8 79 89 62 17 63 4 92 32 48 16 24
65 60 60 81 31 75 54 41 59 11 39 12 58 73 47 72 45 93 71 71 4 44 51 5 86 74 97 76 45 96 67 94 70 25 37 73 92 48 59 3 18 44 34 28 69 0 6 36 98 58 25 19 68 71 96 59 89 91 44 39 56 60 99 8 49 22 83 97 80 30 98 85 71 71 33 96 9 44 84 4 75
40 45 31 48 38 2 85 99 8 74 81 7 48 71 64 19 84 97 29 96 51 27 98 75 18 89 70 27 8 42 98 35 79 54 93 81 29 32 25 90 31 9 4 82 7 6 0 41 36 56 11 56 40 86 61 72 43 43 77 34 8 44 80 66 12 93 50 94 7 91 13 90 96 24 59 13 14 29 50 15 54
5 40 24 14 2 93 61 76 12 88 74 33 8 64 3 27 43 89 95 36 64 91 74 35 18 24 33 2 72 55 52 98 43 41 80 86 88 79 33 99 74 94 59 10 51 36 41 0 53 14 46 58 87 94 88 46 63 4 45 47 51 98 20 54 44 66 10 76 40 3 85 34 8 93 4 52 99 26 77 90 71
66 32 31 12 7 23 80 31 67 21 93 10 62 60 36 81 53 22 53 19 54 54 21 50 71 3 85 9 67 30 40 73 78 56 91 56 19 62 16 47 95 54 93 16 17 98 36 53 0 25 30 14 4 65 85 28 30 65 85 26 91 30 52 21 55 90 92 29 65 9 45 43 74 71 90 33 83 20 4 51 21
4 60 34 41 83 21 7 43 33 8 71 1 3 28 49 11 7 35 77 33 16 47 45 8 96 56 9 64 62 50 41 37 15 58 61 53 64 47 39 47 21 45 47 32 97 58 56 14 25 0 58 27 58 36 68 9 65 15 86 1 40 83 36 33 96 67 6 9 86 13 52 68 76 98 16 75 16 12 45 81 37
35 69 3 2 76 57 39 86 75 60 56 34 53 36 79 74 6 57 68 32 57 56 60 18 4 35 7 44 30 98 31 50 20 8 10 2 36 56 26 91 78 99 19 58 24 25 11 46 30 58 0 53 92 36 86 43 49 97 11 74 2 14 54 92 55 2 53 71 77 23 72 69 26 96 39 81 33 64 36 80 45
37 92 80 31 83 85 1 99 99 48 18 17 41 44 7 9 33 93 76 1 93 23 68 86 87 8 2 26 30 92 59 86 18 27 25 93 66 99 36 19 3 96 28 99 58 19 56 58 14 27 53 0 44 46 70 35 75 53 1 51 49 19 97 4 90 77 6 72 9 4 65 24 12 53 9 70 16 86 50 79 88
86 21 31 86 10 40 12 84 48 88 98 67 9 67 64 9 5 26 71 90 71 94 96 94 52 13 40 46 33 14 13 38 93 80 15 29 16 2 15 90 18 21 11 80 5 68 40 87 4 58 92 44 0 46 25 11 69 58 46 65 2 20 31 31 17 54 63 47 24 90 52 9 68 14 18 61 24 15 86 8 23
33 65 15 73 56 94 81 37 10 30 61 8 72 16 51 44 36 68 2 21 94 57 76 88 10 93 15 12 49 76 86 88 36 70 53 27 74 76 48 34 91 8 41 33 66 71 86 94 65 36 36 46 46 0 68 21 47 31 75 67 21 17 67 95 98 55 90 55 22 71 84 61 97 64 83 58 80 52 97 97 2
52 69 22 88 68 40 84 45 7 58 44 95 91 91 21 36 66 2 82 91 47 30 60 2 93 32 28 85 93 28 32 56 24 33 94 84 37 83 79 65 86 62 9 16 38 96 61 88 85 68 86 70 25 68 0 94 17 12 92 59 11 28 23 6 57 70 56 53 22 45 65 27 31 41 74 11 16 34 26 73 85
61 32 57 40 57 4 49 16 56 22 15 47 31 63 80 6 64 53 56 40 32 50 39 61 26 94 2 82 64 87 35 82 83 56 19 70 36 48 86 67 87 82 34 48 84 59 72 46 28 9 43 35 11 21 94 0 25 91 30 63 85 31 20 96 59 20 76 43 20 26 49 42 33 24 40 59 74 25 34 49 17
89 73 77 53 59 51 70 72 63 13 42 1 42 22 95 31 80 38 96 56 77 85 96 16 63 1 42 48 2 60 70 56 41 89 96 27 31 73 65 75 74 30 39 1 28 89 43 63 30 65 49 75 69 47 17 25 0 21 48 90 94 37 15 37 32 32 98 94 9 65 65 73 95 49 33 39 12 54 12 86 99
98 96 84 82 25 61 19 55 85 2 61 39 15 79 25 81 24 27 35 9 38 67 56 29 17 61 59 42 62 43 16 96 19 94 54 36 55 19 5 79 52 90 36 47 84 91 43 4 65 15 97 53 58 31 12 91 21 0 36 46 67 6 13 68 32 71 45 94 30 11 19 11 88 79 22 55 43 14 43 47 27
51 79 91 79 86 36 55 33 4 20 63 76 42 47 27 58 4 67 84 41 36 99 10 73 84 20 66 58 65 3 98 99 12 26 67 6 44 26 85 4 97 29 6 15 98 44 77 45 85 86 11 1 46 75 92 30 48 36 0 61 99 61 87 30 92 39 17 20 67 55 42 73 36 38 1 52 49 91 48 77 66
17 48 37 24 31 26 70 42 9 16 12 41 77 81 90 90 22 38 78 21 23 87 93 34 95 95 53 28 96 9 11 31 32 36 42 68 54 13 70 74 99 24 73 75 25 39 34 47 26 1 74 51 65 67 59 63 90 46 61 0 63 11 68 99 20 17 17 96 36 26 14 19 83 1 39 75 89 31 12 58 52
86 96 51 40 49 33 92 23 74 10 6 2 23 93 49 64 20 30 14 73 82 47 77 57 33 65 27 46 88 82 65 43 8 4 67 69 77 7 30 88 29 19 67 76 66 56 8 51 91 40 2 49 2 21 11 85 94 67 99 63 0 70 9 48 9 18 33 8 99 14 50 21 99 64 51 32 4 4 60 66 12
72 23 45 73 93 43 34 18 32 46 33 42 35 11 85 11 98 45 84 3 34 63 24 11 53 90 81 41 46 81 65 17 2 29 60 93 7 34 17 86 76 71 55 6 42 60 44 98 30 83 14 19 20 17 28 31 37 6 61 11 70 0 87 32 84 65 28 35 12 83 1 17 80 60 37 53 59 81 34 73 9
36 23 7 11 27 19 61 7 30 96 74 24 56 19 63 35 55 56 53 96 94 11 51 4 31 49 92 60 40 16 73 58 46 33 5 7 75 18 42 96 55 44 99 67 30 99 80 20 52 36 54 97 31 67 23 20 15 13 87 68 9 87 0 34 5 77 41 32 41 29 70 55 26 37 86 15 21 71 71 52 71
44 98 81 90 31 45 25 75 5 58 72 36 39 40 55 2 2 82 85 18 83 12 77 50 79 80 31 63 32 65 31 53 52 15 85 37 93 49 98 61 34 11 58 69 47 8 66 54 21 33 92 4 31 95 6 96 37 68 30 99 48 32 34 0 1 79 65 36 56 83 63 65 60 65 51 6 2 47 59 54 11
97 47 81 65 36 31 3 79 31 96 74 56 93 88 71 88 55 61 37 17 30 8 44 2 76 94 76 48 76 35 66 78 35 8 37 76 88 15 72 78 89 18 36 89 2 49 12 44 55 96 55 90 17 98 57 59 32 32 92 20 9 84 5 1 0 1 78 20 10 13 65 85 36 94 27 83 91 76 27 71 65
58 65 53 82 71 14 99 22 36 16 96 60 86 17 44 1 48 59 14 85 96 86 4 63 76 64 37 91 48 73 19 12 61 97 11 16 21 76 10 93 11 88 28 29 7 22 93 66 90 67 2 77 54 55 70 20 32 71 39 17 18 65 77 79 1 0 27 82 76 12 51 67 72 45 44 82 51 94 56 26 82
46 98 33 65 73 49 14 21 35 57 93 63 60 84 88 88 67 40 63 3 45 4 99 2 94 66 6 16 48 24 11 43 17 55 74 18 69 80 57 4 4 62 92 53 31 83 50 10 92 6 53 6 63 90 56 76 98 45 17 17 33 28 41 65 78 27 0 84 40 39 78 5 13 49 16 68 22 8 27 30 27
1 2 30 94 70 25 7 83 60 81 70 96 7 29 14 49 67 53 79 80 38 67 40 65 69 50 7 37 19 13 65 47 66 57 95 93 63 92 75 59 43 7 5 42 58 97 94 76 29 9 71 72 47 55 53 43 94 94 20 96 8 35 32 36 20 82 84 0 69 60 43 76 6 75 4 15 29 27 76 25 17
79 48 66 29 21 58 25 49 47 71 19 68 65 4 22 94 76 77 59 75 85 44 49 76 25 75 3 90 99 62 35 61 29 53 9 50 21 34 41 9 49 26 8 8 34 80 7 40 65 86 77 9 24 22 22 20 9 30 67 36 99 12 41 56 10 76 40 69 0 74 35 79 38 44 97 73 58 35 40 31 86
18 88 13 40 83 69 17 93 93 40 29 39 59 51 65 49 7 3 40 64 21 78 70 23 24 48 84 56 48 85 21 5 45 28 25 67 71 9 14 82 17 31 76 24 8 30 91 3 9 13 23 4 90 71 45 26 65 11 55 26 14 83 29 83 13 12 39 60 74 0 73 51 50 4 48 7 29 23 76 44 85
83 2 37 16 66 90 32 79 19 49 90 27 15 14 70 80 61 20 32 99 78 34 53 9 41 55 69 72 17 63 11 28 4 42 7 26 31 6 31 54 38 6 47 9 79 98 13 85 45 52 72 65 52 84 65 49 65 19 42 14 50 1 70 63 65 51 78 43 35 73 0 49 79 67 67 52 61 79 15 6 91
55 62 50 27 81 56 70 27 81 81 2 65 98 70 48 73 93 52 58 35 55 22 36 93 83 53 49 73 79 68 59 59 24 45 95 63 89 42 76 27 20 37 9 78 89 85 90 34 43 68 69 24 9 61 27 42 73 11 73 19 21 17 55 65 85 67 5 76 79 51 49 0 36 38 37 3 85 27 19 97 83
85 56 31 39 55 84 26 81 56 54 70 22 47 3 44 98 81 4 21 42 23 26 71 82 64 9 63 44 23 93 81 8 50 65 90 24 4 92 66 65 66 69 53 35 62 71 96 8 74 76 26 12 68 97 31 33 95 88 36 83 99 80 26 60 36 72 13 6 38 50 79 36 0 52 73 43 35 18 8 68 59
70 74 33 38 57 9 31 46 67 11 5 80 19 51 19 47 93 20 81 59 34 63 52 87 91 89 56 45 10 25 59 19 7 84 13 65 44 91 7 66 39 26 85 3 17 71 24 93 71 98 96 53 14 64 41 24 49 79 38 1 64 60 37 65 94 45 49 75 44 4 67 38 52 0 75 43 21 89 26 24 7
48 97 15 3 4 3 15 84 45 14 19 80 56 99 62 38 32 97 6 13 50 53 58 19 84 50 73 55 79 30 34 89 12 52 49 20 13 1 95 93 26 35 33 85 63 33 59 4 90 16 39 9 18 83 74 40 33 22 1 39 51 37 86 51 27 44 16 4 97 48 67 37 73 75 0 29 31 71 79 77 93
21 87 50 43 48 25 94 81 19 16 48 52 94 72 10 19 57 27 4 70 19 87 42 20 2 85 5 11 60 35 93 74 90 27 98 76 42 57 36 96 63 12 90 84 4 96 13 52 33 75 81 70 61 58 11 59 39 55 52 75 32 53 15 6 83 82 68 15 73 7 52 3 43 43 29 0 26 82 12 75 34
57 3 77 36 17 48 99 85 37 7 18 91 57 92 80 18 97 65 47 39 44 8 67 21 84 30 26 38 11 94 34 45 72 89 83 89 92 63 60 25 73 21 35 40 92 9 14 99 83 16 33 16 24 80 16 74 12 43 49 89 4 59 21 2 91 51 22 29 58 29 61 85 35 21 31 26 0 34 67 32 77
17 82 25 84 66 75 98 35 3 48 35 39 57 73 6 10 72 64 59 69 4 71 38 71 50 14 1 24 57 28 14 86 77 39 85 35 98 18 78 90 87 22 20 52 32 44 29 26 20 12 64 86 15 52 34 25 54 14 91 31 4 81 71 47 76 94 8 27 35 23 79 27 18 89 71 82 34 0 99 81 10
18 17 28 29 47 2 28 40 39 76 14 1 63 29 35 40 58 65 8 72 91 41 75 47 28 52 82 48 79 36 28 28 17 38 92 47 66 26 1 3 58 94 82 35 48 84 50 77 4 45 36 50 86 97 26 34 12 43 48 12 60 34 71 59 27 56 27 76 40 76 15 19 8 26 79 12 67 99 0 40 48
27 54 55 88 56 84 14 10 73 34 89 79 70 23 88 48 15 41 21 3 89 21 81 55 77 12 70 48 37 69 81 21 79 87 99 16 24 92 39 53 59 61 58 80 16 4 15 90 51 81 80 79 8 97 73 49 86 47 77 58 66 73 52 54 71 26 30 25 31 44 6 97 68 24 77 75 32 81 40 0 24
7 22 91 87 63 90 21 82 13 5 57 48 46 24 96 92 88 57 74 69 15 83 24 33 76 75 7 50 82 1 43 27 39 40 49 98 73 48 14 14 26 96 32 63 24 75 54 71 21 37 45 88 23 2 85 17 99 27 66 52 12 9 71 11 65 82 27 17 86 85 91 83 59 7 93 34 77 10 48 24 0
